<svg width="171" height="211" viewBox="0 0 171 211" fill="none" xmlns="http://www.w3.org/2000/svg">
<g clip-path="url(#clip0)">
<path d="M183.384 59.5063C175.616 59.5063 169.317 53.2081 169.317 45.4398C169.317 53.2081 163.019 59.5063 155.251 59.5063H116.567V84.1229C116.578 100.05 126.351 114.338 141.184 120.13V129.84C141.184 137.608 147.482 143.906 155.25 143.906C163.019 143.906 169.317 137.608 169.317 129.84V120.13C184.15 114.338 193.923 100.05 193.933 84.1229V59.5063H183.384Z" fill="#FEE8AF"/>
<path d="M141.184 27.8562V17.3062C141.184 9.53789 147.482 3.23962 155.25 3.23962C163.019 3.23962 169.317 9.53789 169.317 17.3062V27.8562H141.184Z" fill="#0B9FBD"/>
<path d="M49.7506 -0.276978H42.7172V77.0895H49.7506V-0.276978Z" fill="#2AB69D"/>
<path d="M148.217 84.1229H141.184V80.6064C141.184 78.6654 139.608 77.0899 137.667 77.0899C135.726 77.0899 134.151 78.6654 134.151 80.6064V84.1229H127.117V80.6064C127.117 74.7792 131.84 70.0564 137.667 70.0564C143.495 70.0564 148.217 74.7792 148.217 80.6064V84.1229Z" fill="#42210B"/>
<path d="M183.384 84.1229H176.35V80.6064C176.35 78.6654 174.775 77.0899 172.834 77.0899C170.893 77.0899 169.317 78.6654 169.317 80.6064V84.1229H162.284V80.6064C162.284 74.7792 167.007 70.0564 172.834 70.0564C178.661 70.0564 183.384 74.7792 183.384 80.6064V84.1229Z" fill="#42210B"/>
<path d="M144.701 94.673H165.801V98.1895C165.801 104.017 161.078 108.739 155.251 108.739C149.424 108.739 144.701 104.017 144.701 98.1895V94.673Z" fill="#E65848"/>
<path d="M116.567 73.5729H109.534C105.648 73.5729 102.5 76.7202 102.5 80.6064C102.5 84.4921 105.647 87.6398 109.534 87.6398H116.567V73.5729Z" fill="#FEE8AF"/>
<path d="M88.4337 126.323V147.423H102.501V207.206H208.001V126.323H88.4337Z" fill="#2AB69D"/>
<path d="M165.801 168.523H144.701C143.414 168.523 142.228 167.819 141.613 166.691L119.588 126.323H127.606L146.789 161.489H163.715L182.898 126.323H190.987L168.888 166.691C168.273 167.819 167.088 168.523 165.801 168.523Z" fill="#E65848"/>
<path d="M37.1397 -0.277047C33.0215 -0.287762 29.069 1.34749 26.164 4.26646C24.5745 5.86297 22.4151 6.75972 20.1612 6.75642H0.517212V48.9564H20.1612C24.2794 48.9671 28.232 47.3319 31.1369 44.4129C32.7264 42.8164 34.8859 41.9197 37.1397 41.923H49.7507V-0.277047H37.1397Z" fill="#E65848"/>
<path d="M60.3007 94.6729L74.3673 126.323H88.4338V147.423H69.8238C64.0703 147.423 58.9008 143.92 56.7628 138.582L39.2007 94.6729V73.5729H60.3007V94.6729Z" fill="#FEE8AF"/>
<path d="M60.3007 73.5729H39.2007V94.6729H60.3007V73.5729Z" fill="#FDC536"/>
<path d="M193.934 59.5065C193.934 40.0838 178.19 24.34 158.767 24.34H151.734C132.311 24.34 116.567 40.0842 116.567 59.5065H155.251C163.019 59.5065 169.317 53.2082 169.317 45.44C169.317 53.2082 175.615 59.5065 183.384 59.5065H193.934Z" fill="#0B9FBD"/>
<path d="M169.317 161.49H141.184V196.656H169.317V161.49Z" fill="#FDC536"/>
<path d="M141.184 84.1229H148.217V80.6064C148.217 74.7792 143.495 70.0564 137.667 70.0564C131.84 70.0564 127.117 74.7792 127.117 80.6064V84.1229H134.151V80.6064C134.151 78.6654 135.726 77.0899 137.667 77.0899C139.608 77.0899 141.184 78.6654 141.184 80.6064V84.1229Z" fill="black"/>
<path d="M169.317 80.6064C169.317 78.6654 170.893 77.0899 172.834 77.0899C174.775 77.0899 176.35 78.6654 176.35 80.6064V84.1229H183.384V80.6064C183.384 74.7792 178.661 70.0564 172.834 70.0564C167.007 70.0564 162.284 74.7792 162.284 80.6064V84.1229H169.317V80.6064Z" fill="black"/>
<path d="M169.317 98.1894V91.1559H141.184V98.1894C141.184 105.958 147.482 112.256 155.25 112.256C163.019 112.256 169.317 105.958 169.317 98.1894ZM148.217 98.1894H162.284C162.284 102.075 159.137 105.223 155.25 105.223C151.365 105.223 148.217 102.076 148.217 98.1894Z" fill="black"/>
<path d="M208.001 122.806H172.834V122.437C185.498 116.603 194.469 104.899 196.814 91.1564H200.967C206.794 91.1564 211.517 86.4337 211.517 80.6064C211.517 74.7792 206.794 70.0564 200.967 70.0564H197.451V59.5064C197.426 43.5866 187.66 29.3054 172.834 23.5099V17.3064C172.834 7.59671 164.96 -0.277047 155.251 -0.277047C145.541 -0.277047 137.667 7.59671 137.667 17.3064V23.5099C122.841 29.3054 113.075 43.5866 113.051 59.5064V70.0564H109.534C103.707 70.0564 98.9842 74.7792 98.9842 80.6064C98.9842 86.4337 103.707 91.1564 109.534 91.1564H113.687C116.033 104.899 125.004 116.603 137.668 122.437V122.806H76.6495L63.8172 93.9275V73.573C63.8172 71.6319 62.2417 70.0564 60.3007 70.0564H49.7507V-0.277047H37.1397C33.0215 -0.287762 29.069 1.34749 26.164 4.26646C24.5745 5.86297 22.4151 6.75972 20.1612 6.75642H0.517212V48.9564H20.1612C24.2794 48.9671 28.232 47.3319 31.1369 44.4129C32.7264 42.8164 34.8859 41.9197 37.1397 41.923H42.7172V70.0564H39.2007C37.2596 70.0564 35.6842 71.6319 35.6842 73.573V94.673C35.6842 95.1197 35.7686 95.566 35.9339 95.981L53.4959 139.887C56.1474 146.579 62.6254 150.964 69.8237 150.94H98.9837V207.206C98.9837 209.147 100.559 210.723 102.5 210.723H208C209.941 210.723 211.517 209.147 211.517 207.206V126.323C211.517 124.382 209.942 122.806 208.001 122.806ZM37.1397 34.8895C33.0215 34.8788 29.069 36.514 26.164 39.433C24.5745 41.0295 22.4151 41.9263 20.1612 41.923H7.55068V13.7895H20.1616C24.2799 13.8002 28.2324 12.1649 31.1374 9.24598C32.7269 7.64947 34.8863 6.75272 37.1401 6.75601H42.7172V34.8895H37.1397ZM165.801 129.839C165.801 135.667 161.078 140.39 155.251 140.39C149.423 140.39 144.701 135.667 144.701 129.839H165.801ZM200.967 77.0895C202.908 77.0895 204.484 78.665 204.484 80.606C204.484 82.5471 202.908 84.1226 200.967 84.1226H197.451V77.0891H200.967V77.0895ZM144.701 20.823V17.3064C144.701 11.4792 149.423 6.75642 155.251 6.75642C161.078 6.75642 165.801 11.4792 165.801 17.3064V20.823H144.701ZM151.734 27.8564H158.767C174.877 27.8774 188.413 39.9819 190.22 55.9899H186.901C181.073 55.9899 176.351 51.2671 176.351 45.4399C176.351 43.4989 174.775 41.9234 172.834 41.9234H165.801C163.86 41.9234 162.284 43.4989 162.284 45.4399C162.284 51.2671 157.561 55.9899 151.734 55.9899H120.281C122.088 39.9819 135.624 27.8774 151.734 27.8564ZM109.534 84.123C107.593 84.123 106.017 82.5475 106.017 80.6064C106.017 78.6654 107.593 77.0899 109.534 77.0899H113.05V84.123H109.534ZM120.084 84.123V63.023H151.734C160.086 63.0122 167.284 57.136 168.965 48.9564H169.669C171.35 57.1364 178.548 63.0127 186.9 63.023H190.417V84.123C190.417 103.546 174.673 119.289 155.25 119.289C135.828 119.289 120.084 103.546 120.084 84.123ZM137.667 129.839C137.667 139.549 145.541 147.423 155.251 147.423C164.96 147.423 172.834 139.549 172.834 129.839H180.975L163.712 161.49H146.79L129.527 129.839H137.667ZM148.217 168.523H162.284V189.623H148.217V168.523ZM42.7172 77.0895H56.7837V91.156H42.7172V77.0895ZM60.0299 137.274L44.3949 98.1899H58.0151L71.1536 127.751C71.7161 129.021 72.9788 129.84 74.3676 129.84H84.9176V143.906H69.8241C65.5052 143.92 61.6194 141.29 60.0299 137.274ZM204.484 203.69H106.017V147.423C106.017 145.482 104.442 143.906 102.501 143.906H91.9507V129.84H121.512L141.184 165.903V193.14C141.184 195.081 142.759 196.656 144.7 196.656H165.8C167.741 196.656 169.317 195.081 169.317 193.14V165.903L188.989 129.84H204.483V203.69H204.484Z" fill="black"/>
</g>
<defs>
<clipPath id="clip0">
<rect x="0.517212" y="-0.276978" width="211" height="211" fill="white"/>
</clipPath>
</defs>
</svg>
