<svg width="207" height="58" viewBox="0 0 207 58" fill="none" xmlns="http://www.w3.org/2000/svg">
<path d="M28.4444 57.6996C22.8142 57.6996 17.3104 56.0274 12.6291 52.8946C7.94771 49.7618 4.29905 45.309 2.14446 40.0994C-0.0101266 34.8897 -0.573865 29.1571 0.524534 23.6266C1.62293 18.096 4.33414 13.0159 8.31529 9.02856C12.2965 5.04125 17.3688 2.32585 22.8908 1.22576C28.4128 0.125661 34.1365 0.690271 39.3382 2.84819C44.5398 5.0061 48.9857 8.66041 52.1137 13.349C55.2417 18.0376 56.9112 23.5498 56.9112 29.1887C56.9055 36.7485 53.9045 43.997 48.5672 49.3426C43.2298 54.6882 35.9925 57.6938 28.4444 57.6996ZM28.4444 3.98761C23.4626 3.98761 18.5927 5.46745 14.4507 8.23992C10.3088 11.0124 7.08094 14.9529 5.17547 19.563C3.27 24.1732 2.77254 29.2457 3.74602 34.1391C4.71949 39.0324 7.12017 43.5266 10.6444 47.0532C14.1685 50.5798 18.6579 52.9804 23.5445 53.9511C28.4311 54.9219 33.4954 54.4193 38.0968 52.507C42.6982 50.5946 46.6299 47.3584 49.3945 43.2077C52.1591 39.0569 53.6325 34.1783 53.6282 29.1887C53.6168 22.5048 50.9591 16.0981 46.2381 11.3739C41.5171 6.64959 35.1181 3.99333 28.4444 3.98761Z" fill="url(#paint0_linear)"/>
<path d="M34.2117 8.96373C34.9036 8.96373 35.4644 8.40201 35.4644 7.70909C35.4644 7.01616 34.9036 6.45444 34.2117 6.45444C33.5198 6.45444 32.959 7.01616 32.959 7.70909C32.959 8.40201 33.5198 8.96373 34.2117 8.96373Z" fill="url(#paint1_linear)"/>
<path d="M39.5476 11.1918C40.2395 11.1918 40.8004 10.6301 40.8004 9.93714C40.8004 9.24422 40.2395 8.6825 39.5476 8.6825C38.8558 8.6825 38.2949 9.24422 38.2949 9.93714C38.2949 10.6301 38.8558 11.1918 39.5476 11.1918Z" fill="url(#paint2_linear)"/>
<path d="M44.1472 14.7396C44.8391 14.7396 45.4 14.1779 45.4 13.485C45.4 12.7921 44.8391 12.2303 44.1472 12.2303C43.4554 12.2303 42.8945 12.7921 42.8945 13.485C42.8945 14.1779 43.4554 14.7396 44.1472 14.7396Z" fill="url(#paint3_linear)"/>
<path d="M47.6892 19.3254C48.3811 19.3254 48.9419 18.7637 48.9419 18.0708C48.9419 17.3779 48.3811 16.8161 47.6892 16.8161C46.9974 16.8161 46.4365 17.3779 46.4365 18.0708C46.4365 18.7637 46.9974 19.3254 47.6892 19.3254Z" fill="url(#paint4_linear)"/>
<path d="M49.9148 24.6901C50.6067 24.6901 51.1675 24.1283 51.1675 23.4354C51.1675 22.7425 50.6067 22.1808 49.9148 22.1808C49.223 22.1808 48.6621 22.7425 48.6621 23.4354C48.6621 24.1283 49.223 24.6901 49.9148 24.6901Z" fill="url(#paint5_linear)"/>
<path d="M50.6697 30.4444C51.3616 30.4444 51.9224 29.8826 51.9224 29.1897C51.9224 28.4968 51.3616 27.9351 50.6697 27.9351C49.9779 27.9351 49.417 28.4968 49.417 29.1897C49.417 29.8826 49.9779 30.4444 50.6697 30.4444Z" fill="url(#paint6_linear)"/>
<path d="M49.9148 36.22C50.6067 36.22 51.1675 35.6583 51.1675 34.9653C51.1675 34.2724 50.6067 33.7107 49.9148 33.7107C49.223 33.7107 48.6621 34.2724 48.6621 34.9653C48.6621 35.6583 49.223 36.22 49.9148 36.22Z" fill="url(#paint7_linear)"/>
<path d="M47.6892 41.5631C48.3811 41.5631 48.9419 41.0013 48.9419 40.3084C48.9419 39.6155 48.3811 39.0538 47.6892 39.0538C46.9974 39.0538 46.4365 39.6155 46.4365 40.3084C46.4365 41.0013 46.9974 41.5631 47.6892 41.5631Z" fill="url(#paint8_linear)"/>
<path d="M44.1472 46.1708C44.8391 46.1708 45.4 45.6091 45.4 44.9161C45.4 44.2232 44.8391 43.6615 44.1472 43.6615C43.4554 43.6615 42.8945 44.2232 42.8945 44.9161C42.8945 45.6091 43.4554 46.1708 44.1472 46.1708Z" fill="url(#paint9_linear)"/>
<path d="M39.5476 49.7183C40.2395 49.7183 40.8004 49.1565 40.8004 48.4636C40.8004 47.7707 40.2395 47.209 39.5476 47.209C38.8558 47.209 38.2949 47.7707 38.2949 48.4636C38.2949 49.1565 38.8558 49.7183 39.5476 49.7183Z" fill="url(#paint10_linear)"/>
<path d="M34.2117 51.9464C34.9036 51.9464 35.4644 51.3847 35.4644 50.6918C35.4644 49.9989 34.9036 49.4371 34.2117 49.4371C33.5198 49.4371 32.959 49.9989 32.959 50.6918C32.959 51.3847 33.5198 51.9464 34.2117 51.9464Z" fill="url(#paint11_linear)"/>
<path d="M28.4451 52.7033C29.1369 52.7033 29.6978 52.1416 29.6978 51.4486C29.6978 50.7557 29.1369 50.194 28.4451 50.194C27.7532 50.194 27.1924 50.7557 27.1924 51.4486C27.1924 52.1416 27.7532 52.7033 28.4451 52.7033Z" fill="url(#paint12_linear)"/>
<path d="M22.701 51.9464C23.3928 51.9464 23.9537 51.3847 23.9537 50.6918C23.9537 49.9989 23.3928 49.4371 22.701 49.4371C22.0091 49.4371 21.4482 49.9989 21.4482 50.6918C21.4482 51.3847 22.0091 51.9464 22.701 51.9464Z" fill="url(#paint13_linear)"/>
<path d="M17.3435 49.7183C18.0354 49.7183 18.5962 49.1565 18.5962 48.4636C18.5962 47.7707 18.0354 47.209 17.3435 47.209C16.6517 47.209 16.0908 47.7707 16.0908 48.4636C16.0908 49.1565 16.6517 49.7183 17.3435 49.7183Z" fill="url(#paint14_linear)"/>
<path d="M12.7644 46.1708C13.4563 46.1708 14.0171 45.6091 14.0171 44.9161C14.0171 44.2232 13.4563 43.6615 12.7644 43.6615C12.0726 43.6615 11.5117 44.2232 11.5117 44.9161C11.5117 45.6091 12.0726 46.1708 12.7644 46.1708Z" fill="url(#paint15_linear)"/>
<path d="M9.22342 41.5631C9.91527 41.5631 10.4761 41.0013 10.4761 40.3084C10.4761 39.6155 9.91527 39.0538 9.22342 39.0538C8.53156 39.0538 7.9707 39.6155 7.9707 40.3084C7.9707 41.0013 8.53156 41.5631 9.22342 41.5631Z" fill="url(#paint16_linear)"/>
<path d="M6.99783 36.22C7.68968 36.22 8.25054 35.6583 8.25054 34.9653C8.25054 34.2724 7.68968 33.7107 6.99783 33.7107C6.30598 33.7107 5.74512 34.2724 5.74512 34.9653C5.74512 35.6583 6.30598 36.22 6.99783 36.22Z" fill="url(#paint17_linear)"/>
<path d="M6.24295 30.4444C6.9348 30.4444 7.49566 29.8826 7.49566 29.1897C7.49566 28.4968 6.9348 27.9351 6.24295 27.9351C5.55109 27.9351 4.99023 28.4968 4.99023 29.1897C4.99023 29.8826 5.55109 30.4444 6.24295 30.4444Z" fill="url(#paint18_linear)"/>
<path d="M6.99783 24.6901C7.68968 24.6901 8.25054 24.1283 8.25054 23.4354C8.25054 22.7425 7.68968 22.1808 6.99783 22.1808C6.30598 22.1808 5.74512 22.7425 5.74512 23.4354C5.74512 24.1283 6.30598 24.6901 6.99783 24.6901Z" fill="url(#paint19_linear)"/>
<path d="M9.22342 19.3254C9.91527 19.3254 10.4761 18.7637 10.4761 18.0708C10.4761 17.3779 9.91527 16.8161 9.22342 16.8161C8.53156 16.8161 7.9707 17.3779 7.9707 18.0708C7.9707 18.7637 8.53156 19.3254 9.22342 19.3254Z" fill="url(#paint20_linear)"/>
<path d="M12.7644 14.7396C13.4563 14.7396 14.0171 14.1779 14.0171 13.485C14.0171 12.7921 13.4563 12.2303 12.7644 12.2303C12.0726 12.2303 11.5117 12.7921 11.5117 13.485C11.5117 14.1779 12.0726 14.7396 12.7644 14.7396Z" fill="url(#paint21_linear)"/>
<path d="M17.3435 11.1918C18.0354 11.1918 18.5962 10.6301 18.5962 9.93714C18.5962 9.24422 18.0354 8.6825 17.3435 8.6825C16.6517 8.6825 16.0908 9.24422 16.0908 9.93714C16.0908 10.6301 16.6517 11.1918 17.3435 11.1918Z" fill="url(#paint22_linear)"/>
<path d="M22.701 8.96373C23.3928 8.96373 23.9537 8.40201 23.9537 7.70909C23.9537 7.01616 23.3928 6.45444 22.701 6.45444C22.0091 6.45444 21.4482 7.01616 21.4482 7.70909C21.4482 8.40201 22.0091 8.96373 22.701 8.96373Z" fill="url(#paint23_linear)"/>
<path d="M28.4451 8.20675C29.1369 8.20675 29.6978 7.64502 29.6978 6.9521C29.6978 6.25917 29.1369 5.69745 28.4451 5.69745C27.7532 5.69745 27.1924 6.25917 27.1924 6.9521C27.1924 7.64502 27.7532 8.20675 28.4451 8.20675Z" fill="url(#paint24_linear)"/>
<path d="M26.7395 45.738V45.5649V45.4135V45.1539V44.6347C26.7395 44.3103 26.7395 43.9858 26.7395 43.6613C26.7069 43.0272 26.7069 42.3918 26.7395 41.7577C26.7711 41.1417 26.836 40.5279 26.9339 39.919C26.9339 39.3133 27.1499 38.7076 27.2794 38.1236C27.8308 35.795 28.6649 33.5429 29.7633 31.4177C30.82 29.3338 32.0406 27.3374 33.4134 25.4473L35.5733 22.7217L37.6035 20.1691L35.6813 23.0029C35.0981 23.9979 34.515 24.9714 33.9534 25.9664C32.8565 27.9455 31.9315 30.0154 31.1888 32.1532C30.4339 34.2474 29.9406 36.4272 29.7201 38.6427C29.7201 39.1835 29.7201 39.7027 29.7201 40.2435C29.7201 40.7843 29.7201 41.3251 29.7201 41.8442C29.7516 42.3599 29.8165 42.8729 29.9145 43.3801C29.9523 43.6205 30.0028 43.8588 30.0657 44.094C30.0657 44.2237 30.0657 44.3319 30.0657 44.4401V44.5915C30.1862 44.8017 30.2642 45.0336 30.2953 45.2741C30.3263 45.5145 30.3098 45.7586 30.2466 45.9927C30.1834 46.2267 30.0749 46.4459 29.9271 46.6379C29.7793 46.8299 29.5952 46.9909 29.3853 47.1116C29.1754 47.2323 28.9438 47.3105 28.7038 47.3416C28.4637 47.3727 28.2199 47.3561 27.9863 47.2928C27.7526 47.2296 27.5337 47.1208 27.342 46.9728C27.1503 46.8248 26.9896 46.6404 26.8691 46.4302C26.8021 46.2825 26.7444 46.1308 26.6963 45.9759L26.7395 45.738Z" fill="url(#paint25_linear)"/>
<path d="M29.7189 42.039C29.4137 42.0399 29.1177 41.9348 28.8814 41.7415C28.645 41.5481 28.483 41.2787 28.423 40.979C28.4122 40.8422 28.4122 40.7048 28.423 40.568C28.3072 40.8686 28.084 41.1153 27.7966 41.2602C27.4841 41.4099 27.1252 41.4303 26.7978 41.3169C26.4704 41.2036 26.2007 40.9656 26.0471 40.6545C25.1301 38.6175 24.6869 36.3985 24.7512 34.165C24.9888 22.3323 38.1423 16.0807 38.7039 15.8428C38.8848 15.7515 39.0845 15.7039 39.287 15.7039C39.4896 15.7039 39.6893 15.7515 39.8702 15.8428C40.0431 15.9418 40.1938 16.0755 40.3127 16.2356C40.4316 16.3957 40.5163 16.5786 40.5613 16.7729C40.5613 17.2272 42.3972 27.5889 39.4598 34.0784C38.5794 36.0367 37.2698 37.7712 35.6283 39.153C33.9868 40.5349 32.0556 41.5287 29.9781 42.0606L29.7189 42.039ZM38.2071 19.0875C34.8809 21.0777 27.5374 26.3342 27.4079 34.2299C27.3545 36.0566 27.701 37.8729 28.423 39.5513C28.4963 39.791 28.4963 40.0471 28.423 40.2868C28.5099 40.0879 28.6438 39.9131 28.8131 39.7774C28.9824 39.6418 29.1821 39.5493 29.3949 39.508C31.0636 39.0592 32.6116 38.2439 33.9266 37.1215C35.2416 35.999 36.2906 34.5974 36.9976 33.0185C38.9846 28.8219 38.5743 22.3323 38.2071 19.0875Z" fill="url(#paint26_linear)"/>
<path d="M26.0481 35.463C25.6831 35.4578 25.3345 35.3103 25.0762 35.052C23.286 33.0925 21.9862 30.7351 21.284 28.1739C20.5818 25.6127 20.4972 22.921 21.0373 20.3207C21.1019 20.0489 21.2525 19.8052 21.4665 19.6259C21.6805 19.4466 21.9466 19.3413 22.2252 19.3256C23.8852 19.3615 25.5146 19.7803 26.9868 20.5494C28.4589 21.3185 29.7342 22.4172 30.7134 23.7602C30.8254 23.8923 30.9104 24.0452 30.9634 24.2101C31.0165 24.3751 31.0365 24.5489 31.0225 24.7217C31.0085 24.8944 30.9606 25.0627 30.8816 25.2169C30.8026 25.3712 30.6941 25.5083 30.5622 25.6205C30.4303 25.7327 30.2777 25.8178 30.1129 25.8709C29.9482 25.924 29.7746 25.9441 29.6022 25.9301C29.4297 25.916 29.2617 25.8681 29.1077 25.789C28.9537 25.7099 28.8168 25.6012 28.7047 25.4691C27.3823 23.7581 25.5149 22.5519 23.4131 22.0512C23.1817 24.0502 23.3821 26.0757 24.0007 27.9904C24.6193 29.905 25.6416 31.6641 26.9985 33.1484C27.2438 33.3956 27.3815 33.73 27.3815 34.0786C27.3815 34.4271 27.2438 34.7615 26.9985 35.0087C26.8781 35.1439 26.7321 35.2537 26.569 35.3317C26.4058 35.4097 26.2287 35.4543 26.0481 35.463Z" fill="url(#paint27_linear)"/>
<path d="M24.1689 22.6134C24.9681 23.2191 25.7672 23.8464 26.5232 24.517C26.8904 24.8631 27.2575 25.2092 27.6247 25.5986C27.9904 25.9939 28.3295 26.413 28.6398 26.8533C28.7012 26.9426 28.7443 27.0432 28.7667 27.1493C28.789 27.2555 28.7902 27.365 28.7701 27.4715C28.7501 27.5781 28.7091 27.6796 28.6497 27.7703C28.5903 27.8609 28.5135 27.9389 28.4239 27.9997C28.3346 28.0612 28.2342 28.1044 28.1282 28.1268C28.0223 28.1492 27.9129 28.1504 27.8065 28.1302C27.7001 28.1101 27.5987 28.0691 27.5082 28.0096C27.4177 27.9501 27.3399 27.8732 27.2791 27.7834C27.2347 27.7159 27.1984 27.6433 27.1711 27.5671C27.0164 27.1281 26.8287 26.7014 26.6096 26.2908C26.3936 25.8798 26.1344 25.4472 25.8752 25.0362C25.3527 24.1969 24.783 23.388 24.1689 22.6134Z" fill="url(#paint28_linear)"/>
<path d="M82.7226 5.78411H74.6663H74.2559C74.1391 5.80067 74.028 5.84519 73.932 5.9139C73.877 5.95295 73.8325 6.00495 73.8024 6.06531C73.7722 6.12568 73.7574 6.19254 73.7592 6.26001C73.7497 6.36796 73.7497 6.47653 73.7592 6.58449V9.48316H80.2387H80.8003C81.0199 9.50546 81.2369 9.54893 81.4482 9.61295C81.6752 9.6815 81.8876 9.79151 82.0746 9.93743C82.3064 10.0806 82.5112 10.2637 82.6794 10.4782C82.9524 10.8498 83.1371 11.2789 83.2193 11.7329C83.3289 12.303 83.3795 12.8829 83.3705 13.4634C83.4075 14.1913 83.3347 14.9205 83.1545 15.6266C83.0492 16.0026 82.8733 16.355 82.6362 16.6649L82.3338 16.9462C82.1841 17.054 82.0251 17.1481 81.8586 17.2274C81.3632 17.4526 80.8259 17.5705 80.2819 17.5735H72.8952C72.5978 17.5836 72.302 17.5243 72.0313 17.4004C71.8344 17.3064 71.6582 17.1741 71.5129 17.0111C71.3712 16.8068 71.2889 16.5672 71.2754 16.3188C71.2754 16.0809 71.2754 15.8646 71.2754 15.6699V5.74084C71.2572 5.50324 71.2572 5.26459 71.2754 5.02699C71.3432 4.74735 71.4765 4.48785 71.6641 4.26988C71.8241 4.14241 71.998 4.03355 72.1825 3.9454C72.4575 3.81116 72.7628 3.75149 73.068 3.77234H82.7874L82.7226 5.78411ZM73.7376 14.4369C73.7215 14.6312 73.7215 14.8266 73.7376 15.0209C73.727 15.0781 73.727 15.1368 73.7376 15.194C73.7896 15.2713 73.8607 15.3338 73.9439 15.3755C74.0272 15.4172 74.1198 15.4366 74.2127 15.4319H78.8996H79.5908C79.8378 15.388 80.0647 15.2668 80.2387 15.0858C80.4719 14.8742 80.6117 14.5786 80.6275 14.2638C80.6275 13.9393 80.6275 13.6797 80.6275 13.4634C80.6481 13.197 80.6481 12.9294 80.6275 12.663C80.5806 12.3994 80.4522 12.1573 80.2603 11.9708C80.0789 11.8042 79.8544 11.6917 79.6124 11.6463H78.9212H73.7376V14.4369Z" fill="url(#paint29_linear)"/>
<path d="M95.854 17.5083V7.03851C95.866 6.93792 95.866 6.83626 95.854 6.73567C95.854 6.73567 95.854 6.58424 95.7028 6.58424C95.5516 6.58424 95.53 6.58424 95.4652 6.77893L95.2492 7.18994L89.5904 16.3619L89.288 16.8161C89.0379 17.1507 88.691 17.3999 88.2945 17.53C88.0089 17.6235 87.7094 17.6674 87.4089 17.6598C87.0035 17.6848 86.5993 17.5948 86.2426 17.4002C85.9904 17.2537 85.7874 17.0353 85.6595 16.7729C85.5286 16.532 85.4478 16.2671 85.4219 15.9941C85.4219 15.7345 85.4219 15.4966 85.4219 15.3019V3.72884H88.0137V14.004C88.0023 14.148 88.0023 14.2926 88.0137 14.4366C88.0137 14.5664 88.0137 14.6313 88.2297 14.6313C88.4457 14.6313 88.3593 14.6313 88.4241 14.4799L88.5537 14.1987L94.0613 5.02675C94.3306 4.55026 94.6989 4.13718 95.1412 3.81536C95.5121 3.59335 95.9409 3.48786 96.3723 3.51252C96.7871 3.48991 97.1995 3.58755 97.5602 3.79373C97.8284 3.9626 98.0451 4.20207 98.1866 4.48595C98.3278 4.73805 98.4091 5.01932 98.4242 5.30796C98.4424 5.53112 98.4424 5.7554 98.4242 5.97855V17.4434L95.854 17.5083Z" fill="url(#paint30_linear)"/>
<path d="M100.628 15.4319H107.259H107.713C107.878 15.4529 108.044 15.4529 108.209 15.4319C108.348 15.4083 108.48 15.3568 108.598 15.2804C108.744 15.2019 108.869 15.0909 108.965 14.956C109.052 14.8225 109.117 14.6766 109.16 14.5233C109.17 14.3721 109.17 14.2203 109.16 14.0691C109.16 13.9176 109.16 13.7662 109.16 13.6148C109.178 13.3555 109.178 13.0953 109.16 12.836C109.104 12.5364 108.952 12.2631 108.728 12.0573C108.591 11.9715 108.446 11.8991 108.296 11.841C107.955 11.658 107.58 11.5475 107.194 11.5165H100.909V9.35331H106.87C107.244 9.39061 107.62 9.39061 107.993 9.35331C108.25 9.32035 108.487 9.19781 108.663 9.0072C108.844 8.82037 108.951 8.57462 108.965 8.31498C108.965 8.03376 108.965 7.79581 108.965 7.57949C108.965 7.36318 108.965 7.0387 108.965 6.75748C108.931 6.4676 108.783 6.20313 108.555 6.022C108.391 5.90361 108.196 5.83593 107.993 5.82731H107.345H100.715V3.66412H108.663H109.397C109.649 3.72833 109.895 3.81521 110.132 3.92371C110.389 4.05982 110.628 4.2269 110.844 4.42124C111.202 4.78987 111.443 5.25666 111.536 5.76242C111.629 6.26925 111.679 6.783 111.687 7.29828C111.687 7.72704 111.644 8.15473 111.557 8.57456C111.46 9.01759 111.225 9.41866 110.888 9.72105C110.564 10.0183 110.17 10.2269 109.743 10.3267C110.104 10.3611 110.456 10.4639 110.78 10.6296C111.1 10.7922 111.364 11.0488 111.536 11.3651C111.689 11.6325 111.791 11.9258 111.838 12.2303C111.878 12.6909 111.878 13.1542 111.838 13.6148C111.838 13.8527 111.838 14.1123 111.838 14.4152C111.819 14.7011 111.768 14.9841 111.687 15.2588C111.596 15.5458 111.473 15.8216 111.32 16.0808C111.14 16.3457 110.904 16.5674 110.628 16.7298C110.204 16.9964 109.723 17.1594 109.224 17.2057C108.663 17.2057 108.145 17.2057 107.691 17.2057H100.563L100.628 15.4319Z" fill="url(#paint31_linear)"/>
<path d="M126.244 17.5083H123.652V11.5162H116.503V17.5083H113.89V3.72876H116.503V9.35305H123.652V3.72876H126.244V17.5083Z" fill="url(#paint32_linear)"/>
<path d="M130.672 17.5083C130.391 17.5314 130.11 17.5314 129.829 17.5083C129.555 17.4758 129.302 17.3452 129.116 17.1406C128.892 16.9347 128.74 16.6614 128.684 16.3618C128.655 16.0814 128.655 15.7986 128.684 15.5182V5.69731C128.684 5.42521 128.727 5.15483 128.814 4.89693C128.885 4.65973 129.002 4.4391 129.16 4.24797C129.369 4.01235 129.65 3.85263 129.959 3.7937H130.801H139.635V5.95689H132.119H131.751C131.625 5.97537 131.505 6.02767 131.406 6.10831C131.305 6.19956 131.237 6.32101 131.212 6.45442C131.212 6.45442 131.212 6.67074 131.212 6.7789V9.35309H139.376V11.5163H131.19V14.7178C131.179 14.8168 131.19 14.9171 131.224 15.0109C131.258 15.1047 131.313 15.1895 131.384 15.2586C131.484 15.3522 131.615 15.406 131.751 15.41H139.635V17.5732L130.672 17.5083Z" fill="url(#paint33_linear)"/>
<path d="M146.869 17.5084H145.789C145.4 17.4869 145.015 17.4141 144.645 17.2921C144.245 17.1803 143.861 17.0205 143.5 16.8162C143.119 16.5821 142.776 16.2902 142.485 15.9509C142.16 15.6018 141.897 15.1994 141.707 14.7612C141.531 14.3345 141.394 13.8929 141.297 13.4416C141.207 12.9992 141.15 12.551 141.124 12.1004C141.124 11.6678 141.124 11.2568 141.124 10.8674C141.124 10.478 141.124 9.89399 141.124 9.41808C141.124 8.94218 141.124 8.44465 141.318 7.96875C141.399 7.51335 141.537 7.07 141.729 6.6492C141.904 6.24309 142.137 5.86428 142.42 5.52435C142.732 5.13129 143.122 4.80722 143.565 4.57254C143.92 4.33068 144.305 4.13446 144.709 3.98848C145.095 3.86806 145.494 3.79541 145.897 3.77216C146.199 3.75299 146.502 3.75299 146.804 3.77216H152.334V5.93535H148.014H146.912C146.577 5.94899 146.243 5.99977 145.919 6.08677C145.62 6.18408 145.337 6.3224 145.077 6.49778C144.799 6.66641 144.563 6.89563 144.385 7.16837C144.141 7.57914 143.959 8.0238 143.845 8.48791C143.675 9.2764 143.603 10.0828 143.629 10.8891C143.605 11.3285 143.605 11.7691 143.629 12.2086C143.65 12.5299 143.701 12.8485 143.781 13.1604C143.83 13.3837 143.902 13.6013 143.997 13.8094C144.055 13.9531 144.127 14.0908 144.213 14.2204C144.545 14.7433 145.061 15.1217 145.66 15.2803C146.365 15.4642 147.091 15.5516 147.82 15.5399H152.485V17.7031L146.869 17.5084Z" fill="url(#paint34_linear)"/>
<path d="M74.5365 25.0364H74.2126C74.1024 25.0577 74.0015 25.1129 73.9241 25.1944C73.8467 25.2758 73.7965 25.3793 73.7806 25.4906C73.7605 25.6124 73.7605 25.7366 73.7806 25.8584V36.6743H71.1888V24.7768C71.1545 24.5401 71.1545 24.2996 71.1888 24.0629C71.2591 23.8049 71.4015 23.5722 71.5992 23.3923C71.8051 23.1904 72.0572 23.0419 72.3335 22.9597C72.6066 22.9357 72.8812 22.9357 73.1542 22.9597H81.2969C81.5628 22.9374 81.8301 22.9374 82.096 22.9597C82.3831 23.0311 82.6448 23.1808 82.852 23.3923C83.0408 23.5757 83.1754 23.8078 83.2407 24.0629C83.2725 24.2998 83.2725 24.5399 83.2407 24.7768V36.6743H80.7785V25.5339C80.7766 25.4724 80.7622 25.4119 80.7362 25.3561C80.7102 25.3003 80.6732 25.2504 80.6273 25.2094C80.5507 25.1171 80.4433 25.0556 80.3249 25.0364H74.5365Z" fill="url(#paint35_linear)"/>
<path d="M89.2878 24.1061C89.3583 23.9432 89.4377 23.7844 89.5254 23.6302C89.6254 23.4678 89.7577 23.3279 89.9142 23.2192C90.0941 23.0924 90.2902 22.9905 90.4974 22.9163C91.0936 22.7722 91.7154 22.7722 92.3116 22.9163C92.5167 22.9951 92.7123 23.0967 92.8948 23.2192C93.0397 23.3342 93.1639 23.4732 93.262 23.6302L93.4995 24.1061L98.8128 36.7391H96.0482L91.7285 25.7501C91.7407 25.6568 91.7407 25.5622 91.7285 25.4689C91.7105 25.4273 91.6801 25.3925 91.6413 25.3692C91.6026 25.3459 91.5575 25.3354 91.5125 25.3391C91.4619 25.3357 91.4116 25.3485 91.3689 25.3758C91.3261 25.403 91.2932 25.4432 91.2749 25.4905C91.2298 25.5729 91.1936 25.66 91.1669 25.7501L86.8472 36.7391H83.9746L89.2878 24.1061Z" fill="url(#paint36_linear)"/>
<path d="M102.809 24.3657C102.987 23.8939 103.285 23.4766 103.673 23.1543C104.102 22.927 104.58 22.8082 105.066 22.8082C105.551 22.8082 106.029 22.927 106.459 23.1543C106.861 23.4679 107.167 23.8874 107.344 24.3657L112.528 36.7392H109.785L108.381 33.2564H101.75L100.368 36.7392H97.625L102.809 24.3657ZM102.42 31.4177H107.711L105.552 25.7934L105.4 25.4257C105.4 25.2959 105.249 25.231 105.163 25.231C105.076 25.231 104.99 25.231 104.925 25.4257L104.774 25.7934L102.42 31.4177Z" fill="url(#paint37_linear)"/>
<path d="M117.108 36.7391V25.0363H111.729V22.8731H125.077V25.0363H119.699V36.7391H117.108Z" fill="url(#paint38_linear)"/>
<path d="M135.337 22.9597V24.0846H137.281C138.146 24.0703 139.009 24.1648 139.851 24.3658C140.518 24.5734 141.097 25.0001 141.492 25.5772C141.891 26.1592 142.149 26.8255 142.248 27.524C142.361 28.2396 142.419 28.9628 142.421 29.6872C142.413 30.4106 142.363 31.1329 142.27 31.8504C142.193 32.5377 141.972 33.201 141.622 33.7973C141.267 34.4169 140.699 34.8859 140.024 35.1168C139.321 35.3178 138.594 35.4197 137.864 35.4197H135.337V36.7608H132.745V35.3115H130.304C129.574 35.3115 128.847 35.2096 128.145 35.0087C127.469 34.7778 126.901 34.3087 126.546 33.6891C126.196 33.0928 125.976 32.4295 125.898 31.7422C125.806 31.0248 125.755 30.3025 125.747 29.5791C125.749 28.8546 125.807 28.1314 125.92 27.4159C126.019 26.7173 126.278 26.0511 126.676 25.469C126.874 25.1819 127.114 24.9266 127.389 24.7119C127.673 24.5135 127.986 24.3603 128.317 24.2576C128.683 24.1464 129.06 24.0739 129.44 24.0413C129.872 24.0413 130.348 24.0413 130.866 24.0413H132.831V22.9164L135.337 22.9597ZM132.745 26.1612H130.585C130.343 26.1986 130.105 26.2565 129.872 26.3343C129.651 26.4114 129.446 26.5287 129.268 26.6804C129.07 26.8397 128.908 27.0387 128.792 27.2644C128.737 27.3519 128.693 27.4465 128.663 27.5457C128.619 27.6878 128.583 27.8323 128.555 27.9783C128.555 28.173 128.555 28.4109 128.555 28.6705C128.555 28.9301 128.555 29.2762 128.555 29.644C128.507 30.1981 128.507 30.7554 128.555 31.3096C128.597 31.5532 128.662 31.7922 128.749 32.0235C128.851 32.2886 129.014 32.5258 129.224 32.7157C129.432 32.883 129.665 33.0146 129.916 33.1051C130.188 33.1979 130.471 33.256 130.758 33.2781H131.687H132.853L132.745 26.1612ZM136.503 33.343H137.432C137.705 33.3104 137.973 33.245 138.231 33.1483C138.481 33.0579 138.715 32.9263 138.922 32.7589C139.133 32.5691 139.296 32.3319 139.397 32.0667C139.508 31.8045 139.581 31.5277 139.613 31.2447C139.656 30.7264 139.656 30.2055 139.613 29.6872C139.642 29.1973 139.642 28.7061 139.613 28.2163C139.562 27.9019 139.467 27.5962 139.333 27.3077C139.226 27.087 139.075 26.8906 138.889 26.7306C138.703 26.5706 138.487 26.4505 138.253 26.3775C137.789 26.2463 137.309 26.1808 136.827 26.1829H135.294V33.3646L136.503 33.343Z" fill="url(#paint39_linear)"/>
<path d="M152.378 22.8298C152.871 22.8382 153.362 22.8889 153.846 22.9812C154.336 23.0724 154.814 23.2175 155.272 23.4139C155.746 23.6123 156.178 23.8985 156.546 24.2575C156.894 24.61 157.179 25.0197 157.389 25.4689C157.602 25.9247 157.761 26.4039 157.864 26.8966C157.967 27.3963 158.039 27.902 158.08 28.4108C158.08 28.93 158.08 29.4059 158.08 29.8602C158.08 30.3144 158.08 30.7903 158.08 31.3095C158.057 31.8117 157.992 32.311 157.885 32.8021C157.779 33.3009 157.62 33.7868 157.41 34.2514C157.199 34.6929 156.914 35.0952 156.568 35.4412C156.2 35.8002 155.767 36.0864 155.293 36.2848C154.836 36.4812 154.358 36.6263 153.868 36.7175C153.384 36.8098 152.892 36.8605 152.399 36.8689H149.721C149.235 36.8602 148.751 36.8095 148.274 36.7175C147.784 36.6286 147.305 36.4835 146.848 36.2848C146.374 36.0864 145.942 35.8002 145.574 35.4412C145.195 35.0682 144.887 34.6282 144.667 34.1433C144.444 33.6686 144.285 33.1668 144.192 32.6507C144.093 32.1661 144.035 31.674 144.019 31.1797C144.019 30.6822 144.019 30.2495 144.019 29.8602C144.019 29.4708 144.019 28.8867 144.019 28.3892C144.041 27.887 144.106 27.3877 144.213 26.8966C144.316 26.4039 144.475 25.9247 144.689 25.4689C144.904 25.0125 145.205 24.6014 145.574 24.2575C145.949 23.8962 146.388 23.6099 146.87 23.4139C147.327 23.2153 147.805 23.0701 148.296 22.9812C148.772 22.8869 149.257 22.8362 149.743 22.8298H152.399H152.378ZM146.719 31.3095C146.753 31.682 146.818 32.051 146.913 32.4127C146.983 32.6706 147.069 32.9235 147.172 33.1698C147.271 33.3488 147.379 33.5222 147.496 33.689C147.683 33.9418 147.918 34.155 148.188 34.3163C148.453 34.4667 148.736 34.583 149.03 34.6624C149.35 34.7375 149.674 34.7881 150.002 34.8139H152.162C152.482 34.7862 152.799 34.7356 153.112 34.6624C153.414 34.5869 153.705 34.4704 153.976 34.3163C154.248 34.1499 154.489 33.9377 154.689 33.689C154.806 33.5222 154.914 33.3488 155.013 33.1698C155.112 32.9148 155.199 32.6549 155.272 32.3911C155.357 32.0344 155.421 31.6734 155.466 31.3095C155.491 30.8267 155.491 30.343 155.466 29.8602C155.466 29.2545 155.466 28.7569 155.466 28.3243C155.423 27.9602 155.358 27.599 155.272 27.2427C155.206 26.9809 155.112 26.7271 154.991 26.4856C154.905 26.3112 154.804 26.1447 154.689 25.9881C154.295 25.5051 153.745 25.1759 153.134 25.0579C151.804 24.8273 150.446 24.8273 149.116 25.0579C148.513 25.1806 147.971 25.5094 147.583 25.9881C147.294 26.4139 147.088 26.8912 146.978 27.3941C146.798 28.2033 146.719 29.0315 146.74 29.8602C146.708 30.3426 146.701 30.8263 146.719 31.3095Z" fill="url(#paint40_linear)"/>
<path d="M160.088 36.739V25.0362C160.068 24.7698 160.068 24.5022 160.088 24.2358C160.143 23.9529 160.287 23.695 160.499 23.5003C160.713 23.2872 160.982 23.1375 161.276 23.0677C161.531 23.0027 161.791 22.9664 162.054 22.9595H169.225C169.461 22.9303 169.701 22.9303 169.937 22.9595C170.184 23.0093 170.423 23.0892 170.65 23.1975C170.906 23.3153 171.14 23.4763 171.341 23.6734C171.566 23.9036 171.755 24.1661 171.903 24.4521C172.039 24.757 172.14 25.0763 172.205 25.4039C172.277 25.7248 172.327 26.0499 172.356 26.3774C172.356 26.7018 172.356 27.0263 172.356 27.3075C172.356 27.5887 172.356 27.8916 172.356 28.2377C172.327 28.5865 172.277 28.9333 172.205 29.276C172.128 29.6229 172.005 29.9576 171.838 30.2711C171.686 30.5899 171.464 30.8707 171.19 31.0931C170.912 31.3068 170.597 31.468 170.261 31.569C169.885 31.6928 169.491 31.7513 169.095 31.7421H162.615V36.6309L160.088 36.739ZM167.605 29.7952H168.49C168.806 29.755 169.093 29.5917 169.289 29.3409C169.413 29.1889 169.501 29.0117 169.549 28.8218L169.678 28.3242V27.8051V27.3508C169.698 27.0194 169.698 26.6871 169.678 26.3557C169.639 26.0196 169.486 25.7068 169.246 25.4688C169.04 25.2376 168.755 25.0911 168.447 25.0578H167.648H163.155C163.04 25.0857 162.935 25.1457 162.853 25.2309C162.766 25.3085 162.711 25.417 162.702 25.5337C162.691 25.6488 162.691 25.7647 162.702 25.8798V29.8168L167.605 29.7952Z" fill="url(#paint41_linear)"/>
<path d="M184.926 35.3113C184.831 35.5477 184.723 35.7788 184.602 36.0035C184.523 36.1981 184.406 36.3747 184.257 36.5227C184.107 36.6751 183.921 36.7868 183.717 36.8471C183.474 36.9318 183.217 36.9685 182.961 36.9553C182.681 36.9657 182.403 36.9216 182.14 36.8255C181.934 36.7471 181.749 36.6212 181.6 36.4578C181.453 36.3038 181.329 36.1288 181.233 35.9386C181.141 35.7347 181.061 35.5251 180.995 35.3113L177.475 26.1177C177.437 26.0177 177.386 25.9232 177.324 25.8365C177.324 25.7284 177.194 25.6635 177.129 25.6635C177.064 25.6635 176.978 25.6635 176.956 25.8582C176.935 26.0528 176.956 26.0528 176.956 26.0745V36.8904H174.365V24.7766C174.332 24.4048 174.44 24.0343 174.667 23.7382C174.839 23.5111 175.061 23.3262 175.315 23.1974C175.55 23.0762 175.807 23.0027 176.071 22.9811H176.589C176.925 22.9745 177.26 23.0183 177.583 23.1109C177.822 23.2098 178.048 23.3408 178.252 23.5003C178.426 23.6627 178.572 23.8527 178.684 24.0627L179.008 24.7549L182.55 33.9485L182.745 34.3162C182.765 34.3516 182.793 34.3818 182.827 34.4043C182.86 34.4268 182.899 34.4411 182.939 34.446C182.939 34.446 183.047 34.446 183.112 34.3162L183.306 33.9485L186.892 24.4954C186.996 24.1606 187.157 23.846 187.367 23.5652C187.522 23.347 187.721 23.163 187.95 23.0244C188.147 22.9006 188.368 22.8195 188.598 22.7864C188.828 22.7641 189.059 22.7641 189.289 22.7864C189.853 22.7651 190.411 22.916 190.887 23.2191C191.103 23.3756 191.274 23.5855 191.384 23.8282C191.493 24.071 191.538 24.3382 191.514 24.6035V36.7174H188.922V25.9014C188.958 25.7889 188.958 25.6678 188.922 25.5553H188.771C188.771 25.5553 188.641 25.5553 188.576 25.7284L188.425 26.0096L184.926 35.3113Z" fill="url(#paint42_linear)"/>
<path d="M197.302 24.3658C197.466 23.8921 197.758 23.4729 198.145 23.1544C198.565 22.8958 199.056 22.7748 199.548 22.8083C200.041 22.7776 200.531 22.8984 200.952 23.1544C201.34 23.4767 201.638 23.894 201.816 24.3658L207 36.7392H204.279L202.853 33.2565H196.244L194.84 36.7392H192.227L197.302 24.3658ZM196.913 31.4178H202.183L200.024 25.7935L199.851 25.4258C199.851 25.296 199.721 25.2311 199.613 25.2311C199.505 25.2311 199.44 25.2311 199.376 25.4258L199.224 25.7935L196.913 31.4178Z" fill="url(#paint43_linear)"/>
<path d="M79.1369 42.0607C79.6306 42.0756 80.122 42.1335 80.6056 42.2338C81.0953 42.3249 81.5733 42.47 82.0311 42.6664C82.5051 42.8648 82.9375 43.151 83.3055 43.51C83.6514 43.856 83.9363 44.2583 84.1478 44.6998C84.3577 45.1644 84.517 45.6503 84.623 46.1491C84.7387 46.6466 84.8109 47.1533 84.8389 47.6634C84.8389 48.1609 84.8389 48.6584 84.8389 49.0911C84.8389 49.5237 84.8389 50.0429 84.8389 50.5404C84.8168 51.0497 84.7518 51.5563 84.6446 52.0546C84.542 52.5474 84.3825 53.0265 84.1694 53.4823C83.96 53.9315 83.6751 54.3412 83.3271 54.6937C82.9591 55.0527 82.5267 55.339 82.0527 55.5374C81.5914 55.7239 81.1143 55.8687 80.6272 55.97C80.1414 56.0514 79.6508 56.102 79.1585 56.1214H76.5019C76.0096 56.1031 75.519 56.0525 75.0332 55.97C74.5461 55.8687 74.0691 55.7239 73.6077 55.5374C73.1337 55.339 72.7014 55.0527 72.3334 54.6937C71.9517 54.3143 71.644 53.8667 71.4263 53.3742C71.2163 52.9021 71.057 52.409 70.9511 51.9032C70.8522 51.4113 70.7944 50.9121 70.7783 50.4106C70.7783 49.9347 70.7783 49.4804 70.7783 49.0911C70.7783 48.7017 70.7783 48.1393 70.7783 47.6201C70.8112 47.1189 70.8761 46.6204 70.9727 46.1275C71.0756 45.6418 71.235 45.1699 71.4479 44.7214C71.8808 43.761 72.6488 42.9918 73.6077 42.5582C74.0647 42.3596 74.543 42.2145 75.0332 42.1256C75.5096 42.0254 75.9938 41.9675 76.4803 41.9525H79.1369V42.0607ZM73.4349 50.562C73.4691 50.9274 73.5341 51.2892 73.6293 51.6436C73.6989 51.9015 73.7855 52.1544 73.8885 52.4007C73.982 52.5893 74.0903 52.7702 74.2125 52.9415C74.3997 53.1881 74.6348 53.3942 74.9036 53.5472C75.1644 53.7064 75.4487 53.8232 75.746 53.8933C76.0636 53.9786 76.3894 54.0294 76.7179 54.0448H78.8778C79.199 54.0277 79.5175 53.9769 79.8281 53.8933C80.1334 53.8273 80.4255 53.7103 80.692 53.5472C80.9635 53.3891 81.2048 53.184 81.4048 52.9415C81.527 52.7702 81.6353 52.5893 81.7288 52.4007C81.7288 52.1844 81.9015 51.9248 81.9879 51.6436C82.0531 51.2505 82.0821 50.8523 82.0743 50.4539C82.0994 49.9711 82.0994 49.4873 82.0743 49.0045C82.0996 48.5001 82.0996 47.9947 82.0743 47.4903C82.0414 47.1176 81.9764 46.7485 81.88 46.3871C81.8142 46.1321 81.7201 45.8854 81.5992 45.6516C81.518 45.4746 81.4165 45.3076 81.2968 45.1541C80.9096 44.6638 80.3563 44.3328 79.7417 44.2239C78.4151 43.9643 77.0509 43.9643 75.7244 44.2239C75.1176 44.3377 74.5727 44.6682 74.1909 45.1541C73.9014 45.5718 73.696 46.0421 73.5861 46.5385C73.4296 47.3797 73.3788 48.2372 73.4349 49.0911C73.4099 49.5811 73.4099 50.072 73.4349 50.562Z" fill="url(#paint44_linear)"/>
<path d="M99.1794 55.9914H96.5876V49.9129H89.4385V55.9914H86.8467V42.2119H89.4385V47.8578H96.5876V42.2119H99.1794V55.9914Z" fill="url(#paint45_linear)"/>
<path d="M110.822 42.2119V43.3368H112.766C113.624 43.3112 114.482 43.4059 115.315 43.618C115.989 43.8108 116.572 44.2409 116.956 44.8294C117.36 45.4024 117.626 46.0613 117.734 46.7546C117.838 47.4708 117.889 48.1939 117.885 48.9178C117.886 49.6408 117.842 50.3632 117.755 51.081C117.674 51.7674 117.454 52.43 117.107 53.0279C116.746 53.6424 116.18 54.1097 115.509 54.3474C114.81 54.5654 114.081 54.6748 113.349 54.6719H110.822V56.0131H108.209V54.6719H105.833C105.101 54.6731 104.373 54.5637 103.673 54.3474C103.002 54.1097 102.436 53.6424 102.075 53.0279C101.738 52.4258 101.518 51.7652 101.427 51.081C101.34 50.3632 101.296 49.6408 101.297 48.9178C101.293 48.1939 101.343 47.4708 101.448 46.7546C101.556 46.0613 101.822 45.4024 102.226 44.8294C102.398 44.5227 102.643 44.2628 102.939 44.0723C103.213 43.87 103.52 43.7164 103.846 43.618C104.219 43.5013 104.602 43.4216 104.99 43.38C105.401 43.38 105.876 43.38 106.416 43.38H108.36V42.2552L110.822 42.2119ZM108.209 45.3918H106.697H105.962C105.728 45.4192 105.496 45.4699 105.271 45.5432C105.047 45.6285 104.836 45.745 104.645 45.8893C104.448 46.0579 104.287 46.2638 104.17 46.495C104.154 46.5808 104.154 46.6688 104.17 46.7546C104.15 46.9054 104.15 47.0581 104.17 47.2089C104.154 47.4393 104.154 47.6706 104.17 47.9011C104.145 48.2251 104.145 48.5505 104.17 48.8745C104.124 49.4216 104.124 49.9715 104.17 50.5186C104.206 50.7635 104.271 51.0032 104.364 51.2324C104.468 51.5019 104.639 51.7403 104.861 51.9246C105.059 52.0938 105.286 52.2257 105.53 52.314C105.803 52.4068 106.086 52.4649 106.373 52.4871C106.689 52.5091 107.007 52.5091 107.323 52.4871H108.468L108.209 45.3918ZM111.967 52.6168C112.283 52.6389 112.601 52.6389 112.917 52.6168C113.204 52.5947 113.487 52.5366 113.759 52.4438C114.026 52.3344 114.269 52.1726 114.472 51.9679C114.694 51.7835 114.865 51.5452 114.969 51.2757C115.07 51.0177 115.143 50.7493 115.185 50.4753C115.214 49.9566 115.214 49.4365 115.185 48.9178C115.225 48.4283 115.225 47.9363 115.185 47.4468C115.15 47.1288 115.055 46.8204 114.904 46.5383C114.802 46.3157 114.655 46.1165 114.473 45.9528C114.291 45.7891 114.078 45.6644 113.846 45.5865C113.382 45.4553 112.902 45.3897 112.42 45.3918H110.887V52.6168H111.967Z" fill="url(#paint46_linear)"/>
<defs>
<linearGradient id="paint0_linear" x1="-0.281631" y1="9.91474" x2="67.862" y2="55.504" gradientUnits="userSpaceOnUse">
<stop stop-color="#B5B4B4"/>
<stop offset="0.36"/>
<stop offset="0.39" stop-color="#B5B4B4"/>
<stop offset="1"/>
</linearGradient>
<linearGradient id="paint1_linear" x1="46.1876" y1="-3.13108" x2="125.259" y2="49.7273" gradientUnits="userSpaceOnUse">
<stop stop-color="#B5B4B4"/>
<stop offset="0.36"/>
<stop offset="0.39" stop-color="#B5B4B4"/>
<stop offset="1"/>
</linearGradient>
<linearGradient id="paint2_linear" x1="52.2752" y1="-2.00712" x2="131.322" y2="50.8515" gradientUnits="userSpaceOnUse">
<stop stop-color="#B5B4B4"/>
<stop offset="0.36"/>
<stop offset="0.39" stop-color="#B5B4B4"/>
<stop offset="1"/>
</linearGradient>
<linearGradient id="paint3_linear" x1="56.6243" y1="1.89204" x2="135.671" y2="54.7757" gradientUnits="userSpaceOnUse">
<stop stop-color="#B5B4B4"/>
<stop offset="0.36"/>
<stop offset="0.39" stop-color="#B5B4B4"/>
<stop offset="1"/>
</linearGradient>
<linearGradient id="paint4_linear" x1="58.9636" y1="8.28452" x2="138.01" y2="61.1429" gradientUnits="userSpaceOnUse">
<stop stop-color="#B5B4B4"/>
<stop offset="0.36"/>
<stop offset="0.39" stop-color="#B5B4B4"/>
<stop offset="1"/>
</linearGradient>
<linearGradient id="paint5_linear" x1="59.1097" y1="16.7356" x2="138.181" y2="69.6191" gradientUnits="userSpaceOnUse">
<stop stop-color="#B5B4B4"/>
<stop offset="0.36"/>
<stop offset="0.39" stop-color="#B5B4B4"/>
<stop offset="1"/>
</linearGradient>
<linearGradient id="paint6_linear" x1="57.0585" y1="26.7055" x2="136.105" y2="79.564" gradientUnits="userSpaceOnUse">
<stop stop-color="#B5B4B4"/>
<stop offset="0.36"/>
<stop offset="0.39" stop-color="#B5B4B4"/>
<stop offset="1"/>
</linearGradient>
<linearGradient id="paint7_linear" x1="52.9464" y1="37.4997" x2="132.018" y2="90.3582" gradientUnits="userSpaceOnUse">
<stop stop-color="#B5B4B4"/>
<stop offset="0.36"/>
<stop offset="0.39" stop-color="#B5B4B4"/>
<stop offset="1"/>
</linearGradient>
<linearGradient id="paint8_linear" x1="47.0629" y1="48.3131" x2="126.109" y2="101.197" gradientUnits="userSpaceOnUse">
<stop stop-color="#B5B4B4"/>
<stop offset="0.36"/>
<stop offset="0.39" stop-color="#B5B4B4"/>
<stop offset="1"/>
</linearGradient>
<linearGradient id="paint9_linear" x1="39.7878" y1="58.5166" x2="118.834" y2="111.375" gradientUnits="userSpaceOnUse">
<stop stop-color="#B5B4B4"/>
<stop offset="0.36"/>
<stop offset="0.39" stop-color="#B5B4B4"/>
<stop offset="1"/>
</linearGradient>
<linearGradient id="paint10_linear" x1="31.6305" y1="67.3586" x2="110.702" y2="120.217" gradientUnits="userSpaceOnUse">
<stop stop-color="#B5B4B4"/>
<stop offset="0.36"/>
<stop offset="0.39" stop-color="#B5B4B4"/>
<stop offset="1"/>
</linearGradient>
<linearGradient id="paint11_linear" x1="23.1878" y1="74.2541" x2="102.234" y2="127.112" gradientUnits="userSpaceOnUse">
<stop stop-color="#B5B4B4"/>
<stop offset="0.36"/>
<stop offset="0.39" stop-color="#B5B4B4"/>
<stop offset="1"/>
</linearGradient>
<linearGradient id="paint12_linear" x1="14.9409" y1="78.6997" x2="94.0124" y2="131.558" gradientUnits="userSpaceOnUse">
<stop stop-color="#B5B4B4"/>
<stop offset="0.36"/>
<stop offset="0.39" stop-color="#B5B4B4"/>
<stop offset="1"/>
</linearGradient>
<linearGradient id="paint13_linear" x1="7.54312" y1="80.4269" x2="86.6147" y2="133.285" gradientUnits="userSpaceOnUse">
<stop stop-color="#B5B4B4"/>
<stop offset="0.36"/>
<stop offset="0.39" stop-color="#B5B4B4"/>
<stop offset="1"/>
</linearGradient>
<linearGradient id="paint14_linear" x1="1.45914" y1="79.2778" x2="80.5057" y2="132.161" gradientUnits="userSpaceOnUse">
<stop stop-color="#B5B4B4"/>
<stop offset="0.36"/>
<stop offset="0.39" stop-color="#B5B4B4"/>
<stop offset="1"/>
</linearGradient>
<linearGradient id="paint15_linear" x1="-2.86942" y1="75.3791" x2="76.1771" y2="128.237" gradientUnits="userSpaceOnUse">
<stop stop-color="#B5B4B4"/>
<stop offset="0.36"/>
<stop offset="0.39" stop-color="#B5B4B4"/>
<stop offset="1"/>
</linearGradient>
<linearGradient id="paint16_linear" x1="-5.2329" y1="68.9897" x2="73.8387" y2="121.848" gradientUnits="userSpaceOnUse">
<stop stop-color="#B5B4B4"/>
<stop offset="0.36"/>
<stop offset="0.39" stop-color="#B5B4B4"/>
<stop offset="1"/>
</linearGradient>
<linearGradient id="paint17_linear" x1="-5.37897" y1="60.5351" x2="73.6925" y2="113.393" gradientUnits="userSpaceOnUse">
<stop stop-color="#B5B4B4"/>
<stop offset="0.36"/>
<stop offset="0.39" stop-color="#B5B4B4"/>
<stop offset="1"/>
</linearGradient>
<linearGradient id="paint18_linear" x1="-3.32778" y1="50.5689" x2="75.7438" y2="103.427" gradientUnits="userSpaceOnUse">
<stop stop-color="#B5B4B4"/>
<stop offset="0.36"/>
<stop offset="0.39" stop-color="#B5B4B4"/>
<stop offset="1"/>
</linearGradient>
<linearGradient id="paint19_linear" x1="0.784374" y1="39.796" x2="79.8559" y2="92.6544" gradientUnits="userSpaceOnUse">
<stop stop-color="#B5B4B4"/>
<stop offset="0.36"/>
<stop offset="0.39" stop-color="#B5B4B4"/>
<stop offset="1"/>
</linearGradient>
<linearGradient id="paint20_linear" x1="6.69294" y1="28.936" x2="85.7395" y2="81.7945" gradientUnits="userSpaceOnUse">
<stop stop-color="#B5B4B4"/>
<stop offset="0.36"/>
<stop offset="0.39" stop-color="#B5B4B4"/>
<stop offset="1"/>
</linearGradient>
<linearGradient id="paint21_linear" x1="13.967" y1="18.7545" x2="93.0136" y2="71.638" gradientUnits="userSpaceOnUse">
<stop stop-color="#B5B4B4"/>
<stop offset="0.36"/>
<stop offset="0.39" stop-color="#B5B4B4"/>
<stop offset="1"/>
</linearGradient>
<linearGradient id="paint22_linear" x1="22.0788" y1="9.91205" x2="101.15" y2="62.7955" gradientUnits="userSpaceOnUse">
<stop stop-color="#B5B4B4"/>
<stop offset="0.36"/>
<stop offset="0.39" stop-color="#B5B4B4"/>
<stop offset="1"/>
</linearGradient>
<linearGradient id="paint23_linear" x1="30.5429" y1="3.04179" x2="109.614" y2="55.9002" gradientUnits="userSpaceOnUse">
<stop stop-color="#B5B4B4"/>
<stop offset="0.36"/>
<stop offset="0.39" stop-color="#B5B4B4"/>
<stop offset="1"/>
</linearGradient>
<linearGradient id="paint24_linear" x1="38.7674" y1="-1.42896" x2="117.814" y2="51.4544" gradientUnits="userSpaceOnUse">
<stop stop-color="#B5B4B4"/>
<stop offset="0.36"/>
<stop offset="0.39" stop-color="#B5B4B4"/>
<stop offset="1"/>
</linearGradient>
<linearGradient id="paint25_linear" x1="21.4608" y1="150.126" x2="486.04" y2="275.011" gradientUnits="userSpaceOnUse">
<stop stop-color="#B5B4B4"/>
<stop offset="0.36"/>
<stop offset="0.39" stop-color="#B5B4B4"/>
<stop offset="1"/>
</linearGradient>
<linearGradient id="paint26_linear" x1="36.0493" y1="95.5646" x2="673.712" y2="360.936" gradientUnits="userSpaceOnUse">
<stop stop-color="#B5B4B4"/>
<stop offset="0.36"/>
<stop offset="0.39" stop-color="#B5B4B4"/>
<stop offset="1"/>
</linearGradient>
<linearGradient id="paint27_linear" x1="18.7219" y1="89.3619" x2="417.562" y2="260.548" gradientUnits="userSpaceOnUse">
<stop stop-color="#B5B4B4"/>
<stop offset="0.36"/>
<stop offset="0.39" stop-color="#B5B4B4"/>
<stop offset="1"/>
</linearGradient>
<linearGradient id="paint28_linear" x1="25.6459" y1="42.4147" x2="186.236" y2="132.204" gradientUnits="userSpaceOnUse">
<stop stop-color="#B5B4B4"/>
<stop offset="0.36"/>
<stop offset="0.39" stop-color="#B5B4B4"/>
<stop offset="1"/>
</linearGradient>
<linearGradient id="paint29_linear" x1="202.986" y1="-164.116" x2="614.184" y2="77.6036" gradientUnits="userSpaceOnUse">
<stop stop-color="#B5B4B4"/>
<stop offset="0.36"/>
<stop offset="0.39" stop-color="#B5B4B4"/>
<stop offset="1"/>
</linearGradient>
<linearGradient id="paint30_linear" x1="253.719" y1="-212.353" x2="684.729" y2="53.1259" gradientUnits="userSpaceOnUse">
<stop stop-color="#B5B4B4"/>
<stop offset="0.36"/>
<stop offset="0.39" stop-color="#B5B4B4"/>
<stop offset="1"/>
</linearGradient>
<linearGradient id="paint31_linear" x1="268.324" y1="-241.303" x2="661.578" y2="-21.3306" gradientUnits="userSpaceOnUse">
<stop stop-color="#B5B4B4"/>
<stop offset="0.36"/>
<stop offset="0.39" stop-color="#B5B4B4"/>
<stop offset="1"/>
</linearGradient>
<linearGradient id="paint32_linear" x1="323.666" y1="-289.499" x2="738.257" y2="-40.5516" gradientUnits="userSpaceOnUse">
<stop stop-color="#B5B4B4"/>
<stop offset="0.36"/>
<stop offset="0.39" stop-color="#B5B4B4"/>
<stop offset="1"/>
</linearGradient>
<linearGradient id="paint33_linear" x1="337.804" y1="-332.426" x2="727.891" y2="-124.287" gradientUnits="userSpaceOnUse">
<stop stop-color="#B5B4B4"/>
<stop offset="0.36"/>
<stop offset="0.39" stop-color="#B5B4B4"/>
<stop offset="1"/>
</linearGradient>
<linearGradient id="paint34_linear" x1="380.155" y1="-377.786" x2="780.012" y2="-159.586" gradientUnits="userSpaceOnUse">
<stop stop-color="#B5B4B4"/>
<stop offset="0.36"/>
<stop offset="0.39" stop-color="#B5B4B4"/>
<stop offset="1"/>
</linearGradient>
<linearGradient id="paint35_linear" x1="151.517" y1="-57.3942" x2="561.426" y2="184.45" gradientUnits="userSpaceOnUse">
<stop stop-color="#B5B4B4"/>
<stop offset="0.36"/>
<stop offset="0.39" stop-color="#B5B4B4"/>
<stop offset="1"/>
</linearGradient>
<linearGradient id="paint36_linear" x1="207.131" y1="-93.2359" x2="656.119" y2="227.202" gradientUnits="userSpaceOnUse">
<stop stop-color="#B5B4B4"/>
<stop offset="0.36"/>
<stop offset="0.39" stop-color="#B5B4B4"/>
<stop offset="1"/>
</linearGradient>
<linearGradient id="paint37_linear" x1="250.529" y1="-133.915" x2="700.163" y2="188.231" gradientUnits="userSpaceOnUse">
<stop stop-color="#B5B4B4"/>
<stop offset="0.36"/>
<stop offset="0.39" stop-color="#B5B4B4"/>
<stop offset="1"/>
</linearGradient>
<linearGradient id="paint38_linear" x1="285.385" y1="-190.109" x2="715.887" y2="87.4379" gradientUnits="userSpaceOnUse">
<stop stop-color="#B5B4B4"/>
<stop offset="0.36"/>
<stop offset="0.39" stop-color="#B5B4B4"/>
<stop offset="1"/>
</linearGradient>
<linearGradient id="paint39_linear" x1="373.857" y1="-228.498" x2="835.247" y2="143.551" gradientUnits="userSpaceOnUse">
<stop stop-color="#B5B4B4"/>
<stop offset="0.36"/>
<stop offset="0.39" stop-color="#B5B4B4"/>
<stop offset="1"/>
</linearGradient>
<linearGradient id="paint40_linear" x1="387.408" y1="-282.801" x2="830.178" y2="14.1916" gradientUnits="userSpaceOnUse">
<stop stop-color="#B5B4B4"/>
<stop offset="0.36"/>
<stop offset="0.39" stop-color="#B5B4B4"/>
<stop offset="1"/>
</linearGradient>
<linearGradient id="paint41_linear" x1="397.516" y1="-319.199" x2="811.329" y2="-72.5322" gradientUnits="userSpaceOnUse">
<stop stop-color="#B5B4B4"/>
<stop offset="0.36"/>
<stop offset="0.39" stop-color="#B5B4B4"/>
<stop offset="1"/>
</linearGradient>
<linearGradient id="paint42_linear" x1="548.476" y1="-381.453" x2="1021.75" y2="1.81243" gradientUnits="userSpaceOnUse">
<stop stop-color="#B5B4B4"/>
<stop offset="0.36"/>
<stop offset="0.39" stop-color="#B5B4B4"/>
<stop offset="1"/>
</linearGradient>
<linearGradient id="paint43_linear" x1="543.981" y1="-415.915" x2="992.456" y2="-97.5172" gradientUnits="userSpaceOnUse">
<stop stop-color="#B5B4B4"/>
<stop offset="0.36"/>
<stop offset="0.39" stop-color="#B5B4B4"/>
<stop offset="1"/>
</linearGradient>
<linearGradient id="paint44_linear" x1="108.601" y1="42.5193" x2="554.033" y2="338.607" gradientUnits="userSpaceOnUse">
<stop stop-color="#B5B4B4"/>
<stop offset="0.36"/>
<stop offset="0.39" stop-color="#B5B4B4"/>
<stop offset="1"/>
</linearGradient>
<linearGradient id="paint45_linear" x1="146.907" y1="-2.02029" x2="561.157" y2="246.287" gradientUnits="userSpaceOnUse">
<stop stop-color="#B5B4B4"/>
<stop offset="0.36"/>
<stop offset="0.39" stop-color="#B5B4B4"/>
<stop offset="1"/>
</linearGradient>
<linearGradient id="paint46_linear" x1="221.727" y1="-51.2218" x2="681.305" y2="318.729" gradientUnits="userSpaceOnUse">
<stop stop-color="#B5B4B4"/>
<stop offset="0.36"/>
<stop offset="0.39" stop-color="#B5B4B4"/>
<stop offset="1"/>
</linearGradient>
</defs>
</svg>
