<?xml version="1.0" encoding="UTF-8" ?>
<!DOCTYPE svg PUBLIC "-//W3C//DTD SVG 1.1//EN" "http://www.w3.org/Graphics/SVG/1.1/DTD/svg11.dtd">
<svg width="360pt" height="102pt" viewBox="0 0 360 102" version="1.1" xmlns="http://www.w3.org/2000/svg">
<g id="#201d70ff">
<path fill="#201d70" opacity="1.00" d=" M 44.53 0.00 L 47.10 0.00 C 53.92 1.22 55.51 8.57 56.61 14.29 C 64.02 14.59 71.33 15.99 78.30 18.53 C 79.78 14.83 80.35 10.60 83.02 7.50 C 84.98 11.53 81.64 15.71 80.64 19.58 C 87.28 22.72 94.03 26.84 97.30 33.73 C 101.30 41.56 100.32 50.67 99.61 59.12 C 98.75 68.25 97.10 77.90 91.31 85.33 C 87.23 90.62 81.31 94.23 74.96 96.14 C 65.59 99.02 55.78 100.49 45.99 100.85 C 35.25 100.93 26.11 94.39 18.39 87.60 C 15.17 84.62 11.75 80.76 12.32 76.04 C 13.15 70.56 16.72 66.03 20.01 61.76 C 14.84 59.27 9.76 56.61 4.47 54.41 C 1.81 53.35 0.48 50.64 0.00 47.99 L 0.00 47.10 C 1.79 40.39 6.75 35.20 10.73 29.71 C 12.80 27.11 13.38 23.73 14.94 20.86 C 16.73 17.44 19.85 14.79 23.44 13.39 C 25.96 12.31 28.86 11.85 30.90 9.86 C 35.01 6.05 39.09 1.87 44.53 0.00 M 36.32 12.49 C 38.11 13.46 39.90 14.43 41.68 15.41 C 43.02 16.79 44.37 18.17 45.70 19.57 C 46.67 21.63 47.61 23.71 48.53 25.80 C 48.82 29.06 48.77 32.32 48.68 35.58 C 47.44 38.57 45.95 41.43 43.36 43.47 C 40.57 44.31 37.83 45.31 35.08 46.28 C 33.43 46.59 31.77 46.90 30.12 47.20 C 28.02 47.31 25.92 47.42 23.82 47.55 C 21.55 46.43 19.43 45.05 17.41 43.54 C 15.82 41.09 14.39 38.53 13.10 35.90 C 10.33 39.89 7.47 43.86 5.32 48.23 C 7.33 49.20 9.39 50.09 11.45 50.96 C 14.72 51.54 18.00 52.09 21.29 52.53 C 23.12 52.58 24.94 52.63 26.76 52.69 C 28.52 52.61 30.29 52.52 32.05 52.43 C 34.44 52.02 36.84 51.58 39.23 51.13 L 39.33 50.92 C 45.02 49.66 50.43 47.36 55.43 44.37 C 54.79 39.53 53.98 34.72 53.19 29.90 C 52.80 27.30 52.37 24.71 51.95 22.11 C 51.34 19.11 50.66 16.11 50.08 13.10 C 49.49 10.77 48.69 8.51 47.60 6.37 L 47.95 5.79 C 43.04 5.68 39.73 9.57 36.32 12.49 M 24.47 15.63 C 17.59 18.52 13.38 26.67 15.47 33.93 C 16.95 39.38 21.79 45.25 28.05 44.12 C 33.08 43.49 38.31 42.39 42.64 39.64 C 47.20 34.84 47.36 26.82 43.64 21.45 C 39.72 15.22 31.21 12.68 24.47 15.63 M 57.74 20.99 C 58.53 27.71 59.29 34.43 60.06 41.15 C 61.33 40.10 62.59 39.05 63.86 38.01 C 65.54 36.33 67.18 34.62 68.80 32.88 C 70.01 31.42 71.22 29.96 72.45 28.51 C 73.30 27.17 74.14 25.83 74.98 24.49 C 73.31 24.04 71.64 23.58 69.95 23.18 C 69.26 22.97 67.88 22.54 67.19 22.33 C 64.87 22.03 62.56 21.72 60.23 21.53 C 59.60 21.40 58.36 21.13 57.74 20.99 M 77.46 25.75 C 76.80 26.89 76.13 28.03 75.46 29.16 C 74.04 31.01 72.63 32.85 71.23 34.71 C 69.34 36.71 67.42 38.69 65.49 40.66 C 63.81 41.92 62.13 43.17 60.44 44.40 C 60.46 45.85 60.50 47.31 60.56 48.77 C 60.66 51.57 60.75 54.37 60.83 57.17 C 60.88 62.59 60.55 68.01 59.41 73.32 L 59.00 73.30 C 58.89 74.03 58.66 75.49 58.55 76.22 L 58.37 76.17 C 57.77 77.54 57.17 78.90 56.55 80.25 C 55.59 82.01 54.65 83.78 53.76 85.58 C 56.54 84.88 59.07 83.54 61.28 81.73 L 61.36 81.76 C 62.35 80.35 63.35 78.95 64.34 77.55 C 64.97 76.22 65.61 74.89 66.25 73.56 C 67.01 70.00 67.43 66.39 67.69 62.76 C 68.43 62.57 69.92 62.20 70.67 62.01 C 72.40 62.35 74.19 62.20 75.94 62.28 C 75.95 64.30 75.95 66.31 75.96 68.33 C 75.95 69.11 75.95 70.65 75.95 71.43 C 76.63 73.74 77.04 76.33 78.98 77.98 C 81.09 76.49 81.70 73.90 82.57 71.63 C 82.84 70.57 83.13 69.51 83.42 68.45 C 83.79 65.75 84.06 63.03 84.32 60.32 C 85.05 60.17 86.51 59.85 87.24 59.70 C 87.86 60.16 88.48 60.62 89.10 61.08 C 88.59 61.65 87.58 62.78 87.07 63.35 C 86.90 64.85 86.72 66.35 86.55 67.86 C 85.35 72.39 83.87 76.98 80.77 80.61 C 78.90 79.79 76.18 79.93 75.26 77.73 C 73.19 73.90 73.18 69.41 72.85 65.18 C 72.30 65.25 71.20 65.37 70.64 65.44 C 70.27 71.16 68.63 76.77 65.31 81.50 C 62.94 83.63 60.43 85.60 57.79 87.39 C 56.31 87.53 54.83 87.72 53.34 87.66 C 52.14 87.06 51.08 85.38 51.81 84.06 C 53.05 80.67 54.66 77.42 55.74 73.97 C 56.04 71.18 56.32 68.40 56.59 65.61 C 51.31 65.36 46.05 64.84 40.82 64.07 C 44.15 66.58 48.83 68.95 48.27 73.89 C 46.62 78.46 44.73 83.03 41.45 86.71 C 35.70 85.72 30.83 82.14 26.92 77.97 C 25.01 75.81 26.99 73.30 28.40 71.54 C 29.86 71.34 31.32 71.14 32.78 70.94 L 32.75 70.77 C 33.84 70.65 36.02 70.41 37.10 70.29 C 37.35 70.81 37.58 71.34 37.81 71.87 L 36.68 73.41 C 35.50 73.40 34.33 73.41 33.15 73.41 C 31.67 74.26 30.18 75.11 28.71 75.97 C 30.40 77.54 32.13 79.08 33.91 80.56 C 35.24 81.52 36.56 82.49 37.86 83.49 C 38.94 83.04 40.02 82.60 41.10 82.14 C 42.80 78.51 44.29 74.79 45.34 70.92 C 42.52 68.51 39.54 66.31 36.38 64.37 L 36.34 64.04 C 34.63 63.41 32.92 62.80 31.20 62.21 C 30.47 62.65 29.00 63.53 28.27 63.97 C 24.17 67.35 20.37 71.67 19.34 77.04 C 19.51 79.75 21.70 81.71 23.45 83.57 C 27.88 87.74 32.73 91.78 38.59 93.73 C 44.10 95.50 49.98 94.80 55.62 94.16 C 59.57 93.53 63.50 92.77 67.37 91.76 L 66.71 91.49 C 70.49 91.30 73.95 89.55 77.47 88.32 C 80.33 86.60 83.01 84.60 85.43 82.30 C 88.10 78.77 90.13 74.79 91.29 70.50 C 91.77 68.27 92.27 66.04 92.73 63.81 L 92.85 63.90 C 93.15 61.09 93.44 58.29 93.75 55.49 C 93.91 51.42 93.89 47.35 93.86 43.28 C 93.25 41.23 92.89 39.07 91.86 37.18 C 89.02 31.37 83.18 28.13 77.46 25.75 M 38.89 54.61 C 33.39 56.08 27.66 55.95 22.01 56.15 C 24.82 57.03 27.59 58.12 30.52 58.49 C 35.38 59.81 40.39 61.27 45.46 61.03 C 49.13 61.78 52.87 61.98 56.60 62.17 C 56.57 61.09 56.51 58.92 56.48 57.84 C 56.40 55.95 56.31 54.06 56.22 52.18 C 56.09 50.52 55.96 48.85 55.83 47.19 C 50.56 50.42 44.94 53.18 38.89 54.61 Z" />
<path fill="#201d70" opacity="1.00" d=" M 32.46 24.66 C 35.75 22.14 39.66 28.00 35.83 29.87 C 32.58 32.20 29.26 26.74 32.46 24.66 Z" />
<path fill="#201d70" opacity="1.00" d=" M 175.39 27.51 C 179.45 25.01 185.18 29.29 183.85 33.87 C 182.98 38.03 177.32 39.61 174.26 36.82 C 171.13 34.52 171.82 29.02 175.39 27.51 Z" />
</g>
<g id="#57a3d1ff">
<path fill="#57a3d1" opacity="1.00" d=" M 36.32 12.49 C 39.73 9.57 43.04 5.68 47.95 5.79 L 47.60 6.37 C 45.73 9.45 43.73 12.45 41.68 15.41 C 39.90 14.43 38.11 13.46 36.32 12.49 Z" />
</g>
<g id="#769fc6ff">
<path fill="#769fc6" opacity="1.00" d=" M 47.60 6.37 C 48.69 8.51 49.49 10.77 50.08 13.10 C 48.60 15.24 47.14 17.40 45.70 19.57 C 44.37 18.17 43.02 16.79 41.68 15.41 C 43.73 12.45 45.73 9.45 47.60 6.37 Z" />
</g>
<g id="#989abbff">
<path fill="#989abb" opacity="1.00" d=" M 45.70 19.57 C 47.14 17.40 48.60 15.24 50.08 13.10 C 50.66 16.11 51.34 19.11 51.95 22.11 C 50.81 23.34 49.67 24.57 48.53 25.80 C 47.61 23.71 46.67 21.63 45.70 19.57 Z" />
</g>
<g id="#ffffffff">
<path fill="#ffffff" opacity="1.00" d=" M 24.47 15.63 C 31.21 12.68 39.72 15.22 43.64 21.45 C 47.36 26.82 47.20 34.84 42.64 39.64 C 38.31 42.39 33.08 43.49 28.05 44.12 C 21.79 45.25 16.95 39.38 15.47 33.93 C 13.38 26.67 17.59 18.52 24.47 15.63 M 32.46 24.66 C 29.26 26.74 32.58 32.20 35.83 29.87 C 39.66 28.00 35.75 22.14 32.46 24.66 Z" />
</g>
<g id="#e9909fff">
<path fill="#e9909f" opacity="1.00" d=" M 57.74 20.99 C 58.36 21.13 59.60 21.40 60.23 21.53 C 61.92 26.91 62.79 32.49 63.86 38.01 C 62.59 39.05 61.33 40.10 60.06 41.15 C 59.29 34.43 58.53 27.71 57.74 20.99 Z" />
</g>
<g id="#a998b5ff">
<path fill="#a998b5" opacity="1.00" d=" M 60.23 21.53 C 62.56 21.72 64.87 22.03 67.19 22.33 C 67.67 25.86 68.23 29.37 68.80 32.88 C 67.18 34.62 65.54 36.33 63.86 38.01 C 62.79 32.49 61.92 26.91 60.23 21.53 Z" />
</g>
<g id="#c095acff">
<path fill="#c095ac" opacity="1.00" d=" M 48.53 25.80 C 49.67 24.57 50.81 23.34 51.95 22.11 C 52.37 24.71 52.80 27.30 53.19 29.90 C 51.63 31.75 50.08 33.61 48.68 35.58 C 48.77 32.32 48.82 29.06 48.53 25.80 Z" />
</g>
<g id="#659ac7ff">
<path fill="#659ac7" opacity="1.00" d=" M 67.19 22.33 C 67.88 22.54 69.26 22.97 69.95 23.18 C 70.87 24.92 71.65 26.72 72.45 28.51 C 71.22 29.96 70.01 31.42 68.80 32.88 C 68.23 29.37 67.67 25.86 67.19 22.33 Z" />
</g>
<g id="#4395caff">
<path fill="#4395ca" opacity="1.00" d=" M 69.95 23.18 C 71.64 23.58 73.31 24.04 74.98 24.49 C 74.14 25.83 73.30 27.17 72.45 28.51 C 71.65 26.72 70.87 24.92 69.95 23.18 Z" />
</g>
<g id="#22abe4ff">
<path fill="#22abe4" opacity="1.00" d=" M 77.46 25.75 C 83.18 28.13 89.02 31.37 91.86 37.18 C 86.28 34.74 80.71 32.25 75.46 29.16 C 76.13 28.03 76.80 26.89 77.46 25.75 Z" />
</g>
<g id="#3fa8daff">
<path fill="#3fa8da" opacity="1.00" d=" M 71.23 34.71 C 72.63 32.85 74.04 31.01 75.46 29.16 C 80.71 32.25 86.28 34.74 91.86 37.18 C 92.89 39.07 93.25 41.23 93.86 43.28 C 93.43 43.66 92.56 44.40 92.13 44.78 C 85.18 41.39 78.44 37.53 71.23 34.71 Z" />
</g>
<g id="#e98f9eff">
<path fill="#e98f9e" opacity="1.00" d=" M 48.68 35.58 C 50.08 33.61 51.63 31.75 53.19 29.90 C 53.98 34.72 54.79 39.53 55.43 44.37 C 50.43 47.36 45.02 49.66 39.33 50.92 C 40.51 48.35 41.76 45.81 43.36 43.47 C 45.95 41.43 47.44 38.57 48.68 35.58 Z" />
</g>
<g id="#211c70ff">
<path fill="#211c70" opacity="1.00" d=" M 117.48 30.37 C 120.74 30.37 124.01 30.38 127.27 30.41 C 132.33 42.98 137.60 55.46 142.77 67.98 C 147.97 55.46 153.13 42.91 158.34 30.39 C 161.59 30.38 164.84 30.38 168.10 30.36 C 160.57 47.71 153.04 65.06 145.53 82.42 C 145.02 84.23 143.50 85.20 141.86 85.87 C 140.26 83.07 138.97 80.11 137.73 77.14 C 130.98 61.55 124.17 45.99 117.48 30.37 Z" />
<path fill="#211c70" opacity="1.00" d=" M 338.00 33.62 C 340.91 33.62 343.83 33.63 346.74 33.64 C 346.74 37.18 346.75 40.71 346.75 44.25 C 350.75 44.25 354.74 44.25 358.75 44.25 C 358.74 46.71 358.75 49.17 358.76 51.63 C 354.75 51.62 350.74 51.62 346.74 51.62 C 346.80 57.76 346.65 63.91 346.74 70.06 C 346.81 72.39 346.99 75.42 349.39 76.60 C 352.73 78.04 356.47 77.41 360.00 77.35 L 360.00 84.52 C 354.40 85.62 348.05 86.10 343.07 82.80 C 339.54 80.50 338.19 76.10 338.06 72.10 C 337.85 65.27 338.08 58.45 338.00 51.62 C 335.83 51.62 333.66 51.62 331.50 51.62 C 331.50 49.17 331.50 46.71 331.50 44.25 C 333.66 44.25 335.83 44.25 338.00 44.25 C 338.00 40.71 338.00 37.16 338.00 33.62 Z" />
<path fill="#211c70" opacity="1.00" d=" M 196.17 49.14 C 203.60 41.16 218.17 41.25 224.99 49.97 C 229.13 54.62 229.64 61.20 228.72 67.10 C 218.56 67.19 208.40 67.03 198.24 67.19 C 199.44 71.27 201.82 75.46 206.13 76.83 C 212.08 79.12 218.70 77.02 223.45 73.10 C 224.79 75.10 226.16 77.08 227.52 79.07 C 223.56 82.13 219.06 84.87 213.94 85.23 C 206.47 86.16 198.49 83.22 193.91 77.14 C 187.61 68.98 188.36 56.08 196.17 49.14 M 202.94 53.12 C 200.55 54.89 199.53 57.82 198.40 60.44 C 205.89 60.54 213.39 60.56 220.89 60.42 C 220.17 58.18 219.80 55.66 218.08 53.92 C 214.31 49.66 207.22 49.61 202.94 53.12 Z" />
<path fill="#211c70" opacity="1.00" d=" M 261.36 45.33 C 261.82 43.54 264.55 42.32 265.55 44.35 C 269.72 52.88 273.56 61.59 277.54 70.22 C 281.04 61.58 284.46 52.90 287.96 44.25 C 291.03 44.25 294.10 44.25 297.18 44.24 C 291.43 57.22 285.88 70.30 280.16 83.30 C 279.68 84.77 278.05 85.12 276.89 85.86 C 272.00 77.03 268.19 67.65 263.70 58.62 C 259.40 67.60 255.24 76.64 250.93 85.62 C 249.68 85.13 247.92 85.17 247.44 83.64 C 241.59 70.58 236.08 57.37 230.27 44.29 C 233.34 44.25 236.42 44.25 239.49 44.27 C 243.01 53.02 246.52 61.78 250.00 70.54 C 253.84 62.16 257.51 53.70 261.36 45.33 Z" />
<path fill="#211c70" opacity="1.00" d=" M 304.27 46.24 C 311.53 41.20 322.27 42.82 328.09 49.38 C 326.60 51.16 325.09 52.93 323.56 54.67 C 319.91 51.79 314.92 49.44 310.32 51.49 C 307.67 52.45 307.92 56.56 310.32 57.69 C 315.41 60.58 321.58 61.76 325.84 66.02 C 330.45 70.66 329.15 79.34 323.60 82.69 C 315.23 87.88 303.48 85.38 297.36 77.81 C 298.98 75.98 300.59 74.14 302.19 72.28 C 305.76 75.36 310.01 78.53 315.02 77.85 C 318.05 77.87 321.08 75.16 320.03 71.95 C 315.62 67.54 308.76 67.09 303.96 63.16 C 298.34 59.33 298.67 49.95 304.27 46.24 Z" />
<path fill="#211c70" opacity="1.00" d=" M 173.64 44.25 C 176.51 44.25 179.38 44.26 182.25 44.26 C 182.24 57.67 182.25 71.08 182.24 84.50 C 179.37 84.50 176.50 84.50 173.62 84.49 C 173.63 71.08 173.60 57.67 173.64 44.25 Z" />
</g>
<g id="#69a4cbff">
<path fill="#69a4cb" opacity="1.00" d=" M 65.49 40.66 C 67.42 38.69 69.34 36.71 71.23 34.71 C 78.44 37.53 85.18 41.39 92.13 44.78 C 92.56 44.40 93.43 43.66 93.86 43.28 C 93.89 47.35 93.91 51.42 93.75 55.49 C 84.76 49.75 74.78 45.85 65.49 40.66 Z" />
</g>
<g id="#34a7ddff">
<path fill="#34a7dd" opacity="1.00" d=" M 5.32 48.23 C 7.47 43.86 10.33 39.89 13.10 35.90 C 14.39 38.53 15.82 41.09 17.41 43.54 C 15.49 46.07 13.50 48.54 11.45 50.96 C 9.39 50.09 7.33 49.20 5.32 48.23 Z" />
</g>
<g id="#9ca0bbff">
<path fill="#9ca0bb" opacity="1.00" d=" M 60.44 44.40 C 62.13 43.17 63.81 41.92 65.49 40.66 C 74.78 45.85 84.76 49.75 93.75 55.49 C 93.44 58.29 93.15 61.09 92.85 63.90 L 92.73 63.81 C 91.52 62.90 90.31 61.99 89.10 61.08 C 88.48 60.62 87.86 60.16 87.24 59.70 C 86.51 59.85 85.05 60.17 84.32 60.32 C 76.27 56.73 68.53 52.51 60.56 48.77 C 60.50 47.31 60.46 45.85 60.44 44.40 Z" />
</g>
<g id="#66a1ccff">
<path fill="#66a1cc" opacity="1.00" d=" M 17.41 43.54 C 19.43 45.05 21.55 46.43 23.82 47.55 C 22.98 49.21 22.14 50.87 21.29 52.53 C 18.00 52.09 14.72 51.54 11.45 50.96 C 13.50 48.54 15.49 46.07 17.41 43.54 Z" />
</g>
<g id="#c394abff">
<path fill="#c394ab" opacity="1.00" d=" M 35.08 46.28 C 37.83 45.31 40.57 44.31 43.36 43.47 C 41.76 45.81 40.51 48.35 39.33 50.92 L 39.23 51.13 C 36.84 51.58 34.44 52.02 32.05 52.43 C 33.06 50.38 34.07 48.33 35.08 46.28 Z" />
</g>
<g id="#8d9bbeff">
<path fill="#8d9bbe" opacity="1.00" d=" M 23.82 47.55 C 25.92 47.42 28.02 47.31 30.12 47.20 C 29.00 49.03 27.88 50.86 26.76 52.69 C 24.94 52.63 23.12 52.58 21.29 52.53 C 22.14 50.87 22.98 49.21 23.82 47.55 Z" />
</g>
<g id="#a898b4ff">
<path fill="#a898b4" opacity="1.00" d=" M 30.12 47.20 C 31.77 46.90 33.43 46.59 35.08 46.28 C 34.07 48.33 33.06 50.38 32.05 52.43 C 30.29 52.52 28.52 52.61 26.76 52.69 C 27.88 50.86 29.00 49.03 30.12 47.20 Z" />
</g>
<g id="#22a8e1ff">
<path fill="#22a8e1" opacity="1.00" d=" M 38.89 54.61 C 44.94 53.18 50.56 50.42 55.83 47.19 C 55.96 48.85 56.09 50.52 56.22 52.18 C 47.64 54.21 39.06 56.26 30.52 58.49 C 27.59 58.12 24.82 57.03 22.01 56.15 C 27.66 55.95 33.39 56.08 38.89 54.61 Z" />
</g>
<g id="#cc9caaff">
<path fill="#cc9caa" opacity="1.00" d=" M 60.56 48.77 C 68.53 52.51 76.27 56.73 84.32 60.32 C 84.06 63.03 83.79 65.75 83.42 68.45 C 80.93 68.41 78.44 68.37 75.96 68.33 C 75.95 66.31 75.95 64.30 75.94 62.28 C 74.19 62.20 72.40 62.35 70.67 62.01 C 67.36 60.46 64.13 58.73 60.83 57.17 C 60.75 54.37 60.66 51.57 60.56 48.77 Z" />
</g>
<g id="#5286c5ff">
<path fill="#5286c5" opacity="1.00" d=" M 30.52 58.49 C 39.06 56.26 47.64 54.21 56.22 52.18 C 56.31 54.06 56.40 55.95 56.48 57.84 C 52.67 58.37 48.98 59.48 45.46 61.03 C 40.39 61.27 35.38 59.81 30.52 58.49 Z" />
</g>
<g id="#ed919dff">
<path fill="#ed919d" opacity="1.00" d=" M 60.83 57.17 C 64.13 58.73 67.36 60.46 70.67 62.01 C 69.92 62.20 68.43 62.57 67.69 62.76 C 67.43 66.39 67.01 70.00 66.25 73.56 C 63.97 73.48 61.69 73.40 59.41 73.32 C 60.55 68.01 60.88 62.59 60.83 57.17 Z" />
</g>
<g id="#8863a8ff">
<path fill="#8863a8" opacity="1.00" d=" M 45.46 61.03 C 48.98 59.48 52.67 58.37 56.48 57.84 C 56.51 58.92 56.57 61.09 56.60 62.17 C 52.87 61.98 49.13 61.78 45.46 61.03 Z" />
</g>
<g id="#c59daeff">
<path fill="#c59dae" opacity="1.00" d=" M 87.07 63.35 C 87.58 62.78 88.59 61.65 89.10 61.08 C 90.31 61.99 91.52 62.90 92.73 63.81 C 92.27 66.04 91.77 68.27 91.29 70.50 C 89.71 69.62 88.13 68.74 86.55 67.86 C 86.72 66.35 86.90 64.85 87.07 63.35 Z" />
</g>
<g id="#7273b6ff">
<path fill="#7273b6" opacity="1.00" d=" M 28.27 63.97 C 29.00 63.53 30.47 62.65 31.20 62.21 C 31.70 65.07 32.23 67.92 32.75 70.77 L 32.78 70.94 C 31.32 71.14 29.86 71.34 28.40 71.54 C 28.38 69.01 28.33 66.49 28.27 63.97 Z" />
</g>
<g id="#4391ceff">
<path fill="#4391ce" opacity="1.00" d=" M 31.20 62.21 C 32.92 62.80 34.63 63.41 36.34 64.04 L 36.38 64.37 C 36.60 66.34 36.84 68.32 37.10 70.29 C 36.02 70.41 33.84 70.65 32.75 70.77 C 32.23 67.92 31.70 65.07 31.20 62.21 Z" />
</g>
<g id="#a74092ff">
<path fill="#a74092" opacity="1.00" d=" M 19.34 77.04 C 20.37 71.67 24.17 67.35 28.27 63.97 C 28.33 66.49 28.38 69.01 28.40 71.54 C 26.99 73.30 25.01 75.81 26.92 77.97 C 30.83 82.14 35.70 85.72 41.45 86.71 C 46.46 88.61 50.96 91.56 55.62 94.16 C 49.98 94.80 44.10 95.50 38.59 93.73 C 32.73 91.78 27.88 87.74 23.45 83.57 C 21.70 81.71 19.51 79.75 19.34 77.04 Z" />
</g>
<g id="#96408aff">
<path fill="#96408a" opacity="1.00" d=" M 40.82 64.07 C 46.05 64.84 51.31 65.36 56.59 65.61 C 56.32 68.40 56.04 71.18 55.74 73.97 C 53.70 72.75 51.65 71.52 49.60 70.30 C 49.16 71.50 48.72 72.70 48.27 73.89 C 48.83 68.95 44.15 66.58 40.82 64.07 Z" />
</g>
<g id="#02bcf2ff">
<path fill="#02bcf2" opacity="1.00" d=" M 37.10 70.29 C 36.84 68.32 36.60 66.34 36.38 64.37 C 39.54 66.31 42.52 68.51 45.34 70.92 C 44.29 74.79 42.80 78.51 41.10 82.14 C 40.24 78.65 39.25 75.18 37.81 71.87 C 37.58 71.34 37.35 70.81 37.10 70.29 Z" />
</g>
<g id="#da7a99ff">
<path fill="#da7a99" opacity="1.00" d=" M 70.64 65.44 C 71.20 65.37 72.30 65.25 72.85 65.18 C 73.18 69.41 73.19 73.90 75.26 77.73 C 76.18 79.93 78.90 79.79 80.77 80.61 C 82.34 81.13 83.88 81.72 85.43 82.30 C 83.01 84.60 80.33 86.60 77.47 88.32 C 73.31 86.24 69.24 83.98 65.31 81.50 C 68.63 76.77 70.27 71.16 70.64 65.44 Z" />
</g>
<g id="#a5a2baff">
<path fill="#a5a2ba" opacity="1.00" d=" M 75.96 68.33 C 78.44 68.37 80.93 68.41 83.42 68.45 C 83.13 69.51 82.84 70.57 82.57 71.63 C 80.36 71.56 78.16 71.49 75.95 71.43 C 75.95 70.65 75.95 69.11 75.96 68.33 Z" />
</g>
<g id="#ed949dff">
<path fill="#ed949d" opacity="1.00" d=" M 80.77 80.61 C 83.87 76.98 85.35 72.39 86.55 67.86 C 88.13 68.74 89.71 69.62 91.29 70.50 C 90.13 74.79 88.10 78.77 85.43 82.30 C 83.88 81.72 82.34 81.13 80.77 80.61 Z" />
</g>
<g id="#b75394ff">
<path fill="#b75394" opacity="1.00" d=" M 49.60 70.30 C 51.65 71.52 53.70 72.75 55.74 73.97 C 54.66 77.42 53.05 80.67 51.81 84.06 C 51.08 85.38 52.14 87.06 53.34 87.66 C 54.83 87.72 56.31 87.53 57.79 87.39 C 60.75 88.78 63.68 90.26 66.71 91.49 L 67.37 91.76 C 63.50 92.77 59.57 93.53 55.62 94.16 C 50.96 91.56 46.46 88.61 41.45 86.71 C 44.73 83.03 46.62 78.46 48.27 73.89 C 48.72 72.70 49.16 71.50 49.60 70.30 Z" />
</g>
<g id="#5ba9d8ff">
<path fill="#5ba9d8" opacity="1.00" d=" M 75.95 71.43 C 78.16 71.49 80.36 71.56 82.57 71.63 C 81.70 73.90 81.09 76.49 78.98 77.98 C 77.04 76.33 76.63 73.74 75.95 71.43 Z" />
</g>
<g id="#4b8bc9ff">
<path fill="#4b8bc9" opacity="1.00" d=" M 33.15 73.41 C 34.33 73.41 35.50 73.40 36.68 73.41 C 36.49 76.81 37.22 80.17 37.86 83.49 C 36.56 82.49 35.24 81.52 33.91 80.56 C 33.66 78.18 33.41 75.79 33.15 73.41 Z" />
</g>
<g id="#28a0daff">
<path fill="#28a0da" opacity="1.00" d=" M 36.68 73.41 L 37.81 71.87 C 39.25 75.18 40.24 78.65 41.10 82.14 C 40.02 82.60 38.94 83.04 37.86 83.49 C 37.22 80.17 36.49 76.81 36.68 73.41 Z" />
</g>
<g id="#a094b4ff">
<path fill="#a094b4" opacity="1.00" d=" M 59.00 73.30 L 59.41 73.32 C 61.69 73.40 63.97 73.48 66.25 73.56 C 65.61 74.89 64.97 76.22 64.34 77.55 C 62.41 77.10 60.48 76.66 58.55 76.22 C 58.66 75.49 58.89 74.03 59.00 73.30 Z" />
</g>
<g id="#6d6eb1ff">
<path fill="#6d6eb1" opacity="1.00" d=" M 28.71 75.97 C 30.18 75.11 31.67 74.26 33.15 73.41 C 33.41 75.79 33.66 78.18 33.91 80.56 C 32.13 79.08 30.40 77.54 28.71 75.97 Z" />
</g>
<g id="#69a1ccff">
<path fill="#69a1cc" opacity="1.00" d=" M 58.37 76.17 L 58.55 76.22 C 60.48 76.66 62.41 77.10 64.34 77.55 C 63.35 78.95 62.35 80.35 61.36 81.76 L 61.28 81.73 C 59.70 81.23 58.13 80.74 56.55 80.25 C 57.17 78.90 57.77 77.54 58.37 76.17 Z" />
</g>
<g id="#1b9ddbff">
<path fill="#1b9ddb" opacity="1.00" d=" M 56.55 80.25 C 58.13 80.74 59.70 81.23 61.28 81.73 C 59.07 83.54 56.54 84.88 53.76 85.58 C 54.65 83.78 55.59 82.01 56.55 80.25 Z" />
</g>
<g id="#c66396ff">
<path fill="#c66396" opacity="1.00" d=" M 57.79 87.39 C 60.43 85.60 62.94 83.63 65.31 81.50 C 69.24 83.98 73.31 86.24 77.47 88.32 C 73.95 89.55 70.49 91.30 66.71 91.49 C 63.68 90.26 60.75 88.78 57.79 87.39 Z" />
</g>
</svg>
