<svg width="91" height="89" viewBox="0 0 91 89" fill="none" xmlns="http://www.w3.org/2000/svg">
<g clip-path="url(#clip0)">
<path d="M89.45 24.2967H2.45291V21.3635L14.4525 2.29749H77.4504L89.45 21.3635V24.2967Z" fill="#EAEAE8"/>
<path d="M26.4521 21.3635H89.45V38.9629H26.4521V21.3635Z" fill="#C3B895"/>
<path d="M26.4521 38.9628H89.45V87.3612H26.4521V38.9628Z" fill="#EBEBEB"/>
<path d="M2.45291 22.83H26.4521V88.8277H2.45291V22.83Z" fill="#834B10"/>
<path d="M2.45291 52.1624H27.9521V88.8278H2.45291V52.1624Z" fill="#E4E4E2"/>
<path d="M2.45291 52.1624H14.4525V88.8278H2.45291V52.1624Z" fill="#EBEBEB"/>
<path d="M6.95273 62.4258H9.95273V65.3591H6.95273V62.4258Z" fill="#CDCDCD"/>
<path d="M18.9524 62.4258H21.9524V65.3591H18.9524V62.4258Z" fill="#CDCDCD"/>
<path d="M2.45291 74.1615H23.4522V88.8277H2.45291V74.1615Z" fill="#F7BA61"/>
<path d="M14.4525 74.1615H26.4521V88.8277H14.4525V74.1615Z" fill="#DEA757"/>
<path d="M14.4525 40.4266C21.08 40.4266 26.4521 45.6794 26.4521 52.1596H2.45291C2.45291 45.6794 7.82505 40.4266 14.4525 40.4266Z" fill="#B6534F"/>
<path d="M12.9526 40.4266L12.6362 41.0454C10.8711 44.4964 9.9527 48.3011 9.9527 52.1596H18.9524C18.9531 48.3011 18.034 44.4964 16.2689 41.0454L15.9525 40.4266H12.9526Z" fill="#E06661"/>
<path d="M26.4521 38.9628H89.45V78.5614H26.4521V38.9628Z" fill="#FBEDBF"/>
<path d="M75.4466 58.0683C73.9686 58.3605 72.9169 59.6452 72.9505 61.119V68.2924H66.9507V72.6923H75.9504C77.6071 72.6923 78.9503 71.3789 78.9503 69.759V60.9593C78.9503 60.0957 78.5607 59.2757 77.8847 58.7186C77.2094 58.1614 76.3174 57.9237 75.4466 58.0683Z" fill="#F7BA61"/>
<path d="M75.9504 55.0928C73.4654 55.0928 71.4506 53.1227 71.4506 50.6929C71.4506 48.2631 73.4654 46.2931 75.9504 46.2931C78.4354 46.2931 80.4503 48.2631 80.4503 50.6929C80.4503 53.1227 78.4354 55.0928 75.9504 55.0928Z" fill="#F7BA61"/>
<path d="M80.4503 74.1587C82.9353 74.1587 84.9502 72.1887 84.9502 69.7589V63.8924C84.9502 63.0825 84.2786 62.4258 83.4502 62.4258C82.6219 62.4258 81.9503 63.0825 81.9503 63.8924V69.7589C81.9503 70.5688 81.2787 71.2255 80.4503 71.2255H74.4505C73.6222 71.2255 72.9506 71.8822 72.9506 72.6921V78.5586H75.9505V74.1587H80.4503Z" fill="#EA6B65"/>
<path d="M40.4555 58.0683C41.9335 58.3605 42.9852 59.6452 42.9516 61.119V68.2924H50.4513V72.6923H39.9517C38.295 72.6923 36.9518 71.3789 36.9518 69.759V60.9593C36.9518 60.0957 37.3421 59.2757 38.0174 58.7186C38.6927 58.1614 39.5847 57.9237 40.4555 58.0683Z" fill="#F7BA61"/>
<path d="M39.9517 55.0928C37.4666 55.0928 35.4518 53.1227 35.4518 50.6929C35.4518 48.2631 37.4666 46.2931 39.9517 46.2931C42.4367 46.2931 44.4515 48.2631 44.4515 50.6929C44.4515 53.1227 42.4367 55.0928 39.9517 55.0928Z" fill="#F7BA61"/>
<path d="M41.4516 71.2255H35.4518C34.6234 71.2255 33.9518 70.5688 33.9518 69.7589V63.8924C33.9518 63.0825 33.2802 62.4258 32.4519 62.4258C31.6235 62.4258 30.9519 63.0825 30.9519 63.8924V69.7589C30.9519 72.1887 32.9668 74.1587 35.4518 74.1587H39.9516V78.5586H42.9515V72.6921C42.9515 71.8822 42.2799 71.2255 41.4516 71.2255Z" fill="#EA6B65"/>
<path d="M56.4511 49.2291H59.451V60.9621H56.4511V49.2291Z" fill="#EA9D2D"/>
<path d="M59.451 56.5592H56.4511C53.1377 56.5592 50.4513 53.9325 50.4513 50.6927H53.4512C53.4512 52.3126 54.7944 53.626 56.4511 53.626H59.451C61.1076 53.626 62.4509 52.3126 62.4509 50.6927H65.4508C65.4508 53.9325 62.7643 56.5592 59.451 56.5592Z" fill="#EA9D2D"/>
<path d="M57.9511 46.293C57.3417 46.2966 56.7909 45.9393 56.5573 45.3885C56.3236 44.8385 56.4533 44.2048 56.8861 43.7851C57.3168 43.3683 57.9621 43.2466 58.5209 43.4757C58.7025 43.5502 58.8703 43.6555 59.016 43.7851C59.5961 44.3637 59.5961 45.289 59.016 45.8676C58.8695 45.9958 58.7025 46.1004 58.5209 46.1756C58.3407 46.2501 58.1474 46.2902 57.9511 46.293Z" fill="#EA9D2D"/>
<path d="M63.9509 47.7598C63.7553 47.757 63.5612 47.7169 63.3811 47.6424C63.2002 47.5672 63.0324 47.4626 62.886 47.3344C62.3059 46.7558 62.3059 45.8305 62.886 45.2519C63.0317 45.1223 63.1994 45.017 63.3811 44.9425C63.9399 44.7134 64.5852 44.8351 65.0158 45.2519C65.4487 45.6716 65.5783 46.3053 65.3447 46.8553C65.111 47.4061 64.5603 47.7634 63.9509 47.7598Z" fill="#EA9D2D"/>
<path d="M51.9513 47.7597C51.2445 47.7526 50.6403 47.2591 50.5077 46.5802C50.3751 45.9013 50.7501 45.2253 51.4049 44.9639C52.059 44.7025 52.8112 44.9281 53.203 45.5038C53.5941 46.0796 53.5165 46.8452 53.0162 47.3343C52.7284 47.6014 52.3483 47.7533 51.9513 47.7597Z" fill="#EA9D2D"/>
<path d="M47.4514 65.3619H68.4507V78.5615H47.4514V65.3619Z" fill="#EAEAE8"/>
<path d="M51.9513 69.7618H54.9512V78.5615H51.9513V69.7618Z" fill="#DBDBDB"/>
<path d="M60.9509 69.7618H63.9508V78.5615H60.9509V69.7618Z" fill="#DBDBDB"/>
<path d="M45.9514 68.2952H47.4515V72.6952H45.9514V68.2952Z" fill="#E6AD5A"/>
<path d="M68.4507 68.2952H69.9507V72.6952H68.4507V68.2952Z" fill="#E6AD5A"/>
<path d="M57.951 63.8923C57.1227 63.8923 56.4511 63.2357 56.4511 62.4257V59.4925C56.4511 58.6826 57.1227 58.0259 57.951 58.0259C58.7794 58.0259 59.451 58.6826 59.451 59.4925V62.4257C59.451 63.2357 58.7794 63.8923 57.951 63.8923Z" fill="#CBCBCB"/>
<path d="M63.9509 65.3591H51.9513C51.9513 62.1194 54.6377 59.4927 57.9511 59.4927C61.2644 59.4927 63.9509 62.1194 63.9509 65.3591Z" fill="#DBDBDB"/>
<path d="M52.1629 63.8926C52.0289 64.371 51.9579 64.8636 51.9513 65.3592H63.9509C63.9443 64.8636 63.8732 64.371 63.7392 63.8926H52.1629Z" fill="#CBCBCB"/>
<path d="M26.4521 78.5615H89.45V88.8279H26.4521V78.5615Z" fill="#834B10"/>
<path d="M2.45291 21.3606H20.4523V30.1603C20.4523 35.0199 16.4234 38.96 11.4526 38.96C6.48256 38.96 2.45291 35.0199 2.45291 30.1603V21.3606Z" fill="#CBCBCB"/>
<path d="M20.4523 21.3606H38.4517V30.1603C38.4517 35.0199 34.4228 38.96 29.452 38.96C24.482 38.96 20.4523 35.0199 20.4523 30.1603V21.3606Z" fill="#E06661"/>
<path d="M53.4512 21.3606H71.4506V30.1603C71.4506 35.0199 67.4217 38.96 62.4509 38.96C57.4809 38.96 53.4512 35.0199 53.4512 30.1603V21.3606Z" fill="#E06661"/>
<path d="M71.4506 21.3606H89.45V30.1603C89.45 35.0199 85.421 38.96 80.4503 38.96C75.4802 38.96 71.4506 35.0199 71.4506 30.1603V21.3606Z" fill="#CBCBCB"/>
<path d="M26.4521 2.29749L20.4523 21.3635H38.4517V2.29749H26.4521Z" fill="#EA6B65"/>
<path d="M66.9508 2.29749L71.4506 21.3635H53.4512V2.29749H66.9508Z" fill="#EA6B65"/>
<path d="M65.4523 21.362C65.4523 31.8919 56.7221 40.4281 45.9529 40.4281C35.1838 40.4281 26.4536 31.8919 26.4536 21.362C26.4536 10.8322 35.1838 2.29602 45.9529 2.29602C56.7221 2.29602 65.4523 10.8322 65.4523 21.362Z" fill="#FBB540"/>
<path d="M57.951 30.1604H50.4513V8.16113C54.9811 9.93282 57.951 14.2224 57.951 18.9918V30.1604Z" fill="#EBEBEB"/>
<path d="M56.4511 37.4067V30.1603H50.4513V39.9031C52.5803 39.4068 54.6091 38.5625 56.4511 37.4067Z" fill="#DBDBDB"/>
<path d="M45.9514 18.4275H33.9518V22.8273C33.9518 24.125 36.0369 25.2793 36.9517 26.085V38.2719C38.8318 39.2237 40.8583 39.8675 42.9515 40.179V26.085C43.8648 25.2793 45.9514 24.125 45.9514 22.8273V18.4275Z" fill="#E4E4E2"/>
<path d="M45.9515 22.827H42.9516V11.0941C42.9516 10.2841 43.6232 9.62744 44.4516 9.62744C45.2799 9.62744 45.9515 10.2841 45.9515 11.0941V22.827Z" fill="#E4E4E2"/>
<path d="M36.9517 22.827H33.9518V11.0941C33.9518 10.2841 34.6234 9.62744 35.4518 9.62744C36.2801 9.62744 36.9517 10.2841 36.9517 11.0941V22.827Z" fill="#E4E4E2"/>
<path d="M50.4527 30.1603H56.4525V31.6269H50.4527V30.1603Z" fill="#CBCBCB"/>
<path d="M75.9504 46.2931C73.4654 46.2931 71.4506 48.2631 71.4506 50.6929C71.4506 53.1227 73.4654 55.0928 75.9504 55.0928C78.4354 55.0928 80.4503 53.1227 80.4503 50.6929C80.4503 48.2631 78.4354 46.2931 75.9504 46.2931ZM75.9504 52.1596C75.1221 52.1596 74.4505 51.5029 74.4505 50.6929C74.4505 49.883 75.1221 49.2263 75.9504 49.2263C76.7788 49.2263 77.4504 49.883 77.4504 50.6929C77.4504 51.5029 76.7788 52.1596 75.9504 52.1596Z" fill="black"/>
<path d="M39.9517 46.2931C37.4666 46.2931 35.4518 48.2631 35.4518 50.6929C35.4518 53.1227 37.4666 55.0928 39.9517 55.0928C42.4367 55.0928 44.4515 53.1227 44.4515 50.6929C44.4515 48.2631 42.4367 46.2931 39.9517 46.2931ZM39.9517 52.1596C39.1233 52.1596 38.4517 51.5029 38.4517 50.6929C38.4517 49.883 39.1233 49.2263 39.9517 49.2263C40.78 49.2263 41.4516 49.883 41.4516 50.6929C41.4516 51.5029 40.78 52.1596 39.9517 52.1596Z" fill="black"/>
<path d="M58.5209 43.4773C57.9606 43.2632 57.3249 43.3835 56.8861 43.7853C56.6122 44.0667 56.4569 44.4384 56.4511 44.8265C56.454 45.2154 56.61 45.5885 56.8861 45.8678C57.1696 46.1414 57.5526 46.2946 57.9511 46.2932C58.1459 46.2961 58.34 46.261 58.5209 46.1908C58.7033 46.1106 58.871 46.0017 59.016 45.8678C59.5961 45.2892 59.5961 44.3639 59.016 43.7853C58.8703 43.6556 58.7025 43.5518 58.5209 43.4773Z" fill="black"/>
<path d="M63.3811 44.944C63.1994 45.0184 63.0317 45.1223 62.886 45.2519C62.612 45.5333 62.4568 45.905 62.4509 46.2932C62.4531 46.4851 62.4941 46.6742 62.571 46.8503C62.6399 47.0315 62.7468 47.197 62.886 47.3345C63.0317 47.4641 63.1994 47.5679 63.3811 47.6424C63.559 47.7248 63.7539 47.7649 63.9509 47.7599C64.3479 47.7541 64.728 47.6023 65.0158 47.3345C65.155 47.197 65.2619 47.0315 65.3308 46.8503C65.415 46.6763 65.456 46.4858 65.4509 46.2932C65.445 45.905 65.2898 45.5333 65.0158 45.2519C64.5778 44.8487 63.9406 44.7284 63.3811 44.944Z" fill="black"/>
<path d="M50.8863 45.2518C50.6124 45.5332 50.4571 45.9049 50.4513 46.293C50.4542 46.6819 50.6102 47.055 50.8863 47.3343C51.4781 47.9015 52.4251 47.9015 53.0162 47.3343C53.2923 47.055 53.4483 46.6819 53.4513 46.293C53.4549 45.6972 53.0894 45.1587 52.5262 44.9302C51.9637 44.7018 51.3155 44.8285 50.8863 45.2518Z" fill="black"/>
<path d="M6.95273 62.4272H9.95273V65.3606H6.95273V62.4272Z" fill="black"/>
<path d="M18.9524 62.4272H21.9524V65.3606H18.9524V62.4272Z" fill="black"/>
<path d="M90.7903 20.7296C90.7719 20.6831 90.7514 20.6372 90.7287 20.5921L78.7291 1.5261C78.4559 1.09213 77.9726 0.827881 77.4511 0.827881H14.4532C13.9325 0.827881 13.4483 1.09213 13.1752 1.5261L1.17556 20.5921C1.15286 20.6372 1.13235 20.6831 1.11404 20.7296C1.095 20.7712 1.07522 20.8105 1.05838 20.8528C0.993193 21.0146 0.957306 21.1865 0.953644 21.3605V87.3583C0.953644 88.1683 1.62525 88.8249 2.45359 88.8249H89.4507C90.279 88.8249 90.9506 88.1683 90.9506 87.3583V21.3605C90.947 21.1865 90.9111 21.0146 90.8459 20.8528C90.8291 20.8105 90.81 20.774 90.7903 20.7296ZM69.9513 30.1602C69.9726 32.6065 68.7348 34.8988 66.657 36.2616C64.5792 37.6244 61.9397 37.8736 59.6333 36.9254C63.7919 33.4551 66.3904 28.5253 66.8672 23.1995C66.8782 23.0749 66.8672 22.9518 66.8826 22.8271H69.9513V30.1602ZM39.841 37.9037C39.4184 37.7576 39.0061 37.5929 38.5981 37.4153L38.4524 37.3465V26.0877C38.4524 25.6716 38.2722 25.2756 37.9558 24.9977C37.3186 24.4484 36.9532 23.6578 36.9524 22.8271V19.8939H38.4524V21.3605C38.4524 22.1705 39.124 22.8271 39.9523 22.8271C40.7807 22.8271 41.4523 22.1705 41.4523 21.3605V19.8939H42.9522V22.8271C42.9515 23.6571 42.586 24.447 41.9489 24.9963C41.6332 25.2741 41.4523 25.6702 41.4523 26.0862V38.3849C40.9645 38.2646 40.4877 38.1214 40.0168 37.9624L39.841 37.9037ZM38.4524 69.7589V60.9592C38.4524 60.1493 39.124 59.4926 39.9523 59.4926C40.0395 59.4926 40.1274 59.4997 40.2131 59.5148C40.9638 59.6931 41.4816 60.3634 41.4523 61.1175V68.2923C41.4523 69.1022 42.1239 69.7589 42.9522 69.7589H45.9521V71.2255H39.9523C39.124 71.2255 38.4524 70.5688 38.4524 69.7589ZM57.9517 60.9592C59.8582 60.9614 61.5573 62.1358 62.1953 63.8924H53.7082C54.3462 62.1358 56.0453 60.9614 57.9517 60.9592ZM51.9519 66.8257H66.9514V77.092H63.9515V69.7589H60.9516V77.092H54.9518V69.7589H51.9519V77.092H48.952V66.8257H51.9519ZM77.4511 69.7589C77.4511 70.5688 76.7795 71.2255 75.9511 71.2255H69.9513V69.7589H72.9512C73.7796 69.7589 74.4512 69.1022 74.4512 68.2923V61.1175C74.4226 60.3641 74.9397 59.6953 75.6889 59.5162C76.1291 59.4417 76.5803 59.5613 76.9216 59.8428C77.257 60.1213 77.4504 60.5295 77.4511 60.9592V69.7589ZM69.9513 77.092V74.1588H72.9512V77.092H69.9513ZM45.9521 74.1588V77.092H42.9522V74.1588H45.9521ZM47.4521 80.0252H87.9507V85.8917H27.9527V80.0252H47.4521ZM3.95354 22.8271H18.953V30.1602C18.953 34.2099 15.595 37.4933 11.4533 37.4933C7.31159 37.4933 3.95354 34.2099 3.95354 30.1602V22.8271ZM13.8695 40.4531C14.065 40.443 14.2569 40.4266 14.4532 40.4266C14.6495 40.4266 14.8414 40.443 15.0369 40.4531C16.3999 43.1994 17.2041 46.1792 17.4055 49.2263H11.5016C11.7023 46.1799 12.5065 43.2008 13.8695 40.4545V40.4531ZM9.95334 52.1595H12.9532V71.2255H3.95354V52.1595H9.95334ZM3.95354 74.1588H12.9532V85.8917H3.95354V74.1588ZM15.9531 52.1595H24.9528V71.2255H15.9531V52.1595ZM20.4098 49.2263C20.2472 46.515 19.6598 43.8439 18.6681 41.3067C21.9844 42.731 24.3179 45.723 24.8466 49.2263H20.4098ZM8.49661 49.2263H4.05974C4.58853 45.723 6.92122 42.7318 10.2368 41.3067C9.24585 43.8439 8.6592 46.515 8.49661 49.2263ZM15.9531 85.8917V74.1588H24.9528V85.8917H15.9531ZM18.1943 38.0225C19.09 37.2849 19.8532 36.4062 20.453 35.4223C21.5194 37.1582 23.0845 38.5489 24.9528 39.4218V42.4167C23.2127 40.3105 20.8536 38.7766 18.1943 38.0225ZM21.9529 30.1602V22.8271H25.0246C25.3234 27.1267 27.0072 31.223 29.835 34.5279C30.5821 35.3908 31.3987 36.1928 32.2783 36.9254C29.9712 37.8729 27.3317 37.6229 25.2531 36.2609C23.1739 34.8988 21.9346 32.6072 21.9529 30.1602ZM44.4522 26.6856C45.4146 25.6207 45.9478 24.2486 45.9521 22.8271V11.0942C45.9521 10.2843 45.2805 9.62759 44.4522 9.62759C43.6239 9.62759 42.9522 10.2843 42.9522 11.0942V16.9607H41.4523V11.0942C41.4523 10.2843 40.7807 9.62759 39.9523 9.62759C39.124 9.62759 38.4524 10.2843 38.4524 11.0942V16.9607H36.9524V11.0942C36.9524 10.2843 36.2808 9.62759 35.4525 9.62759C34.6242 9.62759 33.9525 10.2843 33.9525 11.0942V22.8271C33.9569 24.2486 34.4901 25.6193 35.4525 26.6842V35.6407C34.225 34.7842 33.111 33.7802 32.1377 32.6538C27.6547 27.4139 26.6776 20.1116 29.6307 13.9207C32.5837 7.72986 38.9343 3.76971 45.9207 3.76112C46.4648 3.76112 47.0119 3.78546 47.562 3.83416C54.7014 4.45217 60.7832 9.15781 63.0397 15.8092C65.297 22.4612 63.2975 29.7879 57.9517 34.4562V31.6269C58.7801 31.6269 59.4517 30.9702 59.4517 30.1602V18.9952C59.47 13.62 56.1208 8.78185 51.0101 6.80177C50.5479 6.62059 50.0243 6.67502 49.6119 6.94786C49.2003 7.21999 48.9528 7.67472 48.952 8.16097V38.7036C47.466 38.9506 45.9543 39.0158 44.4522 38.8969V26.6856ZM51.9519 31.6269H54.9518V36.5838C53.9968 37.1267 52.9927 37.5814 51.9519 37.9438V31.6269ZM56.4518 28.6936H51.9519V10.6001C54.7797 12.4985 56.4642 15.6409 56.4518 18.9952V28.6936ZM72.9512 30.1602V22.8271H87.9507V30.1602C87.9507 34.2099 84.5927 37.4933 80.451 37.4933C76.3093 37.4933 72.9512 34.2099 72.9512 30.1602ZM86.7672 19.8939H72.651L68.8366 3.76112H76.6125L86.7672 19.8939ZM69.5661 19.8939H66.8782C66.4124 13.2146 62.6215 7.18418 56.7367 3.76112H65.7591L69.5661 19.8939ZM35.1822 3.76112C34.2352 4.3068 33.3329 4.9241 32.4826 5.60585C28.1966 9.08763 25.5124 14.1012 25.029 19.5287C25.0188 19.6504 25.029 19.7722 25.0144 19.8939H22.4839L27.5616 3.76112H35.1822ZM15.2918 3.76112H24.4219L19.3449 19.8939H5.1371L15.2918 3.76112ZM3.95354 40.4266V37.3336C4.89321 38.2732 6.00865 39.028 7.23835 39.5586C5.99181 40.3306 4.88222 41.2959 3.95354 42.4167V40.4266ZM87.9507 38.9599V77.092H75.9511V74.1588H80.451C82.936 74.1588 84.9508 72.1887 84.9508 69.7589V63.8924C84.9508 63.0825 84.2792 62.4258 83.4509 62.4258C82.6226 62.4258 81.9509 63.0825 81.9509 63.8924V69.7589C81.9509 70.5688 81.2793 71.2255 80.451 71.2255H80.1749C80.3529 70.7558 80.4459 70.2595 80.451 69.7589V60.9592C80.4517 59.6637 79.868 58.4342 78.8566 57.5977C77.8444 56.7613 76.5078 56.4032 75.2012 56.6195C73.0025 57.0334 71.4227 58.9283 71.4513 61.1175V66.8257H69.9513V65.3591C69.9513 64.5491 69.2797 63.8924 68.4514 63.8924H65.3014C64.6957 61.0143 62.3952 58.765 59.4517 58.1728V56.5594C62.7651 56.5594 65.4515 53.9326 65.4515 50.6929H62.4516C62.4516 52.3128 61.1084 53.6261 59.4517 53.6261V49.2263H56.4518V53.6261C54.7951 53.6261 53.4519 52.3128 53.4519 50.6929H50.452C50.452 53.9326 53.1384 56.5594 56.4518 56.5594V58.1728C53.5083 58.765 51.2078 61.0143 50.6021 63.8924H47.4521C46.6238 63.8924 45.9521 64.5491 45.9521 65.3591V66.8257H44.4522V61.1175C44.48 58.929 42.901 57.0349 40.7023 56.6209C39.3965 56.4054 38.0591 56.7627 37.0477 57.5984C36.0362 58.4349 35.4525 59.6645 35.4525 60.9592V69.7589C35.4576 70.2595 35.5506 70.7558 35.7286 71.2255H35.4525C34.6242 71.2255 33.9525 70.5688 33.9525 69.7589V63.8924C33.9525 63.0825 33.2809 62.4258 32.4526 62.4258C31.6243 62.4258 30.9526 63.0825 30.9526 63.8924V69.7589C30.9526 72.1887 32.9675 74.1588 35.4525 74.1588H39.9523V77.092H27.9527V40.3091C30.3953 40.6815 32.892 40.1623 34.9684 38.8511C36.3153 39.6617 37.753 40.3184 39.2536 40.8075C39.3108 40.8254 39.3657 40.8476 39.4228 40.8648C39.9252 41.0252 40.4357 41.1584 40.9499 41.2845L41.1 41.3181C42.0814 41.5523 43.0782 41.7177 44.0831 41.8137C44.7232 41.8695 45.3611 41.8975 45.9968 41.8975C49.8661 41.8982 53.6584 40.8426 56.9469 38.8497C59.3243 40.3177 62.2077 40.7818 64.9403 40.1365C67.6736 39.4906 70.0224 37.7898 71.4513 35.4223C73.116 38.1579 75.987 39.9811 79.2198 40.3542C82.4534 40.728 85.6796 39.6102 87.9507 37.3293V38.9599Z" fill="black"/>
</g>
<defs>
<clipPath id="clip0">
<rect x="0.949982" y="0.827881" width="90" height="88" fill="white"/>
</clipPath>
</defs>
</svg>
