<svg width="79" height="54" viewBox="0 0 79 54" fill="none" xmlns="http://www.w3.org/2000/svg">
<path d="M65.7339 5.27222C65.5673 5.27222 65.4027 5.27625 65.2402 5.28448C58.8514 5.5455 53.7529 10.8684 53.7529 17.394C53.7529 23.0561 57.5914 27.8137 62.7813 29.1438C63.7242 29.3864 64.7138 29.5159 65.7339 29.5159C72.3503 29.5159 77.715 24.0881 77.715 17.3939C77.715 10.6996 72.3502 5.27222 65.7339 5.27222ZM65.7339 23.8624C65.3783 23.8624 65.0289 23.8336 64.6894 23.776C61.6556 23.2723 59.341 20.6078 59.341 17.3944C59.341 13.9896 61.94 11.1997 65.24 10.9449C65.4026 10.9326 65.5671 10.9264 65.7338 10.9264C69.2654 10.9264 72.1266 13.8212 72.1266 17.3944C72.1267 20.9676 69.2656 23.8624 65.7339 23.8624Z" fill="#FEE6CC"/>
<path d="M59.341 17.3942C59.341 20.6076 61.6554 23.2723 64.6894 23.7759C64.2728 25.6632 63.6265 27.4643 62.7813 29.144C57.5915 27.8138 53.7529 23.0563 53.7529 17.3942C53.7529 10.8686 58.8512 5.54569 65.2402 5.28467V10.9447C61.94 11.1997 59.341 13.9897 59.341 17.3942Z" fill="#FCCE99"/>
<path d="M62.1473 3.50484V18.4707C62.1473 31.1776 52.0871 41.6794 39.5283 41.7692C36.8661 41.7882 34.3082 41.3449 31.9284 40.5136C24.2045 37.8182 18.3624 31.0397 16.9237 22.7276C16.6981 21.4261 16.5802 20.0878 16.5802 18.7205V3.50501C16.5802 2.58605 17.3165 1.84094 18.225 1.84094L60.5024 1.84094C61.4109 1.84094 62.1473 2.58588 62.1473 3.50484Z" fill="#FEE6CC"/>
<path d="M32.8593 39.0559C32.5972 39.5636 32.2842 40.0509 31.9286 40.5135C24.2047 37.8181 18.3626 31.0395 16.9239 22.7274C17.4869 22.935 18.0233 23.2085 18.519 23.5436C19.7382 24.368 20.679 25.5399 21.2847 26.9379C22.0264 26.8207 22.7702 26.759 23.5056 26.759C28.669 26.759 32.845 29.658 33.6598 33.8068C34.0053 35.5567 33.7269 37.3721 32.8593 39.0559Z" fill="#FCCE99"/>
<path d="M62.1474 13.969V18.7203C62.1474 31.4509 51.9464 41.7697 39.3638 41.7697C26.7813 41.7697 16.5805 31.4509 16.5805 18.7203V13.969C16.5805 26.6995 26.7815 37.0204 39.3638 37.0204C51.9462 37.0204 62.1474 26.6995 62.1474 13.969Z" fill="#FCCE99"/>
<path d="M57.5862 45.9415H21.1408V52.0052H57.5862V45.9415Z" fill="#FCCE99"/>
<path d="M30.1566 37.6291C29.0856 39.7035 26.6656 41.4408 23.6255 42.0514C19.0838 42.9643 14.8755 41.0234 14.2252 37.7133C14.219 37.6845 14.2151 37.6577 14.2109 37.6289C13.6277 34.3477 16.7692 30.9738 21.2702 30.0691C25.8119 29.1562 30.0203 31.0971 30.6706 34.4073C30.886 35.5011 30.685 36.6052 30.1566 37.6291Z" fill="#E2780E"/>
<path d="M30.1565 37.6291C29.0855 39.7035 26.6655 41.4408 23.6254 42.0514C19.0837 42.9643 14.8754 41.0234 14.2251 37.7132C14.219 37.6845 14.215 37.6576 14.2108 37.6289H30.1565V37.6291V37.6291Z" fill="#A85000"/>
<path d="M23.6248 42.051C19.0846 42.9641 14.8764 41.0225 14.2263 37.7135C14.1392 37.2699 14.1197 36.8231 14.1657 36.382C15.503 38.9073 19.1865 40.2564 23.117 39.4659C27.0472 38.6755 29.9409 36.0036 30.222 33.1528C30.4311 33.5425 30.582 33.9629 30.6692 34.4066C31.3193 37.7154 28.165 41.1377 23.6248 42.051Z" fill="#A85000"/>
<path d="M17.1859 36.5518C16.9338 36.932 16.6657 37.2918 16.3832 37.6291C13.78 40.7337 10.0087 41.9014 7.50912 40.2093C6.61097 39.6028 5.98708 38.7023 5.63961 37.6291C4.91827 35.3901 5.40802 32.3987 7.14737 29.765C9.71995 25.8689 14.0523 24.2324 16.8241 26.1074C19.5959 27.9804 19.7584 32.6577 17.1859 36.5518Z" fill="#E2780E"/>
<path d="M16.3832 37.6292C13.7801 40.7337 10.0087 41.9014 7.50919 40.2093C6.61104 39.6028 5.98715 38.7023 5.63968 37.6292H16.3832Z" fill="#A85000"/>
<path d="M17.1859 36.5527C14.6136 40.4465 10.2811 42.0842 7.50883 40.2095C7.13712 39.9582 6.81123 39.6561 6.53531 39.3114C9.24585 40.1403 12.7933 38.459 15.0201 35.0882C17.2468 31.7174 17.4255 27.758 15.6318 25.5411C16.0522 25.6671 16.4526 25.8562 16.8243 26.1077C19.5968 27.9822 19.7582 32.6588 17.1859 36.5527Z" fill="#A85000"/>
<path d="M1.81744 40.5088L1.81744 43.5208L21.0753 47.2215H57.6523L76.9103 43.5208V40.5088L1.81744 40.5088Z" fill="#FEE6CC"/>
<path d="M76.9106 39.2482H64.8877C64.1999 39.2482 63.6426 39.8122 63.6426 40.508C63.6426 41.2037 64.1999 41.7677 64.8877 41.7677H75.6655V42.4784L57.5355 45.9619H21.1933L3.06339 42.4784V41.7677H8.01398C8.01598 41.7677 8.01797 41.7681 8.0198 41.7681C8.02129 41.7681 8.02295 41.7677 8.02444 41.7677H12.5105C12.512 41.7677 12.5133 41.7681 12.5148 41.7681C12.5172 41.7681 12.5197 41.7677 12.522 41.7677H27.4496C27.4505 41.7677 27.4513 41.7679 27.4523 41.7679C27.4531 41.7679 27.4538 41.7677 27.4546 41.7677H31.903C31.9043 41.7677 31.9057 41.7681 31.907 41.7681C31.9083 41.7681 31.9098 41.7677 31.9111 41.7677H46.8177C46.8192 41.7677 46.8205 41.7681 46.8219 41.7681C46.8232 41.7681 46.8245 41.7677 46.8257 41.7677H60.264C60.9518 41.7677 61.5091 41.2037 61.5091 40.508C61.5091 39.8122 60.9518 39.2482 60.264 39.2482H52.2328C53.7198 38.2921 55.1076 37.1724 56.3552 35.911C58.1559 34.0882 59.6343 32.0265 60.7642 29.7976C62.3387 30.4465 64.0058 30.7758 65.7342 30.7758C73.0265 30.7758 78.9591 24.7726 78.9591 17.3937C78.9591 10.0157 73.0265 4.01332 65.7342 4.01332C64.944 4.01332 64.1611 4.08572 63.3918 4.2253V3.50454C63.3918 1.89204 62.0952 0.5802 60.5016 0.5802L54.6128 0.5802C53.925 0.5802 53.3677 1.14424 53.3677 1.83997C53.3677 2.5357 53.925 3.09974 54.6128 3.09974H60.5016C60.7221 3.09974 60.9015 3.28131 60.9015 3.50454V5.64615L17.8254 5.64615V3.50454C17.8254 3.28131 18.0048 3.09974 18.2255 3.09974L49.9876 3.09974C50.6754 3.09974 51.2327 2.5357 51.2327 1.83997C51.2327 1.14424 50.6754 0.5802 49.9876 0.5802L18.2255 0.5802C16.6317 0.5802 15.3351 1.89204 15.3351 3.50454L15.3351 18.7192C15.3351 20.6193 15.5548 22.503 15.9827 24.3327C13.9562 23.7213 11.5413 24.2017 9.33796 25.727C8.77035 26.1199 8.62492 26.9038 9.01324 27.4781C9.40171 28.0522 10.1767 28.1992 10.7441 27.8065C12.1881 26.8069 13.7035 26.4145 14.9566 26.6685L10.4214 33.5337C10.0392 34.1122 10.1929 34.8946 10.7645 35.2811C10.977 35.4249 11.2176 35.4938 11.4553 35.4938C11.8573 35.4938 12.2517 35.2972 12.4916 34.9339L17.0282 28.0663C17.4986 28.773 17.7565 29.6976 17.7686 30.7753C17.7686 30.7758 17.7686 30.7762 17.7686 30.7767C17.7686 30.779 17.7688 30.7814 17.7688 30.7837C17.7855 32.448 17.2108 34.2481 16.1508 35.8525C15.5465 36.7675 14.8319 37.5521 14.0228 38.1876C13.4618 38.6321 12.8724 38.9877 12.2686 39.2482H8.33523C8.29024 39.221 8.24541 39.1936 8.20075 39.163C6.12771 37.7622 5.99656 34.1393 7.90209 30.9151C8.25504 30.318 8.06279 29.5443 7.47261 29.1872C6.88275 28.8304 6.11792 29.0246 5.76497 29.6219C4.55023 31.677 3.95689 33.9668 4.09435 36.0696C4.17238 37.2626 4.481 38.3378 4.98901 39.248H1.81827C1.13047 39.248 0.573151 39.8121 0.573151 40.5078L0.573151 43.5212C0.573151 44.1264 0.998483 44.6459 1.58601 44.7588L19.8959 48.2769V52.0051C19.8959 52.7008 20.4532 53.2649 21.141 53.2649H57.5862C58.274 53.2649 58.8313 52.7008 58.8313 52.0051V48.2772L77.1429 44.7588C77.7304 44.6459 78.1557 44.1262 78.1557 43.5212V40.5078C78.1557 39.8122 77.5982 39.2482 76.9106 39.2482ZM63.3918 12.7586C64.1133 12.3839 64.9111 12.185 65.7342 12.185C68.5729 12.185 70.8824 14.5216 70.8824 17.3937C70.8824 20.2658 68.5729 22.6025 65.7342 22.6025C64.8296 22.6025 63.9589 22.3648 63.1854 21.9166C63.3212 20.8648 63.3916 19.7974 63.3916 18.7188L63.3918 12.7586ZM65.7344 6.53286C71.6534 6.53286 76.469 11.405 76.469 17.3937C76.469 23.3834 71.6534 28.2563 65.7344 28.2563C64.3616 28.2563 63.0383 27.9975 61.786 27.4941C62.1591 26.5173 62.4677 25.5149 62.7126 24.4928C63.6592 24.9063 64.6819 25.1222 65.7342 25.1222C69.9461 25.1222 73.3726 21.6553 73.3726 17.3939C73.3726 13.1325 69.9461 9.66565 65.7342 9.66565C64.9307 9.66565 64.1425 9.7928 63.3918 10.0375V6.91885C63.3918 6.91448 63.3924 6.91029 63.3924 6.90592C63.3924 6.90155 63.3918 6.89735 63.3918 6.89298V6.79405C64.1561 6.62138 64.9407 6.53286 65.7344 6.53286ZM60.9015 8.16552V12.0434C60.9015 12.0448 60.9015 12.0463 60.9015 12.0476V18.719C60.9015 24.5398 58.6615 30.0128 54.5944 34.1293C52.3411 36.4077 49.5812 38.1734 46.6036 39.2482H32.1268C31.7252 39.1036 31.3256 38.948 30.931 38.7779C31.8446 37.3246 32.1927 35.7078 31.8921 34.1668C31.8917 34.1648 31.8916 34.1629 31.8912 34.1609C31.8907 34.1586 31.8899 34.1562 31.8896 34.1539C31.4926 32.1492 30.0926 30.4997 27.9464 29.509C25.9359 28.581 23.4787 28.3408 21.0271 28.8333C20.8042 28.8781 20.5832 28.9294 20.3641 28.9856C18.7021 25.8423 17.8254 22.3142 17.8254 18.7192V8.16569L60.9015 8.16552ZM18.2215 37.2524C19.3741 35.5075 20.0697 33.5509 20.2251 31.6548C20.6428 31.5124 21.0725 31.393 21.5126 31.3043C24.6807 30.668 27.7354 31.6325 28.9534 33.4674L20.9514 35.0767C20.2769 35.2124 19.8388 35.8754 19.9728 36.5578C20.0906 37.1573 20.6108 37.5722 21.1928 37.5722C21.2732 37.5722 21.355 37.5643 21.4369 37.5477L29.4438 35.9372C29.2841 36.766 28.8276 37.5967 28.0963 38.36C28.0943 38.362 28.0925 38.3642 28.0906 38.3662C27.7857 38.6828 27.4408 38.9776 27.0653 39.2479H16.5962C17.193 38.6524 17.7374 37.9854 18.2215 37.2524ZM56.3411 50.7457H22.386V48.4815H56.3411V50.7457Z" fill="black"/>
</svg>
