<svg width="131" height="66" viewBox="0 0 131 66" fill="none" xmlns="http://www.w3.org/2000/svg">
<g clip-path="url(#clip0)">
<path d="M0.667246 5.46274C0.667246 3.96941 1.17391 2.70941 2.18725 1.68274C3.21391 0.642744 4.55391 0.122744 6.20725 0.122744C6.94058 0.122744 7.66058 0.24941 8.36725 0.502744C9.07391 0.756077 9.66058 1.13608 10.1272 1.64274L8.98725 3.38274C8.25391 2.64941 7.37391 2.28274 6.34725 2.28274C5.42725 2.28274 4.68058 2.58941 4.10725 3.20274C3.53391 3.80274 3.24725 4.54941 3.24725 5.44274C3.24725 6.33608 3.54058 7.09608 4.12725 7.72274C4.71391 8.33608 5.48058 8.64274 6.42725 8.64274C7.53391 8.64274 8.53391 8.20941 9.42725 7.34274L10.4072 9.14274C9.92725 9.64941 9.30725 10.0561 8.54725 10.3627C7.80058 10.6561 7.02058 10.8027 6.20725 10.8027C4.55391 10.8027 3.21391 10.2961 2.18725 9.28274C1.17391 8.25608 0.667246 6.98274 0.667246 5.46274ZM12.2443 10.5627V0.362743H14.7843V4.26274H16.0243L18.5043 0.362743H21.3243L18.0843 5.22274V5.26274L21.7243 10.5627H18.7843L16.1043 6.42274H14.7843V10.5627H12.2443ZM23.2208 10.5627V0.362743H25.6408V5.82274C25.6408 6.31608 25.6208 6.72274 25.5808 7.04274H25.6208C25.6742 6.92274 25.9275 6.51608 26.3808 5.82274L30.1608 0.362743H32.6208V10.5627H30.2008V5.12274C30.2008 4.82941 30.2208 4.42274 30.2608 3.90274H30.2208C30.1808 3.99608 29.9275 4.40274 29.4608 5.12274L25.6808 10.5627H23.2208ZM38.0497 8.52274H41.8297V2.40274H39.2897V2.88274C39.2897 5.26941 38.8764 7.14941 38.0497 8.52274ZM34.2497 8.52274H35.5097C36.4164 7.18941 36.8697 5.17608 36.8697 2.48274V0.362743H44.3697V8.52274H45.8297V12.9627H43.5297V10.5627H36.6097V12.9627H34.2497V8.52274ZM47.674 10.5627V0.362743H50.214V4.26274H51.454L53.934 0.362743H56.754L53.514 5.22274V5.26274L57.154 10.5627H54.214L51.534 6.42274H50.214V10.5627H47.674ZM58.3905 12.2027C58.7639 12.4827 59.1372 12.6227 59.5105 12.6227C60.3239 12.6227 60.9172 12.1827 61.2905 11.3027L61.6705 10.4027L57.3705 0.362743H60.2305L62.3705 6.24274L62.7505 7.62274H62.7905C62.9105 7.08941 63.0239 6.64274 63.1305 6.28274L65.1305 0.362743H67.8905L63.3505 12.1027C63.0172 12.9961 62.5172 13.6627 61.8505 14.1027C61.1972 14.5427 60.4705 14.7627 59.6705 14.7627C59.3105 14.7627 58.9505 14.7094 58.5905 14.6027C58.2439 14.4961 57.9839 14.3894 57.8105 14.2827L57.5505 14.1027L58.3905 12.2027Z" fill="black"/>
<path d="M1.13065 65V60.1668H9.89785V34.5396L9.95405 32.123H9.84165C9.54191 32.685 8.90498 33.4531 7.93085 34.4272L4.22165 38.024L0.849646 34.5396L10.3474 25.3228H15.293V60.1668H24.004V65H1.13065ZM38.6802 65.6744C36.1324 65.6744 33.9219 65.1499 32.0486 64.1008C30.1752 63.0517 28.714 61.5718 27.665 59.661C26.6159 57.7502 25.8478 55.5959 25.3608 53.198C24.8737 50.8001 24.6302 48.1025 24.6302 45.1052C24.6302 42.1079 24.8737 39.429 25.3608 37.0686C25.8478 34.6707 26.6159 32.5351 27.665 30.6618C28.714 28.751 30.1752 27.2711 32.0486 26.222C33.9219 25.1729 36.1324 24.6484 38.6802 24.6484C48.0468 24.6484 52.7302 31.4673 52.7302 45.1052C52.7302 58.818 48.0468 65.6744 38.6802 65.6744ZM30.3626 45.1052C30.3626 55.4085 33.1351 60.5602 38.6802 60.5602C44.2252 60.5602 46.9978 55.4085 46.9978 45.1052C46.9978 34.8768 44.2252 29.7626 38.6802 29.7626C33.1351 29.7626 30.3626 34.8768 30.3626 45.1052ZM69.1445 65.6744C66.5968 65.6744 64.3862 65.1499 62.5129 64.1008C60.6396 63.0517 59.1784 61.5718 58.1293 59.661C57.0802 57.7502 56.3122 55.5959 55.8251 53.198C55.338 50.8001 55.0945 48.1025 55.0945 45.1052C55.0945 42.1079 55.338 39.429 55.8251 37.0686C56.3122 34.6707 57.0802 32.5351 58.1293 30.6618C59.1784 28.751 60.6396 27.2711 62.5129 26.222C64.3862 25.1729 66.5968 24.6484 69.1445 24.6484C78.5112 24.6484 83.1945 31.4673 83.1945 45.1052C83.1945 58.818 78.5112 65.6744 69.1445 65.6744ZM60.8269 45.1052C60.8269 55.4085 63.5994 60.5602 69.1445 60.5602C74.6896 60.5602 77.4621 55.4085 77.4621 45.1052C77.4621 34.8768 74.6896 29.7626 69.1445 29.7626C63.5994 29.7626 60.8269 34.8768 60.8269 45.1052Z" fill="black"/>
<path d="M106.024 39.5976C104.225 41.3211 102.052 42.1828 99.5044 42.1828C96.9567 42.1828 94.7836 41.3211 92.9852 39.5976C91.2243 37.8741 90.3438 35.776 90.3438 33.3032C90.3438 30.8679 91.2243 28.7885 92.9852 27.065C94.7836 25.3041 96.9567 24.4236 99.5044 24.4236C102.015 24.4236 104.169 25.3041 105.967 27.065C107.803 28.7885 108.721 30.8679 108.721 33.3032C108.721 35.776 107.822 37.8741 106.024 39.5976ZM91.7488 65L122.378 25.098H128.953L98.3242 65H91.7488ZM96.863 35.9446C97.5749 36.6565 98.4554 37.0124 99.5044 37.0124C100.554 37.0124 101.434 36.6565 102.146 35.9446C102.895 35.2327 103.27 34.3523 103.27 33.3032C103.27 32.2916 102.895 31.4299 102.146 30.718C101.434 29.9687 100.554 29.594 99.5044 29.594C98.4554 29.594 97.5749 29.9687 96.863 30.718C96.1512 31.4299 95.7952 32.2916 95.7952 33.3032C95.7952 34.3523 96.1512 35.2327 96.863 35.9446ZM114.791 63.0892C113.03 61.3657 112.149 59.2863 112.149 56.851C112.149 54.4157 113.03 52.3363 114.791 50.6128C116.589 48.8519 118.762 47.9714 121.31 47.9714C123.82 47.9714 125.975 48.8519 127.773 50.6128C129.571 52.3363 130.471 54.4157 130.471 56.851C130.471 59.2863 129.571 61.3657 127.773 63.0892C126.012 64.8127 123.858 65.6744 121.31 65.6744C118.762 65.6744 116.589 64.8127 114.791 63.0892ZM117.601 56.7948C117.601 57.8439 117.957 58.7243 118.669 59.4362C119.381 60.1481 120.261 60.504 121.31 60.504C122.359 60.504 123.24 60.1481 123.951 59.4362C124.701 58.7243 125.075 57.8439 125.075 56.7948C125.075 55.7832 124.701 54.9215 123.951 54.2096C123.24 53.4603 122.359 53.0856 121.31 53.0856C120.261 53.0856 119.381 53.4603 118.669 54.2096C117.957 54.9215 117.601 55.7832 117.601 56.7948Z" fill="#F57F17"/>
</g>
<defs>
<clipPath id="clip0">
<rect width="131" height="66" fill="white"/>
</clipPath>
</defs>
</svg>
