<svg width="43" height="670" viewBox="0 0 43 670" fill="none" xmlns="http://www.w3.org/2000/svg">
<path opacity="0.06" d="M41.5171 3.99997C31.7669 7.04665 28.9807 21.2355 28.9807 48.3945C28.9807 75.5534 28.9807 210.739 28.9807 269.061C28.9808 319.984 20.6242 325.207 2.51709 333.041C19.2314 339.57 28.9811 340.876 28.9807 389.187C28.9807 451.862 28.9807 604.892 28.9807 626.828C28.9807 648.764 31.7669 663.389 41.5171 666" stroke="black" stroke-width="8" stroke-linejoin="bevel"/>
</svg>
