<svg width="71" height="70" viewBox="0 0 71 70" fill="none" xmlns="http://www.w3.org/2000/svg">
<g clip-path="url(#clip0)">
<path d="M65.7453 57.2728H54.609C47.5915 57.2728 41.882 51.5634 41.882 44.5458C41.882 37.5282 47.5915 31.8188 54.609 31.8188H65.7453C66.6246 31.8188 67.3362 31.1072 67.3362 30.2279V25.4552C67.3362 22.1191 64.7485 19.406 61.4791 19.1429L52.3425 3.18439C51.4958 1.70845 50.1286 0.653545 48.4926 0.215505C46.8644 -0.219552 45.1617 0.00893904 43.7044 0.857128L12.3835 19.0916H6.88254C3.373 19.0916 0.518951 21.9455 0.518951 25.4552V63.6364C0.518951 67.146 3.37285 70 6.88254 70H60.9726C64.4822 70 67.3362 67.1461 67.3362 63.6364V58.8638C67.3362 57.9844 66.6246 57.2728 65.7453 57.2728ZM54.3155 13.0369L57.782 19.0916H43.9158L54.3155 13.0369ZM18.7072 19.0916L45.3061 3.60692C46.0254 3.18588 46.8659 3.07402 47.6692 3.28849C48.4817 3.50595 49.1591 4.03109 49.5802 4.76593L49.5834 4.77174L24.9879 19.0916H18.7072Z" fill="#FF5F00"/>
<path d="M65.7438 35.0005H54.6076C49.3439 35.0005 45.0623 39.2822 45.0623 44.5458C45.0623 49.8094 49.3439 54.0911 54.6076 54.0911H65.7438C68.3756 54.0911 70.5164 51.9503 70.5164 49.3184V39.7731C70.5164 37.1413 68.3756 35.0005 65.7438 35.0005ZM54.6076 47.7275C52.8536 47.7275 51.4259 46.2997 51.4259 44.5458C51.4259 42.7918 52.8536 41.3641 54.6076 41.3641C56.3615 41.3641 57.7893 42.7918 57.7893 44.5458C57.7894 46.2997 56.3617 47.7275 54.6076 47.7275Z" fill="#FF5F00"/>
</g>
<defs>
<clipPath id="clip0">
<rect x="0.51709" width="70" height="70" fill="white"/>
</clipPath>
</defs>
</svg>
