<?xml version="1.0" encoding="UTF-8" ?>
<!DOCTYPE svg PUBLIC "-//W3C//DTD SVG 1.1//EN" "http://www.w3.org/Graphics/SVG/1.1/DTD/svg11.dtd">
<svg width="197pt" height="256pt" viewBox="0 0 197 256" version="1.1" xmlns="http://www.w3.org/2000/svg">
<g id="#ffffffff">
</g>
<g id="#1d1d1bff">
<path fill="#1d1d1b" opacity="1.00" d=" M 30.23 0.00 L 161.15 0.00 C 161.26 65.81 161.18 131.62 161.20 197.43 C 117.42 197.43 73.65 197.44 29.87 197.43 C 29.89 135.62 29.87 73.82 29.88 12.01 C 29.91 8.01 29.63 3.98 30.23 0.00 M 39.20 9.31 C 39.17 9.97 39.10 11.28 39.06 11.94 C 39.01 70.71 39.10 129.48 39.02 188.25 C 76.68 188.28 114.34 188.28 152.00 188.25 C 152.03 128.67 151.92 69.10 152.06 9.52 C 114.44 9.24 76.82 9.66 39.20 9.31 Z" />
<path fill="#1d1d1b" opacity="1.00" d=" M 59.56 36.21 C 61.88 34.36 63.57 31.78 66.04 30.14 C 89.19 52.84 111.93 76.02 134.95 98.88 C 111.95 121.86 89.01 144.90 65.98 167.85 C 63.88 165.72 61.80 163.58 59.55 161.61 C 60.31 160.68 61.09 159.76 61.93 158.90 C 82.00 138.96 101.88 118.83 122.00 98.94 C 101.87 78.73 81.67 58.59 61.51 38.42 C 60.84 37.70 60.19 36.96 59.56 36.21 Z" />
<path fill="#1d1d1b" opacity="1.00" d=" M 29.55 233.60 C 34.29 232.24 40.15 234.03 42.52 238.57 C 45.45 243.42 44.15 250.35 39.51 253.68 C 36.31 256.32 31.86 254.83 28.08 254.93 C 21.56 252.56 19.47 243.73 23.15 238.18 C 24.69 236.00 26.92 234.22 29.55 233.60 M 29.39 237.47 C 24.27 240.15 24.12 248.28 29.06 251.24 C 33.64 254.20 40.45 250.55 40.12 245.00 C 41.05 239.33 34.42 234.64 29.39 237.47 Z" />
<path fill="#1d1d1b" opacity="1.00" d=" M 80.15 235.21 C 83.31 232.36 88.76 232.53 91.67 235.66 C 91.20 236.30 90.25 237.56 89.78 238.19 C 87.66 236.70 83.41 235.58 82.51 238.93 C 82.95 242.39 87.05 242.74 89.43 244.41 C 92.86 246.08 93.43 251.19 90.74 253.78 C 88.73 255.78 85.65 254.96 83.11 255.13 C 80.92 255.45 79.27 253.94 77.83 252.56 C 78.68 251.59 79.58 250.67 80.51 249.78 C 82.31 252.31 87.19 253.42 88.69 250.07 C 88.57 246.39 83.88 246.15 81.53 244.28 C 78.26 242.59 77.74 237.85 80.15 235.21 Z" />
<path fill="#1d1d1b" opacity="1.00" d=" M 135.28 233.53 C 139.41 233.98 144.10 232.64 147.77 235.10 C 151.37 238.49 149.89 244.60 145.74 246.88 C 147.73 249.68 150.35 252.10 151.78 255.26 C 149.87 255.20 147.38 255.67 146.41 253.51 C 144.13 251.21 143.03 246.41 139.01 247.21 C 139.04 249.90 139.05 252.59 139.05 255.28 C 137.75 255.22 136.46 255.17 135.17 255.12 C 135.34 247.92 135.14 240.72 135.28 233.53 M 139.05 237.01 C 139.05 239.23 139.03 241.45 139.01 243.67 C 141.68 244.02 146.01 243.59 145.95 240.02 C 145.76 236.46 141.55 236.96 139.05 237.01 Z" />
<path fill="#1d1d1b" opacity="1.00" d=" M 161.06 235.10 C 164.98 232.21 170.35 232.87 174.41 235.12 C 173.92 236.16 173.43 237.19 172.94 238.23 C 170.21 236.73 166.64 235.97 163.89 237.84 C 159.79 240.43 159.39 246.91 162.76 250.25 C 165.22 252.77 169.55 252.89 172.39 250.95 C 172.47 250.01 172.63 248.13 172.71 247.19 C 170.90 247.21 169.10 247.23 167.29 247.26 C 167.35 246.02 167.42 244.78 167.52 243.54 C 170.38 243.70 173.24 243.70 176.10 243.68 C 176.11 246.76 176.10 249.84 176.09 252.92 C 172.43 255.96 167.49 255.30 163.10 254.92 C 155.07 252.08 154.29 239.72 161.06 235.10 Z" />
<path fill="#1d1d1b" opacity="1.00" d=" M 0.00 233.63 C 1.31 233.64 2.61 233.66 3.92 233.68 C 3.79 237.04 3.77 240.40 3.84 243.76 C 6.82 240.56 9.54 237.15 12.25 233.72 C 13.78 233.65 15.31 233.59 16.84 233.55 C 14.06 237.10 10.90 240.33 8.08 243.85 C 11.38 247.57 14.49 251.46 17.55 255.39 C 16.04 255.39 14.54 255.32 13.04 255.20 C 9.55 251.97 7.15 247.75 3.88 244.31 C 3.82 247.97 3.82 251.63 3.91 255.30 C 2.61 255.31 1.30 255.32 0.00 255.33 L 0.00 233.63 Z" />
<path fill="#1d1d1b" opacity="1.00" d=" M 51.88 233.51 C 55.62 232.75 57.11 236.66 59.08 238.95 C 61.75 242.10 64.08 245.53 66.92 248.54 C 66.99 243.57 66.95 238.60 66.93 233.62 C 67.81 233.62 69.56 233.61 70.43 233.60 C 70.43 240.85 70.46 248.11 70.42 255.36 C 68.89 255.12 66.96 255.46 66.16 253.80 C 62.57 249.24 58.93 244.71 55.38 240.11 C 55.19 245.11 55.35 250.13 55.28 255.14 C 54.43 255.15 52.72 255.19 51.87 255.20 C 51.89 247.97 51.87 240.74 51.88 233.51 Z" />
<path fill="#1d1d1b" opacity="1.00" d=" M 100.70 233.61 C 101.62 233.61 103.48 233.61 104.41 233.61 C 104.36 240.80 104.43 247.99 104.37 255.18 C 103.46 255.16 101.63 255.13 100.71 255.11 C 100.69 247.94 100.72 240.77 100.70 233.61 Z" />
<path fill="#1d1d1b" opacity="1.00" d=" M 114.09 233.71 C 118.36 233.53 122.64 233.56 126.91 233.69 C 126.91 234.53 126.90 236.20 126.90 237.04 C 123.93 237.05 120.96 237.06 118.00 237.02 C 118.00 238.90 118.01 240.79 118.00 242.68 C 120.61 242.71 123.23 242.71 125.84 242.54 C 125.93 243.72 126.01 244.90 126.08 246.09 C 123.39 246.10 120.70 246.10 118.01 246.07 C 118.01 248.03 118.01 249.99 118.01 251.96 C 121.02 251.92 124.03 251.92 127.05 251.93 C 127.05 252.73 127.04 254.34 127.04 255.14 C 122.74 255.34 118.43 255.56 114.14 255.09 C 114.18 247.96 114.28 240.83 114.09 233.71 Z" />
<path fill="#1d1d1b" opacity="1.00" d=" M 183.98 233.63 C 188.17 233.60 192.35 233.60 196.53 233.60 C 196.53 234.46 196.53 236.19 196.53 237.06 C 193.68 237.08 190.83 237.05 187.98 236.95 C 187.89 238.85 187.77 240.74 187.66 242.63 C 190.30 242.68 192.95 242.68 195.59 242.63 C 195.62 243.51 195.66 245.26 195.68 246.14 C 193.08 246.11 190.48 246.09 187.87 246.05 C 187.87 248.01 187.85 249.98 187.85 251.95 C 190.90 251.92 193.95 251.92 197.00 251.92 L 197.00 255.28 C 192.66 255.35 188.32 255.34 183.98 255.30 C 183.98 248.07 183.98 240.85 183.98 233.63 Z" />
</g>
</svg>
