<svg width="129" height="23" viewBox="0 0 129 23" fill="none" xmlns="http://www.w3.org/2000/svg">
<g clip-path="url(#clip0)">
<path d="M3.5238 1.7429C5.17095 0.818028 7.1029 1.03236 8.91447 0.970703C9.08476 1.28193 9.16991 1.6137 9.16698 1.96603C9.14643 7.62389 9.14349 13.2788 9.16698 18.9367C8.50636 18.9455 7.84867 18.9396 7.19098 18.922C7.22622 16.6436 7.21153 14.3652 7.18804 12.0868C6.68303 12.0926 6.17803 12.1014 5.67303 12.1073C5.4998 12.442 5.3295 12.7797 5.16508 13.1232C5.02415 13.4432 4.88321 13.7633 4.74815 14.0833C4.0288 15.6805 3.2801 17.266 2.64884 18.8985C1.84142 18.9778 1.02812 18.9631 0.226562 18.8486C0.895992 18.0059 1.27475 16.9724 1.62709 15.9683L1.80912 15.9154C2.05869 15.0434 2.48442 14.2389 2.86024 13.4197C3.12155 12.9764 3.38286 12.5066 3.40048 11.9752C3.58546 11.2177 2.66352 10.974 2.21137 10.5893C2.08218 10.3104 1.95298 10.0344 1.82967 9.75844L1.61534 9.74669C1.41275 9.03322 1.26301 8.30213 1.05748 7.58866C1.02519 6.95446 1.01931 6.31733 1.01343 5.68313L1.23071 5.63615C1.24539 5.02251 1.35696 4.41767 1.60065 3.85394C2.09392 3.03184 2.73399 2.29195 3.5238 1.7429ZM4.97423 3.01716C4.87147 3.01423 4.66888 3.00835 4.56905 3.00248L4.49271 3.21388C3.20376 4.3384 2.95126 6.24393 3.23019 7.84703C3.33296 8.78659 3.8732 9.66742 4.67182 10.1754C5.46456 10.5336 6.37181 10.4014 7.22035 10.4455C7.1675 7.85584 7.25852 5.26621 7.18511 2.67657C6.46283 2.7764 5.56145 2.47692 4.97423 3.01716Z" fill="#FE0203"/>
<path d="M58.7315 1.94557C60.2817 0.492207 63.1063 0.368895 64.4657 2.1423C65.5461 3.42243 65.3788 5.1929 65.2085 6.74316C64.8503 7.87062 64.1574 8.91293 63.027 9.37977C64.1075 9.92001 65.0382 10.7568 65.5139 11.8872C65.9601 13.7663 65.7781 15.8157 64.8121 17.5157C63.391 19.6238 60.1555 19.7383 58.2705 18.2057C58.2911 17.9532 58.3145 17.7036 58.338 17.457C58.5553 17.4306 58.7755 17.41 58.9987 17.3894C59.4244 17.9444 60.1056 18.0354 60.7515 18.1382C61.9201 18.4406 63.2707 17.8563 63.8491 16.7905C64.4921 15.6865 64.542 14.3565 64.4363 13.1145C64.3218 12.125 63.9489 11.0856 63.0945 10.5043C62.2107 9.88185 61.0862 10.0228 60.0703 9.98755C60.0674 9.73211 60.0615 9.22416 60.0586 8.96872C61.1273 8.94817 62.3693 9.10965 63.1679 8.22295C64.1398 7.06613 64.3335 5.41017 64.037 3.97149C63.8256 3.14938 63.3529 2.26561 62.4809 2.01898C61.7292 1.63141 60.8836 1.93971 60.129 2.1423C59.8149 2.3948 59.5213 2.66786 59.2805 2.98789C59.1807 2.9967 58.9781 3.01432 58.8783 3.02313C58.8254 2.66492 58.7784 2.30378 58.7315 1.94557Z" fill="#020101"/>
<path d="M118.489 6.53167C118.771 6.21458 119.241 6.34376 119.617 6.2733C119.602 6.38487 119.576 6.60801 119.561 6.72252C118.257 8.37554 117.124 10.1577 115.853 11.8372C115.553 12.1191 115.785 12.5301 115.97 12.8032C117.315 14.8349 118.701 16.8432 120.001 18.9044C119.543 18.9954 118.965 19.0952 118.592 18.7635C117.227 16.6318 115.762 14.5707 114.399 12.442C114.335 14.6147 114.396 16.7904 114.367 18.9631C113.962 18.9543 113.559 18.9455 113.163 18.9337C113.184 14.785 113.213 10.6363 113.146 6.48763C113.536 6.39954 113.932 6.31147 114.332 6.22632C114.414 8.1524 114.346 10.0785 114.373 12.0046C115.427 11.1472 116.029 9.84359 116.88 8.78953C117.429 8.0467 117.931 7.27157 118.489 6.53167Z" fill="#020101"/>
<path d="M11.6598 6.34568C12.294 6.28989 12.937 6.31337 13.5741 6.30457C13.6416 8.11907 13.5536 9.93652 13.6299 11.754C14.5929 11.7452 15.556 11.7481 16.5219 11.751C16.5719 9.93652 16.5043 8.12201 16.5689 6.3075C17.162 6.31338 17.758 6.31338 18.357 6.30164C18.7563 7.87538 18.2278 9.48436 18.5038 11.0669C18.2631 13.7035 18.6712 16.3372 18.3834 18.9709C17.7639 18.9709 17.1415 18.968 16.5219 18.9621C16.5572 17.08 16.5308 15.1951 16.5454 13.3101C15.5618 13.3189 14.5812 13.3218 13.5976 13.313C13.6035 15.1951 13.5829 17.0771 13.6211 18.9591C12.9487 18.9797 12.2793 18.9797 11.6099 18.9621C11.7009 14.7576 11.5952 10.5502 11.6598 6.34568Z" fill="#020001"/>
<path d="M86.116 6.32315C86.4243 6.30847 86.7355 6.29379 87.0467 6.27911C87.079 6.92211 87.1055 7.56218 87.1495 8.20519C87.7103 7.59448 88.1155 6.79293 88.8818 6.40243C89.5982 5.95614 90.5055 6.12937 91.2718 6.36132C92.9689 7.68256 93.283 9.96097 93.3946 11.9663C93.4709 13.1731 93.2302 14.3593 93.0834 15.5513C92.6547 17.0252 91.9177 18.7399 90.2471 19.0981C89.1725 19.4475 88.1625 18.8896 87.2582 18.3758C87.2288 19.8175 87.2259 21.2591 87.2758 22.6978L87.1172 22.7124L86.9352 22.9238C86.7296 22.9297 86.3186 22.9444 86.1131 22.9503C86.0661 17.4098 86.0543 11.8636 86.116 6.32315ZM88.9699 7.28619C88.045 8.09655 87.1055 9.18291 87.2405 10.4983C87.2816 12.5594 87.1847 14.6206 87.2846 16.6788C87.5165 17.9442 88.9963 18.4316 90.1414 18.2701C91.4157 17.5185 91.9089 16.0387 92.0557 14.647C92.3141 12.5271 92.3347 10.2634 91.4538 8.27859C91.0604 7.33317 89.9095 6.82816 88.9699 7.28619Z" fill="#020001"/>
<path d="M31.8865 6.55827C33.1725 5.94462 34.9225 6.02683 35.815 7.25999C37.0276 8.91595 36.9219 11.1151 36.9807 13.0676C35.2425 13.0647 33.5014 13.0764 31.7632 13.05C31.6928 14.0776 31.8131 15.1141 32.1185 16.1006C32.4415 16.5909 32.8408 17.0284 33.2812 17.4189C34.1385 17.4394 35.037 17.4864 35.8062 17.0343C36.0705 16.8317 36.3993 16.817 36.7135 16.7788C36.7722 17.2545 36.8368 17.7272 36.9073 18.2058C35.5478 19.1717 33.7627 19.3949 32.1919 18.8517C31.5577 18.3995 30.9499 17.9004 30.5359 17.231C30.2834 16.6672 30.0662 16.0859 29.8577 15.5075C29.6346 12.4862 29.3586 8.7486 31.8865 6.55827ZM33.0639 7.75326C31.863 8.57537 31.8131 10.1814 31.7427 11.4968C32.8437 11.5027 33.9447 11.5027 35.0458 11.4733C35.0017 11.0593 34.9577 10.6453 34.9137 10.2343C34.8461 9.30351 34.6347 8.29349 33.7979 7.74444C33.5513 7.74738 33.3076 7.75032 33.0639 7.75326Z" fill="black"/>
<path d="M121.64 18.9807C121.646 14.7498 121.605 10.516 121.67 6.288C121.943 6.29975 122.486 6.32617 122.759 6.34085C122.879 9.79957 122.642 13.2759 122.879 16.7317C123.246 15.3752 123.942 14.1509 124.5 12.8707C125.416 10.7656 126.482 8.72496 127.331 6.59042C127.695 6.44361 128.067 6.31736 128.449 6.2146C128.555 10.4602 128.458 14.7087 128.493 18.9543C128.147 18.9573 127.806 18.9602 127.466 18.9631C127.419 15.4574 127.539 11.9459 127.424 8.44603C127.292 8.82185 127.151 9.19768 126.999 9.56763C126.661 10.284 126.326 11.0034 125.995 11.7227C124.938 14.1244 123.707 16.4528 122.765 18.9015C122.386 18.9308 122.01 18.9543 121.64 18.9807Z" fill="black"/>
<path d="M49.2596 6.52877C50.5661 6.05018 52.0048 6.09129 53.2908 6.61392C53.3261 7.3039 53.2879 7.99094 53.235 8.68092C52.9179 8.48714 52.6096 8.27574 52.2955 8.08489C51.9578 8.01443 51.6378 7.89699 51.3354 7.73844C50.9331 7.82652 50.5397 7.93516 50.1433 8.03205C49.8086 8.42255 49.4915 8.82479 49.195 9.24466C48.5608 11.4614 48.5755 13.8984 49.2038 16.1181C49.2801 16.2531 49.4299 16.5291 49.5033 16.6671C49.7264 16.9049 49.9466 17.1457 50.1639 17.3894C51.215 17.5685 52.3454 17.501 53.1587 16.7346C53.2996 17.2485 53.4611 17.7564 53.6079 18.2702C52.8357 18.7547 51.9784 19.1804 51.0418 19.1481C49.4768 19.2509 47.9677 18.2144 47.3951 16.7757C46.5701 15.108 46.667 13.1996 46.7286 11.3909C46.7727 9.5001 47.6124 7.55934 49.2596 6.52877Z" fill="#010001"/>
<path d="M67.8921 7.16303C69.2457 6.0297 71.2334 5.78013 72.813 6.58168C73.4942 7.22469 73.9229 8.09377 74.0021 9.03038C74.1871 12.3306 73.8289 15.6542 74.2253 18.9456C73.8935 18.9603 73.5647 18.9749 73.2388 18.9926C73.1184 18.4318 73.0009 17.871 72.9011 17.3102C72.264 18.9896 70.1529 19.7618 68.6144 18.7929C67.299 17.6625 67.1875 15.8715 67.4194 14.2713C67.531 13.9777 67.6337 13.6841 67.7336 13.3875C68.6966 11.4703 71.0308 11.3382 72.904 11.4673C72.8923 10.2753 73.042 8.99222 72.4519 7.90292C71.9381 7.13073 70.9603 7.04852 70.1236 7.15715C69.8211 7.27166 69.5217 7.38617 69.2222 7.50068C68.8287 7.81778 68.4177 8.11726 67.9978 8.39619C67.9508 7.98513 67.9185 7.57409 67.8921 7.16303ZM69.5334 12.7592C69.3279 12.9765 69.1253 13.1908 68.9197 13.4052C68.3237 14.7411 68.2298 16.4646 69.1047 17.6977C69.9004 18.6344 71.4125 18.376 72.0467 17.3865C73.3327 16.0154 72.816 14.057 72.907 12.3687C71.7795 12.3863 70.561 12.1749 69.5334 12.7592Z" fill="#010001"/>
<path d="M21.5984 9.30263C21.6689 8.29555 21.4809 7.26203 21.7452 6.27844C23.6419 6.34891 25.5416 6.30487 27.4383 6.299C27.4882 9.9838 27.453 13.6686 27.4588 17.3563C27.8141 17.3798 28.1694 17.4033 28.5276 17.4268C28.5217 18.6776 28.5246 19.9254 28.5334 21.1762C28.463 21.3641 28.325 21.737 28.2545 21.9249C28.278 21.8075 28.325 21.5696 28.3485 21.4522C27.8141 21.4669 27.2827 21.4757 26.7542 21.4815C26.7542 20.6448 26.7571 19.808 26.7336 18.9712C24.9309 18.9653 23.1252 18.9771 21.3224 18.9565C21.3253 19.7992 21.3283 20.6418 21.296 21.4815C20.7117 21.4786 20.1274 21.4786 19.5431 21.4786C19.5255 20.1192 19.5343 18.7627 19.5402 17.4033C19.734 17.4062 20.1215 17.4092 20.3153 17.4092C21.3987 14.8607 21.5044 12.0303 21.5984 9.30263ZM23.3336 7.99019C23.36 9.61972 23.3013 11.2492 23.1927 12.8729C22.9461 14.385 22.7053 15.9 22.2649 17.374C23.3777 17.4062 24.4934 17.4033 25.6062 17.3563C25.5915 14.2294 25.5827 11.1054 25.6091 7.97844C24.8516 7.96376 24.0911 7.9667 23.3336 7.99019Z" fill="#010001"/>
<path d="M95.5349 7.23908C96.8797 5.95307 99.0612 5.75047 100.653 6.69002C101.134 7.28899 101.586 7.96136 101.654 8.75117C101.936 12.1365 101.401 15.5805 101.986 18.9365C101.613 18.9541 101.246 18.9688 100.879 18.9835C100.826 18.5372 100.779 18.0909 100.741 17.6446C100.641 17.6563 100.444 17.6769 100.347 17.6886C99.5662 19.3681 97.0089 19.7821 95.8344 18.3082C94.8156 17.0045 94.8038 15.1871 95.3177 13.6721C95.3852 13.5253 95.5232 13.2258 95.5907 13.076C95.852 12.7413 96.1486 12.433 96.4627 12.1482C97.7076 11.4083 99.1639 11.4113 100.564 11.4759C100.5 10.1781 100.896 8.54563 99.804 7.57085C99.1786 6.93665 98.2332 7.10108 97.4522 7.26256C97.1322 7.42405 96.8121 7.59141 96.495 7.7617C96.2778 8.06119 96.0576 8.43406 95.6318 8.23147C95.579 7.90263 95.5584 7.57086 95.5349 7.23908ZM97.2349 12.803C96.0194 13.6691 96.0047 15.4102 96.3071 16.7227C96.5391 17.7914 97.6137 18.4755 98.6854 18.2729C99.1493 17.9323 99.6249 17.5859 99.9449 17.0985C101.005 15.7508 100.435 13.9363 100.573 12.3684C99.4605 12.4125 98.2097 12.1277 97.2349 12.803Z" fill="#010101"/>
<path d="M38.9062 6.63006C38.9826 6.53904 39.1323 6.35994 39.2087 6.26892C39.7871 6.28654 40.3684 6.32177 40.9351 6.47738C40.8969 8.24491 40.9116 10.0124 40.9292 11.78C42.2299 10.1622 42.8905 8.09224 43.9828 6.3159C44.5641 6.31296 45.1484 6.30416 45.7327 6.28361C45.6358 7.29656 44.9575 8.11279 44.5377 9.0083C44.0327 10.1064 43.2664 11.09 42.8964 12.2468C43.1195 13.2275 43.836 14.0173 44.2088 14.9451C44.843 16.005 45.3539 17.1325 45.991 18.1895C46.1026 18.4508 46.2083 18.718 46.3111 18.9881C45.6035 18.9822 44.8988 18.9646 44.1942 18.9323C43.1166 16.8976 42.1301 14.8071 40.9322 12.8399C40.8852 14.8864 40.9439 16.9328 40.9116 18.9793C40.2451 18.9675 39.5786 18.9558 38.9151 18.9235C38.9356 14.8247 38.9532 10.7259 38.9062 6.63006Z" fill="#010101"/>
<path d="M76.7737 6.30835C78.9141 6.32303 81.0575 6.31422 83.2008 6.31129C83.2742 10.5305 83.2214 14.7496 83.2272 18.9717C82.8426 18.9717 82.4609 18.9717 82.0792 18.9717C82.088 15.0961 82.0851 11.2234 82.0822 7.34773C80.6963 7.35654 79.3105 7.34479 77.9247 7.36828C77.9511 11.2263 77.8982 15.0814 77.9511 18.9394C77.5518 18.9541 77.1524 18.9717 76.759 18.9893C76.7796 14.7614 76.7385 10.5363 76.7737 6.30835Z" fill="#020000"/>
<path d="M104.373 6.59048C104.449 6.51707 104.605 6.37321 104.681 6.2998C106.064 6.34091 107.491 6.19411 108.83 6.63158C109.649 6.92519 110.16 7.65921 110.465 8.44315C110.594 9.49134 110.491 10.5718 109.872 11.4585C109.517 11.7286 109.164 12.0017 108.821 12.2865C111.786 12.9412 111.83 17.6537 109.1 18.6402C107.591 19.1716 105.926 18.9544 104.355 18.9045C104.423 14.7998 104.396 10.6951 104.373 6.59048ZM105.576 9.32692C105.62 10.2929 105.409 11.3147 105.861 12.216C106.451 11.6376 107.403 11.9753 108.154 11.8079C108.41 11.5818 108.671 11.3587 108.932 11.1356C109.023 10.9888 109.202 10.6951 109.291 10.5483C109.376 9.84367 109.37 9.13608 109.326 8.43141C109.015 8.08495 108.692 7.75317 108.354 7.43901C107.511 7.3157 106.595 7.48599 105.82 7.09255C105.456 7.7796 105.609 8.58115 105.576 9.32692ZM105.571 13.0704C105.594 14.7235 105.576 16.3765 105.576 18.0324C106.889 18.0207 108.48 18.329 109.452 17.2015C110.101 16.1328 110.019 14.8409 109.543 13.7223C108.968 13.1409 108.19 12.9178 107.397 12.859C106.883 12.7944 106.372 12.7651 105.864 12.7269C105.791 12.8121 105.644 12.9853 105.571 13.0704Z" fill="#010000"/>
</g>
<defs>
<clipPath id="clip0">
<rect x="0.226562" y="0.83374" width="128.274" height="22.1166" fill="white"/>
</clipPath>
</defs>
</svg>
