<svg width="119" height="117" viewBox="0 0 119 117" fill="none" xmlns="http://www.w3.org/2000/svg">
<path d="M59.3682 36.9783C69.0763 36.9783 76.9463 29.1712 76.9463 19.5408C76.9463 9.91031 69.0763 2.10327 59.3682 2.10327C49.66 2.10327 41.79 9.91031 41.79 19.5408C41.79 29.1712 49.66 36.9783 59.3682 36.9783Z" fill="#FBFBF9"/>
<path d="M59.3682 36.9783C54.7062 36.9783 50.2351 35.1411 46.9386 31.8709C43.642 28.6008 41.79 24.1655 41.79 19.5408C41.79 14.9161 43.642 10.4808 46.9386 7.2106C50.2351 3.94043 54.7062 2.10327 59.3682 2.10327V36.9783Z" fill="#BCE1FF"/>
<path d="M106.243 98.9783H76.9463V83.4783L69.1338 81.5408V98.9783H49.6025V75.7283L41.79 73.7908V98.9783H10.54C9.50404 98.9783 8.51047 99.3865 7.7779 100.113C7.04534 100.84 6.63379 101.826 6.63379 102.853V114.478H14.4463V106.728H102.337V114.478H110.149V102.853C110.149 101.826 109.738 100.84 109.005 100.113C108.273 99.3865 107.279 98.9783 106.243 98.9783Z" fill="#009CF7"/>
<path d="M41.79 73.7908V79.6033L49.6025 81.5408V75.7283L41.79 73.7908Z" fill="#0962B2"/>
<path d="M69.1338 81.5408V86.1423L76.9463 88.322V83.4783L69.1338 81.5408Z" fill="#0962B2"/>
<path d="M30.0713 46.666L37.2349 43.1129C38.6307 42.4203 40.1802 42.0883 41.7397 42.1476C43.2993 42.2069 44.8186 42.6555 46.157 43.4519L71.0869 58.291L61.3213 60.2285L30.0713 46.666Z" fill="#C7463B"/>
<path d="M94.2487 43.11L88.2756 43.117L89.7661 39.2984L84.7588 35.0408L86.7119 33.1033V29.2283H88.1911C89.7451 29.2283 91.2354 28.6159 92.3342 27.5259L94.5244 25.3533L102.337 36.9783L94.7685 43.033L94.2487 43.11Z" fill="#F5D3BD"/>
<path d="M96.4775 38.9158L90.5744 39.8918L89.7661 39.2984L88.4209 42.7908L95.7509 44.3628L98.1228 40.3495L98.9096 39.7201L96.4775 38.9158Z" fill="#E8C8B3"/>
<path d="M102.337 36.9783L99.4072 39.158L96.4775 38.1892L89.7661 39.2984L84.7588 35.0408L85.435 34.3699L96.4775 32.3767L99.7978 33.2001L102.337 36.9783Z" fill="#E8C8B3"/>
<path d="M82.8056 52.4783L73.04 56.3533L80.8525 66.0408L88.665 62.1658L82.8056 52.4783Z" fill="#F5D3BD"/>
<path d="M35.9307 56.3534L52.261 71.0803C55.5775 74.0711 59.8986 75.7283 64.3806 75.7284C67.0827 75.7282 69.7501 75.1252 72.1854 73.964C74.6207 72.8027 76.7616 71.1129 78.4495 69.0198L80.8525 66.0409L73.04 56.3534L61.3213 60.2284L39.2676 46.7654C38.2113 46.1206 37.0357 45.6916 35.8099 45.5037C34.5842 45.3157 33.3329 45.3726 32.1296 45.671C30.8667 45.9842 29.684 46.5567 28.6579 47.3515C27.6319 48.1463 26.7852 49.1457 26.1726 50.2851L12.4932 75.7284L18.3525 79.6034L35.9307 56.3534Z" fill="#DC4D41"/>
<path d="M2.72754 79.6031L12.4932 87.3531L18.3525 79.6031L12.4932 75.2437C10.7783 74.8183 8.9728 74.9294 7.32408 75.5617C5.67535 76.194 4.26408 77.3167 3.28369 78.7758L2.72754 79.6031Z" fill="#BCE1FF"/>
<path d="M8.58691 75.7283C11.823 75.7283 14.4463 73.1259 14.4463 69.9158C14.4463 66.7056 11.823 64.1033 8.58691 64.1033C5.35087 64.1033 2.72754 66.7056 2.72754 69.9158C2.72754 73.1259 5.35087 75.7283 8.58691 75.7283Z" fill="#009CF7"/>
<path d="M8.58689 77.6658C7.04172 77.6658 5.53125 77.2113 4.24649 76.3597C2.96174 75.5081 1.96039 74.2977 1.36908 72.8816C0.777769 71.4655 0.623055 69.9072 0.924502 68.4038C1.22595 66.9005 1.97002 65.5196 3.06262 64.4357C4.15521 63.3518 5.54727 62.6137 7.06274 62.3147C8.57822 62.0157 10.1491 62.1691 11.5766 62.7557C13.0041 63.3423 14.2243 64.3356 15.0827 65.6101C15.9412 66.8846 16.3994 68.383 16.3994 69.9158C16.3971 71.9705 15.5732 73.9404 14.1086 75.3933C12.644 76.8462 10.6582 77.6635 8.58689 77.6658ZM8.58689 66.0408C7.8143 66.0408 7.05907 66.268 6.41669 66.6938C5.77431 67.1196 5.27364 67.7248 4.97798 68.4329C4.68233 69.1409 4.60497 69.9201 4.75569 70.6718C4.90642 71.4234 5.27845 72.1139 5.82475 72.6558C6.37105 73.1978 7.06708 73.5668 7.82482 73.7163C8.58255 73.8658 9.36797 73.7891 10.0817 73.4958C10.7955 73.2025 11.4056 72.7059 11.8348 72.0686C12.264 71.4314 12.4931 70.6822 12.4931 69.9158C12.4919 68.8884 12.08 67.9035 11.3477 67.1771C10.6154 66.4506 9.62251 66.042 8.58689 66.0408Z" fill="#007AF6"/>
<path d="M35.9307 73.7908L101.534 90.0604C102.093 90.199 102.676 90.2094 103.24 90.0909C103.803 89.9724 104.332 89.7281 104.786 89.3765C105.24 89.0249 105.607 88.5753 105.859 88.0619C106.112 87.5484 106.243 86.9846 106.243 86.4133C106.243 85.575 105.961 84.7607 105.44 84.0999C104.92 83.4391 104.192 82.9698 103.373 82.7665L35.9307 66.0408V73.7908Z" fill="#0A71CD"/>
<path d="M108.577 36.9746C109.704 36.4381 110.988 36.3232 112.194 36.6511C113.399 36.979 114.444 37.7276 115.138 38.7592L115.344 39.0666C115.753 39.6754 116.004 40.3753 116.073 41.1038C116.143 41.8323 116.029 42.5665 115.743 43.2407C113.72 47.9974 113.184 53.2472 114.205 58.3096L114.593 60.2282L111.778 58.553C109.658 57.2912 107.904 55.5064 106.686 53.3723C105.468 51.2382 104.827 48.8275 104.827 46.3751V44.7621C104.827 42.2394 105.735 39.7996 107.388 37.8823C107.716 37.5009 108.121 37.1917 108.577 36.9746Z" fill="#6E3F0D"/>
<path d="M59.3681 38.9158C55.5052 38.9158 51.729 37.7795 48.5171 35.6505C45.3052 33.5215 42.8019 30.4956 41.3236 26.9553C39.8453 23.415 39.4585 19.5193 40.2121 15.7609C40.9658 12.0025 42.8259 8.55023 45.5574 5.84059C48.2889 3.13094 51.7691 1.28565 55.5578 0.538065C59.3464 -0.209523 63.2735 0.174166 66.8424 1.64061C70.4113 3.10706 73.4616 5.5904 75.6077 8.77661C77.7539 11.9628 78.8993 15.7088 78.8993 19.5408C78.8935 24.6776 76.8338 29.6023 73.1723 33.2345C69.5107 36.8668 64.5463 38.9099 59.3681 38.9158ZM59.3681 4.04078C56.2778 4.04078 53.2568 4.94984 50.6873 6.653C48.1178 8.35616 46.1151 10.7769 44.9325 13.6092C43.7499 16.4414 43.4404 19.558 44.0433 22.5647C44.6462 25.5714 46.1344 28.3332 48.3196 30.5009C50.5048 32.6687 53.2889 34.1449 56.3198 34.743C59.3508 35.341 62.4924 35.0341 65.3475 33.8609C68.2026 32.6878 70.6429 30.7011 72.3598 28.1521C74.0767 25.6032 74.9931 22.6064 74.9931 19.5408C74.9884 15.4313 73.3408 11.4915 70.4115 8.58572C67.4823 5.67991 63.5107 4.0454 59.3681 4.04078Z" fill="#009CF7"/>
<path d="M51.5571 25.3533C51.1169 25.3538 50.6894 25.2067 50.3439 24.936C49.9985 24.6652 49.7554 24.2866 49.6541 23.8616C49.5528 23.4366 49.5992 22.9901 49.7858 22.5945C49.9724 22.199 50.2883 21.8776 50.6821 21.6824L57.415 18.3434V7.91577C57.415 7.40191 57.6208 6.9091 57.9871 6.54575C58.3534 6.1824 58.8502 5.97827 59.3682 5.97827C59.8862 5.97827 60.3829 6.1824 60.7492 6.54575C61.1155 6.9091 61.3213 7.40191 61.3213 7.91577V19.5408C61.3213 19.9006 61.2203 20.2532 61.0296 20.5593C60.8389 20.8654 60.5661 21.1127 60.2417 21.2736L52.4292 25.1486C52.1585 25.2832 51.8599 25.3532 51.5571 25.3533Z" fill="#009CF7"/>
<path d="M59.3682 23.4158C61.5255 23.4158 63.2744 21.6809 63.2744 19.5408C63.2744 17.4007 61.5255 15.6658 59.3682 15.6658C57.2108 15.6658 55.4619 17.4007 55.4619 19.5408C55.4619 21.6809 57.2108 23.4158 59.3682 23.4158Z" fill="#009CF7"/>
<path d="M20.3057 46.6658C19.7877 46.6658 19.2909 46.4616 18.9246 46.0983C18.5583 45.7349 18.3525 45.2421 18.3525 44.7283C18.3549 42.6736 19.1787 40.7036 20.6433 39.2507C22.108 37.7978 24.0937 36.9806 26.165 36.9783C26.683 36.9783 27.1798 37.1824 27.5461 37.5458C27.9124 37.9091 28.1182 38.4019 28.1182 38.9158C28.1182 39.4296 27.9124 39.9224 27.5461 40.2858C27.1798 40.6491 26.683 40.8533 26.165 40.8533C25.1294 40.8545 24.1366 41.2631 23.4043 41.9896C22.672 42.716 22.26 43.7009 22.2588 44.7283C22.2588 45.2421 22.053 45.7349 21.6867 46.0983C21.3204 46.4616 20.8237 46.6658 20.3057 46.6658Z" fill="#FBEDBF"/>
<path d="M14.4463 40.8533C13.9283 40.8533 13.4315 40.6491 13.0652 40.2858C12.6989 39.9224 12.4932 39.4296 12.4932 38.9158C12.4955 36.8611 13.3193 34.8911 14.784 33.4382C16.2486 31.9853 18.2344 31.1681 20.3057 31.1658C20.8237 31.1658 21.3205 31.3699 21.6867 31.7333C22.053 32.0966 22.2588 32.5894 22.2588 33.1033C22.2588 33.6171 22.053 34.1099 21.6867 34.4733C21.3205 34.8366 20.8237 35.0408 20.3057 35.0408C19.27 35.042 18.2772 35.4506 17.5449 36.1771C16.8126 36.9035 16.4006 37.8884 16.3994 38.9158C16.3994 39.4296 16.1936 39.9224 15.8274 40.2858C15.4611 40.6491 14.9643 40.8533 14.4463 40.8533Z" fill="#FBEDBF"/>
<path d="M96.4775 69.9158C95.9595 69.9158 95.4628 69.7116 95.0965 69.3483C94.7302 68.9849 94.5244 68.4921 94.5244 67.9783C94.5244 67.4644 94.7302 66.9716 95.0965 66.6082C95.4628 66.2449 95.9595 66.0408 96.4775 66.0408C97.5132 66.0395 98.506 65.6309 99.2383 64.9045C99.9706 64.178 100.383 63.1931 100.384 62.1658C100.384 61.6519 100.59 61.1591 100.956 60.7958C101.322 60.4324 101.819 60.2283 102.337 60.2283C102.855 60.2283 103.352 60.4324 103.718 60.7958C104.084 61.1591 104.29 61.6519 104.29 62.1658C104.288 64.2205 103.464 66.1904 101.999 67.6433C100.535 69.0962 98.5488 69.9135 96.4775 69.9158Z" fill="#FBEDBF"/>
<path d="M102.337 75.7283C101.819 75.7283 101.322 75.5241 100.956 75.1608C100.59 74.7974 100.384 74.3046 100.384 73.7908C100.384 73.2769 100.59 72.7841 100.956 72.4208C101.322 72.0574 101.819 71.8533 102.337 71.8533C103.373 71.8521 104.365 71.4434 105.098 70.717C105.83 69.9905 106.242 69.0056 106.243 67.9783C106.243 67.4644 106.449 66.9716 106.815 66.6083C107.182 66.2449 107.678 66.0408 108.196 66.0408C108.714 66.0408 109.211 66.2449 109.577 66.6083C109.944 66.9716 110.149 67.4644 110.149 67.9783C110.147 70.033 109.323 72.0029 107.859 73.4558C106.394 74.9087 104.408 75.726 102.337 75.7283Z" fill="#FBEDBF"/>
<path d="M102.337 36.9783L94.5244 25.3533C95.2125 24.6707 96.0501 24.1546 96.972 23.8454C97.8938 23.5361 98.8752 23.4418 99.8398 23.57C100.804 23.6981 101.726 24.0452 102.533 24.5842C103.341 25.1232 104.012 25.8396 104.495 26.6778L106.054 29.384C107.435 31.7821 107.895 34.5951 107.349 37.3035C107.005 39.013 106.271 40.6217 105.204 42.0068C104.137 43.3919 102.765 44.5169 101.192 45.2957L101.081 45.3512C100.266 45.7546 99.3636 45.9508 98.4539 45.922C97.5441 45.8933 96.6559 45.6405 95.8691 45.1865C95.6232 45.0446 95.4157 44.8455 95.2645 44.6064C95.1134 44.3673 95.0231 44.0953 95.0015 43.8139C94.9799 43.5325 95.0275 43.2501 95.1404 42.991C95.2533 42.7319 95.428 42.504 95.6494 42.3267L102.337 36.9783Z" fill="#6E3F0D"/>
<path d="M102.337 36.9783L99.4072 39.158L96.4775 38.1892L89.7661 39.2984L84.7588 35.0408L85.435 34.3699L96.4775 32.3767L99.7978 33.2001L102.337 36.9783Z" fill="#E8C8B3"/>
<path d="M88.665 62.1658L94.6086 59.2176C95.8376 58.6081 96.9066 57.7231 97.7312 56.6328C100.493 53.0622 100.631 47.8622 96.9089 45.1562C95.5327 43.791 93.6886 42.9901 91.7439 42.9128L88.665 42.7908L87.6809 43.4415C86.1812 44.4334 84.9516 45.7771 84.1011 47.3535C83.2506 48.93 82.8057 50.6903 82.8056 52.4783L88.665 62.1658Z" fill="#DC4D41"/>
<path d="M89.373 41.7685L84.7588 40.8533L96.4775 38.9158L102.337 40.8533L104.29 35.0408L96.4775 33.1033L79.4035 36.1829C78.166 36.4061 77.0466 37.0531 76.2406 38.0111C75.4346 38.9691 74.9931 40.1773 74.9931 41.4251V41.7116C74.9931 42.6317 75.2333 43.5361 75.6903 44.3368C76.1473 45.1374 76.8055 45.8071 77.6008 46.2804L84.7588 48.6033L87.3161 49.449C88.2326 49.7519 89.2284 49.7168 90.1208 49.3501C91.0133 48.9834 91.7425 48.3097 92.1745 47.4526C92.4505 46.9052 92.5955 46.302 92.5983 45.6899C92.601 45.0778 92.4615 44.4733 92.1904 43.9235C91.9194 43.3736 91.5242 42.8931 91.0356 42.5194C90.547 42.1456 89.978 41.8887 89.373 41.7685Z" fill="#F5D3BD"/>
<path d="M33.9775 75.7283C37.2136 75.7283 39.8369 73.1259 39.8369 69.9158C39.8369 66.7056 37.2136 64.1033 33.9775 64.1033C30.7415 64.1033 28.1182 66.7056 28.1182 69.9158C28.1182 73.1259 30.7415 75.7283 33.9775 75.7283Z" fill="#009CF7"/>
<path d="M33.9775 77.6658C32.4323 77.6658 30.9219 77.2113 29.6371 76.3597C28.3524 75.5081 27.351 74.2977 26.7597 72.8816C26.1684 71.4655 26.0137 69.9072 26.3151 68.4038C26.6166 66.9005 27.3606 65.5196 28.4532 64.4357C29.5458 63.3518 30.9379 62.6137 32.4534 62.3147C33.9688 62.0157 35.5397 62.1691 36.9672 62.7557C38.3948 63.3423 39.6149 64.3356 40.4734 65.6101C41.3318 66.8846 41.79 68.383 41.79 69.9158C41.7877 71.9705 40.9638 73.9404 39.4992 75.3933C38.0346 76.8462 36.0488 77.6635 33.9775 77.6658ZM33.9775 66.0408C33.2049 66.0408 32.4497 66.268 31.8073 66.6938C31.1649 67.1196 30.6643 67.7248 30.3686 68.4329C30.073 69.1409 29.9956 69.9201 30.1463 70.6718C30.297 71.4234 30.6691 72.1139 31.2154 72.6558C31.7617 73.1978 32.4577 73.5668 33.2154 73.7163C33.9732 73.8658 34.7586 73.7891 35.4724 73.4958C36.1861 73.2025 36.7962 72.7059 37.2254 72.0686C37.6547 71.4314 37.8838 70.6822 37.8838 69.9158C37.8825 68.8884 37.4706 67.9035 36.7383 67.1771C36.006 66.4506 35.0131 66.042 33.9775 66.0408Z" fill="#007AF6"/>
<path d="M109.522 34.7412C109.469 32.5218 108.86 30.3503 107.749 28.4227L106.191 25.7165C105.562 24.6249 104.689 23.6909 103.639 22.9866C102.589 22.2823 101.391 21.8265 100.135 21.6543C98.8798 21.4821 97.6013 21.5981 96.3981 21.9933C95.195 22.3886 94.0994 23.0525 93.1958 23.934L93.1589 23.9684L93.1433 23.9832L90.9533 26.1556C90.5915 26.5167 90.161 26.8029 89.6869 26.9977C89.2127 27.1926 88.7043 27.2922 88.1911 27.2908H86.7119C86.1939 27.2908 85.6971 27.4949 85.3308 27.8582C84.9645 28.2216 84.7588 28.7144 84.7588 29.2283V32.3009L83.592 33.4581L79.0542 34.2767C77.3663 34.5803 75.8395 35.4623 74.7403 36.7688C73.6411 38.0752 73.0393 39.7231 73.04 41.4248V41.7116C73.0436 42.9655 73.3727 44.1975 73.9955 45.2887C74.6183 46.3799 75.5139 47.2936 76.5959 47.9418C76.7214 48.0162 76.8548 48.0765 76.9936 48.1218L81.2097 49.4902C81.0776 50.0328 80.9817 50.5835 80.9226 51.1387L69.9265 55.3404L47.1611 41.791C45.5429 40.822 43.7033 40.276 41.8145 40.2039C39.9256 40.1319 38.0493 40.5363 36.3608 41.3793L31.302 43.8884C29.8473 44.3 28.4909 44.9977 27.3135 45.9398C26.136 46.882 25.1616 48.0494 24.4482 49.3727L15.4209 66.1657C14.8709 65.1775 14.1098 64.3205 13.191 63.6546C12.2722 62.9887 11.2177 62.53 10.1015 62.3107C8.98527 62.0914 7.8342 62.1167 6.72886 62.3848C5.62352 62.653 4.5906 63.1575 3.70239 63.8631C2.81419 64.5687 2.09216 65.4584 1.58683 66.4698C1.0815 67.4812 0.805076 68.5899 0.776912 69.7184C0.748748 70.8469 0.96952 71.9678 1.42378 73.0028C1.87804 74.0377 2.5548 74.9617 3.40672 75.7101C2.74143 76.2978 2.15398 76.9668 1.65843 77.7011L1.10252 78.5284C0.831326 78.9317 0.7224 79.4212 0.797249 79.9003C0.872098 80.3794 1.12528 80.8133 1.50682 81.1162L11.2724 88.8662C11.6189 89.1412 12.0494 89.2909 12.4931 89.2907C12.5753 89.2907 12.6574 89.2856 12.739 89.2755C12.9986 89.2428 13.2489 89.1587 13.4751 89.0282C13.7012 88.8977 13.8987 88.7234 14.0556 88.5157L26.4785 72.0843C26.8203 73.2508 27.434 74.3211 28.27 75.2087C29.106 76.0964 30.1407 76.7765 31.2907 77.194C32.4406 77.6115 33.6735 77.7548 34.8896 77.6122C36.1057 77.4696 37.2709 77.0452 38.291 76.3732L39.8369 76.7566V97.0407H10.54C8.98655 97.0425 7.49721 97.6554 6.39875 98.7451C5.30028 99.8348 4.68239 101.312 4.68065 102.853V114.478C4.68065 114.992 4.88642 115.485 5.2527 115.848C5.61899 116.212 6.11577 116.416 6.63377 116.416H14.4463C14.9643 116.416 15.4611 116.212 15.8273 115.848C16.1936 115.485 16.3994 114.992 16.3994 114.478V108.666H100.384V114.478C100.384 114.992 100.59 115.485 100.956 115.848C101.322 116.212 101.819 116.416 102.337 116.416H110.149C110.667 116.416 111.164 116.212 111.53 115.848C111.897 115.485 112.103 114.992 112.103 114.478V102.853C112.101 101.312 111.483 99.8348 110.384 98.7451C109.286 97.6554 107.797 97.0425 106.243 97.0407H78.8994V86.4441L101.061 91.94C101.52 92.0546 101.992 92.1126 102.466 92.1127C103.867 92.1092 105.218 91.5983 106.265 90.676C107.313 89.7536 107.984 88.4835 108.154 87.1044C108.323 85.7253 107.979 84.3322 107.186 83.1872C106.393 82.0422 105.205 81.2241 103.846 80.8868L75.9824 73.9765C77.4801 72.9159 78.8232 71.6554 79.9736 70.2306L82.1086 67.5832L95.4809 60.9502C97.8583 59.7725 99.7135 57.7656 100.691 55.3143C101.668 52.8631 101.699 50.1401 100.777 47.6679L102.064 47.03C102.341 46.8925 102.611 46.7437 102.876 46.5897C102.92 49.3383 103.668 52.0306 105.049 54.4138C106.43 56.797 108.399 58.7929 110.771 60.2142L113.586 61.8892C113.91 62.0823 114.284 62.1778 114.662 62.164C115.041 62.1503 115.407 62.0278 115.716 61.8116C116.025 61.5954 116.264 61.2948 116.405 60.9462C116.545 60.5976 116.58 60.2161 116.506 59.848L116.119 57.9294C115.169 53.248 115.665 48.3913 117.541 43.9937C117.955 43.0246 118.119 41.9686 118.019 40.9208C117.919 39.8731 117.558 38.8665 116.968 37.9916C116.164 36.8065 115.038 35.872 113.719 35.2967C112.401 34.7213 110.946 34.5287 109.522 34.7412ZM88.665 31.1517C90.571 31.0422 92.3692 30.239 93.7153 28.896L93.9839 28.6296L95.3398 31.3389L88.665 32.5431V31.1517ZM78.4414 44.5144C77.9819 44.2023 77.6058 43.7842 77.3453 43.2959C77.0849 42.8077 76.9479 42.264 76.9463 41.7116V41.4248C76.946 40.6306 77.227 39.8615 77.7401 39.2518C78.2533 38.6421 78.966 38.2306 79.7539 38.0892L96.4316 35.081L100.323 35.9717L99.7915 37.6278L96.8808 37.0199C96.6428 36.9704 96.3975 36.9651 96.1574 37.0044L84.4387 38.9419C83.9878 39.0163 83.5775 39.2451 83.2792 39.5886C82.9809 39.9322 82.8135 40.3686 82.8061 40.8219C82.7987 41.2753 82.9518 41.7168 83.2388 42.0697C83.5258 42.4226 83.9285 42.6645 84.3767 42.7532L88.9909 43.6684C89.3015 43.73 89.5936 43.8619 89.8445 44.0537C90.0954 44.2455 90.2983 44.4921 90.4375 44.7744C90.5767 45.0567 90.6483 45.367 90.6469 45.6812C90.6455 45.9954 90.5711 46.3051 90.4294 46.5861C90.2061 47.0246 89.8317 47.3691 89.3741 47.5571C88.9166 47.7451 88.4062 47.7642 87.9358 47.6108L85.3659 46.7626L78.4414 44.5144ZM45.1521 45.1141L65.0454 56.9544L61.5686 58.104L40.2912 45.1158C39.8889 44.8717 39.4713 44.6533 39.041 44.4619C40.046 44.1221 41.1137 44.0044 42.1693 44.117C43.2249 44.2297 44.243 44.57 45.1521 45.1141ZM8.5869 66.0408C9.35948 66.0408 10.1147 66.268 10.7571 66.6938C11.3995 67.1196 11.9001 67.7248 12.1958 68.4329C12.4915 69.1409 12.5688 69.9201 12.4181 70.6717C12.2674 71.4234 11.8953 72.1139 11.349 72.6558C10.8027 73.1977 10.1067 73.5668 9.34897 73.7163C8.59123 73.8658 7.80581 73.7891 7.09204 73.4958C6.37826 73.2025 5.76819 72.7058 5.33897 72.0686C4.90974 71.4314 4.68065 70.6822 4.68065 69.9158C4.68187 68.8884 5.09382 67.9035 5.82612 67.1771C6.55841 66.4506 7.55127 66.042 8.5869 66.0408ZM12.1396 84.5923L5.38206 79.2286C5.97248 78.542 6.70026 77.9846 7.51927 77.5916C7.87303 77.6404 8.22974 77.6651 8.5869 77.6658C9.48921 77.6664 10.3847 77.5112 11.2334 77.2071C11.2895 77.2548 11.3484 77.2992 11.4096 77.3403L15.5513 80.0792L12.1396 84.5923ZM33.9775 73.7908C33.2049 73.7908 32.4497 73.5635 31.8073 73.1377C31.1649 72.7119 30.6643 72.1067 30.3686 71.3987C30.073 70.6906 29.9956 69.9115 30.1463 69.1598C30.297 68.4081 30.6691 67.7176 31.2154 67.1757C31.7617 66.6338 32.4577 66.2647 33.2155 66.1152C33.9732 65.9657 34.7586 66.0424 35.4724 66.3357C36.1861 66.629 36.7962 67.1257 37.2254 67.7629C37.6547 68.4002 37.8838 69.1494 37.8838 69.9158C37.8825 70.9431 37.4706 71.928 36.7383 72.6545C36.006 73.3809 35.0131 73.7895 33.9775 73.7908ZM33.9775 62.1658L36.2053 59.2193L43.688 65.9681L40.0679 65.0703C39.3372 64.1641 38.4105 63.4325 37.3562 62.9298C36.302 62.427 35.1473 62.1659 33.9775 62.1658ZM12.4931 112.541H8.5869V108.666H12.4931V112.541ZM108.196 112.541H104.29V108.666H108.196V112.541ZM106.243 100.916C106.761 100.916 107.257 101.121 107.624 101.484C107.99 101.847 108.196 102.34 108.196 102.853V104.791H8.5869V102.853C8.58748 102.34 8.79344 101.847 9.1596 101.484C9.52575 101.121 10.0222 100.916 10.54 100.916H106.243ZM43.7431 97.0407V77.7253L47.6494 78.6941V97.0407H43.7431ZM51.5556 97.0407V79.6628L67.1806 83.5378V97.0407H51.5556ZM71.0869 97.0407V84.5066L74.9931 85.4753V97.0407H71.0869ZM102.898 84.6458C103.371 84.763 103.777 85.0617 104.028 85.4761C104.279 85.8905 104.353 86.3868 104.235 86.8557C104.117 87.3246 103.816 87.7277 103.398 87.9764C102.98 88.2251 102.48 88.299 102.008 88.1818L41.1076 73.0775C41.558 72.0833 41.7906 71.0057 41.79 69.9158C41.79 69.7721 41.7854 69.6295 41.7776 69.4878L50.2661 71.5931L50.2937 71.5999L102.898 84.6458ZM76.9243 67.8102C75.2599 69.8706 73.107 71.49 70.6579 72.5239C70.5961 72.5499 70.5356 72.579 70.4768 72.6111L51.698 67.954L37.2449 54.9195C37.0436 54.7379 36.8063 54.6001 36.5482 54.5148C36.2901 54.4295 36.0169 54.3986 35.746 54.4242C35.4752 54.4497 35.2127 54.5311 34.9755 54.6631C34.7382 54.7951 34.5313 54.9748 34.3681 55.1908L17.9619 76.8908L15.1904 74.8285L27.8955 51.1968C28.3681 50.3176 29.0173 49.5437 29.8029 48.9228C30.5885 48.3019 31.494 47.8472 32.4635 47.5866C33.433 47.326 34.446 47.2652 35.4401 47.4077C36.4343 47.5503 37.3885 47.8933 38.2439 48.4156L60.2976 61.8783C60.5407 62.0267 60.8136 62.1205 61.0972 62.153C61.3808 62.1855 61.6681 62.156 61.9389 62.0665L72.3654 58.6187L78.3513 66.0408L76.9243 67.8102ZM81.3921 63.6073L76.2104 57.1823L81.9873 54.89L85.9057 61.3685L81.3921 63.6073ZM96.1692 55.4698C95.5259 56.3187 94.6931 57.0083 93.7361 57.4843L89.4099 59.6298L84.7756 51.9675C84.7994 51.5431 84.854 51.121 84.9389 50.7045L86.6994 51.2857C87.301 51.4847 87.931 51.586 88.5652 51.5858C89.3598 51.5886 90.147 51.434 90.8807 51.1309C91.6143 50.8279 92.2795 50.3826 92.8373 49.8212C93.3951 49.2597 93.8343 48.5934 94.1291 47.8613C94.4239 47.1293 94.5683 46.3462 94.5539 45.558L95.5285 46.5251C96.6966 47.6934 97.4035 49.2386 97.5209 50.8799C97.6384 52.5213 97.1585 54.15 96.1684 55.4702L96.1692 55.4698ZM105.435 36.9233C105.153 38.3451 104.545 39.6836 103.658 40.8349C102.771 41.9863 101.629 42.9197 100.32 43.5629L98.7905 44.3211C98.6303 44.1388 98.4653 43.9579 98.2907 43.7859L96.4048 41.9148L97.1875 41.0429L100.715 41.7794C101.188 41.8784 101.682 41.7994 102.1 41.5578C102.518 41.3161 102.831 40.9291 102.978 40.4716L104.687 35.1435C104.769 34.8884 104.797 34.6192 104.768 34.353C104.74 34.0867 104.657 33.8292 104.523 33.5966C104.389 33.364 104.209 33.1615 103.992 33.0016C103.776 32.8418 103.528 32.7282 103.265 32.6681L99.9919 31.9187L96.9951 25.9328C97.9979 25.421 99.1611 25.3127 100.242 25.6306C101.324 25.9484 102.24 26.6679 102.799 27.639L104.358 30.345C105.506 32.3371 105.888 34.6738 105.434 36.9238L105.435 36.9233ZM113.944 42.4873C112.082 46.8511 111.384 51.6172 111.919 56.3261C110.333 55.1861 109.041 53.6905 108.148 51.9613C107.255 50.2321 106.786 48.318 106.78 46.3751V45.5241C106.78 44.6374 106.891 43.7542 107.111 42.8947C107.13 42.8149 107.145 42.734 107.155 42.6525C107.939 41.5174 108.542 40.2686 108.941 38.9504L109.088 38.8806C109.884 38.5055 110.79 38.4263 111.64 38.6574C112.49 38.8885 113.228 39.4146 113.72 40.14C113.951 40.4823 114.092 40.8761 114.131 41.286C114.17 41.6958 114.105 42.1088 113.943 42.4878L113.944 42.4873Z" fill="black"/>
<path d="M39.8369 19.5408C39.8369 23.3728 40.9824 27.1187 43.1285 30.3049C45.2746 33.4911 48.325 35.9745 51.8939 37.4409C55.4627 38.9074 59.3898 39.2911 63.1785 38.5435C66.9672 37.7959 70.4473 35.9506 73.1788 33.241C75.9103 30.5313 77.7705 27.079 78.5241 23.3206C79.2777 19.5623 78.8909 15.6666 77.4127 12.1263C75.9344 8.58596 73.431 5.56 70.2191 3.43105C67.0072 1.3021 63.2311 0.165771 59.3682 0.165771C54.19 0.171605 49.2255 2.21477 45.564 5.84702C41.9024 9.47927 39.8428 14.404 39.8369 19.5408ZM74.9932 19.5408C74.9932 22.6064 74.0768 25.6031 72.3599 28.1521C70.643 30.7011 68.2027 32.6877 65.3476 33.8609C62.4925 35.0341 59.3508 35.341 56.3199 34.7429C53.2889 34.1449 50.5048 32.6686 48.3196 30.5009C46.1344 28.3332 44.6463 25.5714 44.0434 22.5647C43.4405 19.558 43.7499 16.4414 44.9325 13.6092C46.1152 10.7769 48.1179 8.35615 50.6874 6.65299C53.2569 4.94983 56.2778 4.04077 59.3682 4.04077C63.5107 4.04539 67.4823 5.6799 70.4116 8.58571C73.3408 11.4915 74.9885 15.4313 74.9932 19.5408Z" fill="black"/>
<path d="M57.415 7.91577V16.1884C56.8569 16.5084 56.3875 16.9607 56.0487 17.5048C55.71 18.0489 55.5125 18.6678 55.4739 19.3061L50.6821 21.6829C50.4507 21.7955 50.244 21.9524 50.074 22.1446C49.904 22.3368 49.774 22.5605 49.6915 22.8028C49.6091 23.045 49.5758 23.3011 49.5936 23.5562C49.6113 23.8113 49.6799 24.0604 49.7951 24.2891C49.9104 24.5178 50.0702 24.7216 50.2653 24.8888C50.4604 25.0559 50.6869 25.1831 50.9317 25.263C51.1766 25.3429 51.435 25.3739 51.692 25.3543C51.949 25.3347 52.1995 25.2648 52.4292 25.1486L57.217 22.774C57.6531 23.0601 58.1426 23.2564 58.6565 23.3513C59.1705 23.4462 59.6985 23.4377 60.2091 23.3264C60.7197 23.2151 61.2025 23.0032 61.629 22.7032C62.0555 22.4033 62.4169 22.0214 62.6919 21.5803C62.9668 21.1392 63.1496 20.6478 63.2294 20.1353C63.3093 19.6227 63.2846 19.0995 63.1568 18.5966C63.0289 18.0938 62.8006 17.6215 62.4853 17.2078C62.17 16.7941 61.7742 16.4475 61.3213 16.1884V7.91577C61.3213 7.40191 61.1155 6.9091 60.7492 6.54575C60.3829 6.1824 59.8861 5.97827 59.3681 5.97827C58.8501 5.97827 58.3534 6.1824 57.9871 6.54575C57.6208 6.9091 57.415 7.40191 57.415 7.91577Z" fill="black"/>
<path d="M20.3057 46.6658C20.8237 46.6658 21.3204 46.4616 21.6867 46.0983C22.053 45.7349 22.2588 45.2421 22.2588 44.7283C22.26 43.7009 22.672 42.716 23.4043 41.9896C24.1366 41.2631 25.1294 40.8545 26.165 40.8533C26.683 40.8533 27.1798 40.6491 27.5461 40.2858C27.9124 39.9224 28.1182 39.4296 28.1182 38.9158C28.1182 38.4019 27.9124 37.9091 27.5461 37.5458C27.1798 37.1824 26.683 36.9783 26.165 36.9783C24.0937 36.9806 22.108 37.7978 20.6433 39.2507C19.1787 40.7036 18.3549 42.6736 18.3525 44.7283C18.3525 45.2421 18.5583 45.7349 18.9246 46.0983C19.2909 46.4616 19.7877 46.6658 20.3057 46.6658Z" fill="black"/>
<path d="M22.2588 33.1033C22.2588 32.5894 22.053 32.0966 21.6867 31.7333C21.3205 31.3699 20.8237 31.1658 20.3057 31.1658C18.2344 31.1681 16.2486 31.9853 14.784 33.4382C13.3193 34.8911 12.4955 36.8611 12.4932 38.9158C12.4932 39.4296 12.6989 39.9224 13.0652 40.2858C13.4315 40.6491 13.9283 40.8533 14.4463 40.8533C14.9643 40.8533 15.4611 40.6491 15.8274 40.2858C16.1936 39.9224 16.3994 39.4296 16.3994 38.9158C16.4006 37.8884 16.8126 36.9035 17.5449 36.1771C18.2772 35.4506 19.27 35.042 20.3057 35.0408C20.8237 35.0408 21.3205 34.8366 21.6867 34.4733C22.053 34.1099 22.2588 33.6171 22.2588 33.1033Z" fill="black"/>
<path d="M104.29 62.1658C104.29 61.6519 104.084 61.1591 103.718 60.7958C103.352 60.4324 102.855 60.2283 102.337 60.2283C101.819 60.2283 101.322 60.4324 100.956 60.7958C100.59 61.1591 100.384 61.6519 100.384 62.1658C100.383 63.1931 99.9706 64.178 99.2383 64.9045C98.506 65.6309 97.5131 66.0396 96.4775 66.0408C95.9595 66.0408 95.4627 66.2449 95.0964 66.6082C94.7302 66.9716 94.5244 67.4644 94.5244 67.9783C94.5244 68.4921 94.7302 68.9849 95.0964 69.3483C95.4627 69.7116 95.9595 69.9158 96.4775 69.9158C98.5488 69.9135 100.535 69.0962 101.999 67.6433C103.464 66.1904 104.288 64.2205 104.29 62.1658Z" fill="black"/>
<path d="M102.337 75.7283C104.408 75.726 106.394 74.9087 107.859 73.4558C109.323 72.0029 110.147 70.033 110.149 67.9783C110.149 67.4644 109.944 66.9716 109.577 66.6083C109.211 66.2449 108.714 66.0408 108.196 66.0408C107.678 66.0408 107.181 66.2449 106.815 66.6083C106.449 66.9716 106.243 67.4644 106.243 67.9783C106.242 69.0056 105.83 69.9905 105.098 70.717C104.365 71.4434 103.373 71.8521 102.337 71.8533C101.819 71.8533 101.322 72.0574 100.956 72.4208C100.59 72.7841 100.384 73.2769 100.384 73.7908C100.384 74.3046 100.59 74.7974 100.956 75.1608C101.322 75.5241 101.819 75.7283 102.337 75.7283Z" fill="black"/>
</svg>
