<svg width="88" height="123" viewBox="0 0 88 123" fill="none" xmlns="http://www.w3.org/2000/svg">
<path d="M79.9046 27.0416L79.2884 33.1152L70.4609 120.17H17.5765L16.7572 112.082L8.74901 33.1152L8.13281 27.0416H79.9046Z" fill="#E0E0DE"/>
<path d="M79.9046 27.0416L79.2884 33.1152L70.4609 120.17H17.5765L16.7573 112.082C44.0187 99.9244 64.7948 69.5565 71.6272 27.0416H79.9046Z" fill="#D9D9D7"/>
<path d="M2.46661 14.8951H85.5707V27.0416H2.46661V14.8951Z" fill="#92563A"/>
<path d="M78.0158 14.8951H10.0215L13.799 2.74768H74.2384L78.0158 14.8951Z" fill="#875036"/>
<path d="M81.7933 47.2872L76.1271 99.9264H11.9103L6.24408 47.2872H81.7933Z" fill="#FFB531"/>
<path d="M79.9046 27.0416L79.2884 33.1144H8.74901L8.13281 27.0416H79.9046Z" fill="#D9D9D7"/>
<path d="M64.7947 14.8951H85.5707V27.0416H64.7947V14.8951Z" fill="#875036"/>
<path d="M85.5707 12.8702H79.3771L76.0303 2.10708C75.9049 1.70395 75.6644 1.35332 75.3428 1.10487C75.0212 0.856424 74.6348 0.722747 74.2384 0.722778H13.799C13.4026 0.722747 13.0162 0.856424 12.6946 1.10487C12.373 1.35332 12.1324 1.70395 12.0071 2.10708L8.66023 12.8702H2.46661C1.96569 12.8702 1.48528 13.0835 1.13108 13.4632C0.776872 13.8429 0.577881 14.3578 0.577881 14.8948V27.0422C0.577881 27.5791 0.776872 28.0941 1.13108 28.4738C1.48528 28.8534 1.96569 29.0667 2.46661 29.0667H77.7993L76.1561 45.2633H11.8812L10.6266 32.897L6.87137 33.3348L8.08157 45.2633H6.24407C5.97778 45.2633 5.71449 45.3237 5.4715 45.4404C5.2285 45.5572 5.01129 45.7277 4.83411 45.9408C4.65694 46.1539 4.5238 46.4048 4.44345 46.6769C4.36309 46.9491 4.33733 47.2364 4.36785 47.5199L10.034 100.159C10.0872 100.652 10.3077 101.108 10.6536 101.438C10.9996 101.769 11.4468 101.951 11.9103 101.951H13.9933L15.8641 120.391C15.9144 120.887 16.1339 121.346 16.4805 121.679C16.827 122.013 17.2762 122.197 17.7417 122.197H70.6262C71.0917 122.197 71.5409 122.013 71.8874 121.679C72.234 121.346 72.4535 120.887 72.5038 120.391L74.3748 101.951H76.1271C76.5905 101.951 77.0378 101.769 77.3837 101.438C77.7297 101.108 77.9502 100.652 78.0033 100.159L83.6695 47.5199C83.7 47.2364 83.6743 46.9491 83.5939 46.6769C83.5135 46.4048 83.3804 46.1539 83.2032 45.9408C83.0261 45.7277 82.8089 45.5572 82.5659 45.4404C82.3229 45.3237 82.0596 45.2633 81.7933 45.2633H79.9558L81.599 29.0667H85.5707C86.0717 29.0667 86.5521 28.8534 86.9063 28.4738C87.2605 28.0941 87.4595 27.5791 87.4595 27.0422V14.8948C87.4595 14.3578 87.2605 13.8429 86.9063 13.4632C86.5521 13.0835 86.0717 12.8702 85.5707 12.8702V12.8702ZM68.9317 118.148H19.4361L17.793 101.951H70.5749L68.9317 118.148ZM74.4438 97.9021H13.5936L8.36346 49.3124H79.6739L74.4438 97.9021ZM15.1603 4.77192H72.8771L75.3952 12.8702H12.6421L15.1603 4.77192ZM83.682 25.0176H4.35534V16.9193H83.682V25.0176Z" fill="black"/>
<path d="M13.8335 53.5432L17.5918 53.1384L21.3881 93.6251L17.6298 94.03L13.8335 53.5432Z" fill="black"/>
<path d="M23.2584 53.4745L27.0321 53.272L28.9232 93.7717L25.1495 93.9742L23.2584 53.4745Z" fill="black"/>
<path d="M32.6863 53.3615H36.4638V93.8571H32.6863V53.3615Z" fill="black"/>
<path d="M59.1528 93.7406L61.0439 53.2409L64.8176 53.4433L62.9265 93.943L59.1528 93.7406Z" fill="black"/>
<path d="M51.5736 53.3615H55.3511V93.8571H51.5736V53.3615Z" fill="black"/>
<path d="M42.1299 53.3615H45.9074V93.8571H42.1299V53.3615Z" fill="black"/>
<path d="M66.6569 93.614L70.4152 53.1286L74.1736 53.5294L70.4152 94.0148L66.6569 93.614Z" fill="black"/>
</svg>
